# This file uses centimeters as units for non-parametric coordinates.

mtllib camino.mtl
g default
v 8.277135 -0.000000 -8.250055
v 8.277135 -0.000000 -4.671550
v 8.169199 -0.000000 -4.647952
v 8.051105 -0.000000 -4.644347
v 8.030075 -0.000000 -8.497320
v 7.923489 -0.000000 -4.658923
v 7.788656 -0.000000 -8.729011
v 7.786967 -0.000000 -4.689927
v 7.489575 -0.000000 -4.794485
v 7.321897 -0.000000 -9.147163
v 7.163471 -0.000000 -4.945141
v 6.875179 -0.000000 -9.507502
v 6.812887 -0.000000 -5.129940
v 6.446819 -0.000000 -9.813017
v 6.441746 -0.000000 -5.337850
v 6.035134 -0.000000 -10.066699
v 5.651943 -0.000000 -5.783497
v 5.638444 -0.000000 -10.271538
v 5.255067 -0.000000 -10.430527
v 4.883322 -0.000000 -10.546652
v 4.819257 -0.000000 -6.212320
v 4.521525 -0.000000 -10.622907
v 4.393352 -0.000000 -6.402665
v 4.167996 -0.000000 -10.662279
v 3.963931 -0.000000 -6.569344
v 3.821053 -0.000000 -10.667762
v 3.532751 -0.000000 -6.707796
v 3.479014 -0.000000 -10.642344
v 3.140197 -0.000000 -10.589015
v 3.101258 -0.000000 -6.814387
v 2.802921 -0.000000 -10.510768
v 2.670591 -0.000000 -6.886402
v 2.465504 -0.000000 -10.410591
v 2.241577 -0.000000 -6.922054
v 2.126264 -0.000000 -10.291475
v 1.814735 -0.000000 -6.920482
v 1.435589 -0.000000 -10.008388
v 1.390274 -0.000000 -6.881745
v 0.968094 -0.000000 -6.806830
v 0.717442 -0.000000 -9.685428
v 0.547784 -0.000000 -6.697646
v 0.128625 -0.000000 -6.557028
v -0.041631 0.000000 -9.346520
v -0.290412 0.000000 -6.388735
v -0.710665 0.000000 -6.197449
v -0.855084 0.000000 -9.015587
v -1.133783 0.000000 -5.988780
v -1.286407 0.000000 -8.860587
v -1.736370 0.000000 -8.716551
v -1.996753 0.000000 -5.546340
v -2.206655 0.000000 -8.586470
v -2.441449 0.000000 -5.328407
v -2.698943 0.000000 -8.473335
v -2.898696 0.000000 -5.124764
v -3.214917 0.000000 -8.380135
v -3.371692 0.000000 -4.945640
v -3.756258 0.000000 -8.309862
v -3.863941 0.000000 -4.802191
v -4.324647 0.000000 -8.265505
v -4.379258 0.000000 -4.706493
v -4.646844 0.000000 -4.680579
v -4.921767 0.000000 -8.250055
v -4.921767 0.000000 -4.671550
v 8.277135 0.010000 -8.250055
v 8.277135 0.010000 -4.671550
v 8.169199 0.010000 -4.647952
v 8.051105 0.010000 -4.644347
v 8.030075 0.010000 -8.497320
v 7.923489 0.010000 -4.658923
v 7.788656 0.010000 -8.729011
v 7.786967 0.010000 -4.689927
v 7.489575 0.010000 -4.794485
v 7.321897 0.010000 -9.147163
v 7.163471 0.010000 -4.945141
v 6.875179 0.010000 -9.507502
v 6.812887 0.010000 -5.129940
v 6.446819 0.010000 -9.813017
v 6.441746 0.010000 -5.337850
v 6.035134 0.010000 -10.066699
v 5.651943 0.010000 -5.783497
v 5.638444 0.010000 -10.271538
v 5.255067 0.010000 -10.430527
v 4.883322 0.010000 -10.546652
v 4.819257 0.010000 -6.212320
v 4.521525 0.010000 -10.622907
v 4.393352 0.010000 -6.402665
v 4.167996 0.010000 -10.662279
v 3.963931 0.010000 -6.569344
v 3.821053 0.010000 -10.667762
v 3.532751 0.010000 -6.707796
v 3.479014 0.010000 -10.642344
v 3.140197 0.010000 -10.589015
v 3.101258 0.010000 -6.814387
v 2.802921 0.010000 -10.510768
v 2.670591 0.010000 -6.886402
v 2.465504 0.010000 -10.410591
v 2.241577 0.010000 -6.922054
v 2.126264 0.010000 -10.291475
v 1.814735 0.010000 -6.920482
v 1.435589 0.010000 -10.008388
v 1.390274 0.010000 -6.881745
v 0.968094 0.010000 -6.806830
v 0.717442 0.010000 -9.685428
v 0.547784 0.010000 -6.697646
v 0.128625 0.010000 -6.557028
v -0.041631 0.010000 -9.346520
v -0.290412 0.010000 -6.388735
v -0.710665 0.010000 -6.197449
v -0.855084 0.010000 -9.015587
v -1.133783 0.010000 -5.988780
v -1.286407 0.010000 -8.860587
v -1.736370 0.010000 -8.716551
v -1.996753 0.010000 -5.546340
v -2.206655 0.010000 -8.586470
v -2.441449 0.010000 -5.328407
v -2.698943 0.010000 -8.473335
v -2.898696 0.010000 -5.124764
v -3.214917 0.010000 -8.380135
v -3.371692 0.010000 -4.945640
v -3.756258 0.010000 -8.309862
v -3.863941 0.010000 -4.802191
v -4.324647 0.010000 -8.265505
v -4.379258 0.010000 -4.706493
v -4.646844 0.010000 -4.680579
v -4.921767 0.010000 -8.250055
v -4.921767 0.010000 -4.671550
vt 0.000000 0.000000
vt 0.357850 0.000000
vt 0.000000 0.001000
vt 0.357850 0.001000
vt 1.164217 0.000000
vt 1.182408 0.000000
vt 1.164217 0.001000
vt 1.182408 0.001000
vt 1.200599 0.000000
vt 1.200599 0.001000
vt 1.236981 0.000000
vt 1.236981 0.001000
vt 1.273363 0.000000
vt 1.273363 0.001000
vt 1.309744 0.000000
vt 1.309744 0.001000
vt 1.346126 0.000000
vt 1.346126 0.001000
vt 1.382508 0.000000
vt 1.382508 0.001000
vt 1.418890 0.000000
vt 1.418890 0.001000
vt 1.455272 0.000000
vt 1.455272 0.001000
vt 1.491653 0.000000
vt 1.491653 0.001000
vt 1.528035 0.000000
vt 1.528035 0.001000
vt 1.564417 0.000000
vt 1.564417 0.001000
vt 1.600799 0.000000
vt 1.600799 0.001000
vt 1.637181 0.000000
vt 1.637181 0.001000
vt 1.673562 0.000000
vt 1.673562 0.001000
vt 1.709944 0.000000
vt 1.709944 0.001000
vt 1.746326 0.000000
vt 1.746326 0.001000
vt 1.819090 0.000000
vt 1.819090 0.001000
vt 1.891853 0.000000
vt 1.891853 0.001000
vt 1.964617 0.000000
vt 1.964617 0.001000
vt 2.037380 0.000000
vt 2.037380 0.001000
vt 2.073762 0.000000
vt 2.073762 0.001000
vt 2.110144 0.000000
vt 2.110144 0.001000
vt 2.146526 0.000000
vt 2.146526 0.001000
vt 2.182908 0.000000
vt 2.182908 0.001000
vt 2.219289 0.000000
vt 2.219289 0.001000
vt 2.255671 0.000000
vt 2.255671 0.001000
vt 2.292053 0.000000
vt 2.292053 0.001000
vt 2.328435 0.000000
vt 2.328435 0.001000
vt 0.000000 0.000000
vt 0.357850 0.000000
vt 0.000000 0.001000
vt 0.357850 0.001000
vt 1.370657 0.000000
vt 1.392074 0.000000
vt 1.370657 0.001000
vt 1.392074 0.001000
vt 1.413490 0.000000
vt 1.413490 0.001000
vt 1.456323 0.000000
vt 1.456323 0.001000
vt 1.499156 0.000000
vt 1.499156 0.001000
vt 1.541989 0.000000
vt 1.541989 0.001000
vt 1.584822 0.000000
vt 1.584822 0.001000
vt 1.627655 0.000000
vt 1.627655 0.001000
vt 1.713321 0.000000
vt 1.713321 0.001000
vt 1.756154 0.000000
vt 1.756154 0.001000
vt 1.798987 0.000000
vt 1.798987 0.001000
vt 1.841820 0.000000
vt 1.841820 0.001000
vt 1.884653 0.000000
vt 1.884653 0.001000
vt 1.927487 0.000000
vt 1.927487 0.001000
vt 1.970320 0.000000
vt 1.970320 0.001000
vt 2.013153 0.000000
vt 2.013153 0.001000
vt 2.055986 0.000000
vt 2.055986 0.001000
vt 2.098819 0.000000
vt 2.098819 0.001000
vt 2.141652 0.000000
vt 2.141652 0.001000
vt 2.184485 0.000000
vt 2.184485 0.001000
vt 2.227318 0.000000
vt 2.227318 0.001000
vt 2.270151 0.000000
vt 2.270151 0.001000
vt 2.312984 0.000000
vt 2.312984 0.001000
vt 2.398650 0.000000
vt 2.398650 0.001000
vt 2.484316 0.000000
vt 2.484316 0.001000
vt 2.527149 0.000000
vt 2.527149 0.001000
vt 2.569982 0.000000
vt 2.569982 0.001000
vt 2.612815 0.000000
vt 2.612815 0.001000
vt 2.655648 0.000000
vt 2.655648 0.001000
vt 2.677065 0.000000
vt 2.677065 0.001000
vt 2.698481 0.000000
vt 2.698481 0.001000
vt 2.719898 0.000000
vt 2.719898 0.001000
vt 2.741314 0.000000
vt 2.741314 0.001000
vt -0.423744 0.659945
vt -0.422841 0.632453
vt -0.065893 0.659945
vt -0.420249 0.605694
vt -0.410680 0.554163
vt -0.064348 0.600233
vt -0.396335 0.504938
vt -0.378422 0.457638
vt -0.059912 0.543394
vt -0.358058 0.411913
vt -0.052885 0.489260
vt -0.336265 0.367444
vt -0.043565 0.437663
vt -0.292021 0.281147
vt -0.032252 0.388434
vt -0.271154 0.238835
vt -0.019243 0.341405
vt -0.252025 0.196810
vt -0.004840 0.296409
vt -0.235196 0.154906
vt 0.010660 0.253277
vt -0.221134 0.112990
vt 0.043753 0.171931
vt -0.210216 0.070959
vt -0.202724 0.028741
vt 0.077644 0.096024
vt -0.198850 -0.013705
vt 0.109940 0.024209
vt -0.198693 -0.056389
vt 0.138249 -0.044858
vt -0.202258 -0.099291
vt 0.150160 -0.078782
vt -0.209460 -0.142357
vt 0.160178 -0.112524
vt 0.168003 -0.146251
vt 0.173336 -0.180133
vt 0.175878 -0.214337
vt 0.175329 -0.249031
vt -0.220119 -0.185507
vt 0.171392 -0.284384
vt 0.163767 -0.320564
vt 0.152154 -0.357738
vt 0.136255 -0.396076
vt -0.233964 -0.228625
vt 0.115771 -0.435745
vt 0.090403 -0.476913
vt -0.250632 -0.271567
vt 0.059852 -0.519750
vt -0.269667 -0.314157
vt 0.023818 -0.564421
vt -0.017998 -0.611097
vt -0.312549 -0.397426
vt -0.041167 -0.635239
vt -0.065893 -0.659945
vt -0.357114 -0.476406
vt -0.377905 -0.513520
vt -0.396384 -0.548579
vt -0.411450 -0.581189
vt -0.423744 -0.659945
vt -0.421906 -0.610928
vt -0.425006 -0.624581
vt -0.426464 -0.637342
vt -0.426103 -0.649151
vt 0.426103 -0.649151
vt 0.426464 -0.637342
vt 0.423744 -0.659945
vt 0.425006 -0.624581
vt 0.421906 -0.610928
vt 0.411450 -0.581189
vt 0.065893 -0.659945
vt 0.396384 -0.548579
vt 0.377905 -0.513520
vt 0.357114 -0.476406
vt 0.312549 -0.397426
vt 0.041167 -0.635239
vt 0.017998 -0.611097
vt 0.269667 -0.314157
vt -0.023818 -0.564421
vt -0.059852 -0.519750
vt 0.250632 -0.271567
vt -0.090403 -0.476913
vt 0.233964 -0.228625
vt -0.115771 -0.435745
vt -0.136255 -0.396076
vt 0.220119 -0.185507
vt -0.152154 -0.357738
vt -0.163767 -0.320564
vt -0.171392 -0.284384
vt -0.175329 -0.249031
vt 0.209460 -0.142357
vt -0.175878 -0.214337
vt -0.173336 -0.180133
vt -0.168003 -0.146251
vt -0.160178 -0.112524
vt -0.150160 -0.078782
vt 0.202258 -0.099291
vt -0.138249 -0.044858
vt 0.198693 -0.056389
vt -0.109940 0.024209
vt 0.198850 -0.013705
vt -0.077644 0.096024
vt 0.202724 0.028741
vt -0.043753 0.171931
vt 0.210216 0.070959
vt 0.221134 0.112990
vt -0.010660 0.253277
vt 0.235196 0.154906
vt 0.004840 0.296409
vt 0.252025 0.196810
vt 0.019243 0.341405
vt 0.271154 0.238835
vt 0.032252 0.388434
vt 0.292021 0.281147
vt 0.043565 0.437663
vt 0.336265 0.367444
vt 0.052885 0.489260
vt 0.358058 0.411913
vt 0.059912 0.543394
vt 0.378422 0.457638
vt 0.064348 0.600233
vt 0.396335 0.504938
vt 0.410680 0.554163
vt 0.065893 0.659945
vt 0.420249 0.605694
vt 0.422841 0.632453
vt 0.423744 0.659945
vn -1.000000 0.000000 0.000000
vn -1.000000 0.000000 0.000000
vn -1.000000 0.000000 0.000000
vn -1.000000 0.000000 0.000000
vn -1.000000 0.000000 0.000000
vn -1.000000 0.000000 0.000000
vn 0.714389 -0.000000 -0.699749
vn 0.700072 -0.000000 -0.714072
vn 0.714389 -0.000000 -0.699749
vn 0.714389 -0.000000 -0.699749
vn 0.700072 -0.000000 -0.714072
vn 0.700072 -0.000000 -0.714072
vn 0.700072 -0.000000 -0.714072
vn 0.700072 -0.000000 -0.714072
vn 0.684388 -0.000000 -0.729118
vn 0.700072 -0.000000 -0.714072
vn 0.684388 -0.000000 -0.729118
vn 0.684388 -0.000000 -0.729118
vn 0.684388 -0.000000 -0.729118
vn 0.684388 -0.000000 -0.729118
vn 0.648378 -0.000000 -0.761318
vn 0.684388 -0.000000 -0.729118
vn 0.648378 -0.000000 -0.761318
vn 0.648378 -0.000000 -0.761318
vn 0.648378 -0.000000 -0.761318
vn 0.648378 -0.000000 -0.761318
vn 0.605213 -0.000000 -0.796064
vn 0.648378 -0.000000 -0.761318
vn 0.605213 -0.000000 -0.796064
vn 0.605213 -0.000000 -0.796064
vn 0.605213 -0.000000 -0.796064
vn 0.605213 -0.000000 -0.796064
vn 0.553698 -0.000000 -0.832717
vn 0.605213 -0.000000 -0.796064
vn 0.553698 -0.000000 -0.832717
vn 0.553698 -0.000000 -0.832717
vn 0.553698 -0.000000 -0.832717
vn 0.553698 -0.000000 -0.832717
vn 0.492821 -0.000000 -0.870131
vn 0.553698 -0.000000 -0.832717
vn 0.492821 -0.000000 -0.870131
vn 0.492821 -0.000000 -0.870131
vn 0.492821 -0.000000 -0.870131
vn 0.492821 -0.000000 -0.870131
vn 0.421990 -0.000000 -0.906600
vn 0.492821 -0.000000 -0.870131
vn 0.421990 -0.000000 -0.906600
vn 0.421990 -0.000000 -0.906600
vn 0.421990 -0.000000 -0.906600
vn 0.421990 -0.000000 -0.906600
vn 0.341450 -0.000000 -0.939900
vn 0.421990 -0.000000 -0.906600
vn 0.341450 -0.000000 -0.939900
vn 0.341450 -0.000000 -0.939900
vn 0.341450 -0.000000 -0.939900
vn 0.341450 -0.000000 -0.939900
vn 0.252631 -0.000000 -0.967563
vn 0.341450 -0.000000 -0.939900
vn 0.252631 -0.000000 -0.967563
vn 0.252631 -0.000000 -0.967563
vn 0.252631 -0.000000 -0.967563
vn 0.252631 -0.000000 -0.967563
vn 0.158350 -0.000000 -0.987383
vn 0.252631 -0.000000 -0.967563
vn 0.158350 -0.000000 -0.987383
vn 0.158350 -0.000000 -0.987383
vn 0.158350 -0.000000 -0.987383
vn 0.158350 -0.000000 -0.987383
vn 0.062540 -0.000000 -0.998042
vn 0.158350 -0.000000 -0.987383
vn 0.062540 -0.000000 -0.998042
vn 0.062540 -0.000000 -0.998042
vn 0.062540 -0.000000 -0.998042
vn 0.062540 -0.000000 -0.998042
vn -0.030390 0.000000 -0.999538
vn 0.062540 -0.000000 -0.998042
vn -0.030390 0.000000 -0.999538
vn -0.030390 0.000000 -0.999538
vn -0.030390 0.000000 -0.999538
vn -0.030390 0.000000 -0.999538
vn -0.116420 0.000000 -0.993200
vn -0.030390 0.000000 -0.999538
vn -0.116420 0.000000 -0.993200
vn -0.116420 0.000000 -0.993200
vn -0.116420 0.000000 -0.993200
vn -0.116420 0.000000 -0.993200
vn -0.192580 0.000000 -0.981281
vn -0.116420 0.000000 -0.993200
vn -0.192580 0.000000 -0.981281
vn -0.192580 0.000000 -0.981281
vn -0.192580 0.000000 -0.981281
vn -0.192580 0.000000 -0.981281
vn -0.257200 0.000000 -0.966358
vn -0.192580 0.000000 -0.981281
vn -0.257200 0.000000 -0.966358
vn -0.257200 0.000000 -0.966358
vn -0.257200 0.000000 -0.966358
vn -0.257200 0.000000 -0.966358
vn -0.309801 0.000000 -0.950802
vn -0.257200 0.000000 -0.966358
vn -0.309801 0.000000 -0.950802
vn -0.309801 0.000000 -0.950802
vn -0.309801 0.000000 -0.950802
vn -0.309801 0.000000 -0.950802
vn -0.350691 0.000000 -0.936491
vn -0.309801 0.000000 -0.950802
vn -0.350691 0.000000 -0.936491
vn -0.350691 0.000000 -0.936491
vn -0.350691 0.000000 -0.936491
vn -0.350691 0.000000 -0.936491
vn -0.400610 0.000000 -0.916249
vn -0.350691 0.000000 -0.936491
vn -0.400610 0.000000 -0.916249
vn -0.400610 0.000000 -0.916249
vn -0.400610 0.000000 -0.916249
vn -0.400610 0.000000 -0.916249
vn -0.414019 0.000000 -0.910268
vn -0.400610 0.000000 -0.916249
vn -0.414019 0.000000 -0.910268
vn -0.414019 0.000000 -0.910268
vn -0.414019 0.000000 -0.910268
vn -0.414019 0.000000 -0.910268
vn -0.396781 0.000000 -0.917913
vn -0.414019 0.000000 -0.910268
vn -0.396781 0.000000 -0.917913
vn -0.396781 0.000000 -0.917913
vn -0.396781 0.000000 -0.917913
vn -0.396781 0.000000 -0.917913
vn -0.353111 0.000000 -0.935582
vn -0.396781 0.000000 -0.917913
vn -0.353111 0.000000 -0.935582
vn -0.353111 0.000000 -0.935582
vn -0.353111 0.000000 -0.935582
vn -0.353111 0.000000 -0.935582
vn -0.322470 0.000000 -0.946580
vn -0.353111 0.000000 -0.935582
vn -0.322470 0.000000 -0.946580
vn -0.322470 0.000000 -0.946580
vn -0.322470 0.000000 -0.946580
vn -0.322470 0.000000 -0.946580
vn -0.286591 0.000000 -0.958053
vn -0.322470 0.000000 -0.946580
vn -0.286591 0.000000 -0.958053
vn -0.286591 0.000000 -0.958053
vn -0.286591 0.000000 -0.958053
vn -0.286591 0.000000 -0.958053
vn -0.246049 0.000000 -0.969257
vn -0.286591 0.000000 -0.958053
vn -0.246049 0.000000 -0.969257
vn -0.246049 0.000000 -0.969257
vn -0.246049 0.000000 -0.969257
vn -0.246049 0.000000 -0.969257
vn -0.201530 0.000000 -0.979482
vn -0.246049 0.000000 -0.969257
vn -0.201530 0.000000 -0.979482
vn -0.201530 0.000000 -0.979482
vn -0.201530 0.000000 -0.979482
vn -0.201530 0.000000 -0.979482
vn -0.153791 0.000000 -0.988104
vn -0.201530 0.000000 -0.979482
vn -0.153791 0.000000 -0.988104
vn -0.153791 0.000000 -0.988104
vn -0.153791 0.000000 -0.988104
vn -0.153791 0.000000 -0.988104
vn -0.103680 0.000000 -0.994611
vn -0.153791 0.000000 -0.988104
vn -0.103680 0.000000 -0.994611
vn -0.103680 0.000000 -0.994611
vn -0.103680 0.000000 -0.994611
vn -0.103680 0.000000 -0.994611
vn -0.052120 0.000000 -0.998641
vn -0.103680 0.000000 -0.994611
vn -0.052120 0.000000 -0.998641
vn -0.052120 0.000000 -0.998641
vn -0.052120 0.000000 -0.998641
vn -0.052120 0.000000 -0.998641
vn 0.000000 0.000000 -1.000000
vn -0.052120 0.000000 -0.998641
vn 0.000000 0.000000 -1.000000
vn 0.000000 0.000000 -1.000000
vn 1.000000 -0.000000 0.000000
vn 1.000000 -0.000000 0.000000
vn 1.000000 -0.000000 0.000000
vn 1.000000 -0.000000 0.000000
vn 1.000000 -0.000000 0.000000
vn 1.000000 -0.000000 0.000000
vn 0.000000 0.000000 1.000000
vn 0.065360 -0.000000 0.997862
vn 0.000000 0.000000 1.000000
vn 0.000000 0.000000 1.000000
vn 0.065360 -0.000000 0.997862
vn 0.065360 -0.000000 0.997862
vn 0.065360 -0.000000 0.997862
vn 0.065360 -0.000000 0.997862
vn 0.126880 -0.000000 0.991918
vn 0.065360 -0.000000 0.997862
vn 0.126880 -0.000000 0.991918
vn 0.126880 -0.000000 0.991918
vn 0.126880 -0.000000 0.991918
vn 0.126880 -0.000000 0.991918
vn 0.235041 -0.000000 0.971985
vn 0.126880 -0.000000 0.991918
vn 0.235041 -0.000000 0.971985
vn 0.235041 -0.000000 0.971985
vn 0.235041 -0.000000 0.971985
vn 0.235041 -0.000000 0.971985
vn 0.320739 -0.000000 0.947168
vn 0.235041 -0.000000 0.971985
vn 0.320739 -0.000000 0.947168
vn 0.320739 -0.000000 0.947168
vn 0.320739 -0.000000 0.947168
vn 0.320739 -0.000000 0.947168
vn 0.383931 -0.000000 0.923362
vn 0.320739 -0.000000 0.947168
vn 0.383931 -0.000000 0.923362
vn 0.383931 -0.000000 0.923362
vn 0.383931 -0.000000 0.923362
vn 0.383931 -0.000000 0.923362
vn 0.426511 -0.000000 0.904482
vn 0.383931 -0.000000 0.923362
vn 0.426511 -0.000000 0.904482
vn 0.426511 -0.000000 0.904482
vn 0.426511 -0.000000 0.904482
vn 0.426511 -0.000000 0.904482
vn 0.450778 -0.000000 0.892636
vn 0.426511 -0.000000 0.904482
vn 0.450778 -0.000000 0.892636
vn 0.450778 -0.000000 0.892636
vn 0.450778 -0.000000 0.892636
vn 0.450778 -0.000000 0.892636
vn 0.451700 -0.000000 0.892170
vn 0.450778 -0.000000 0.892636
vn 0.451700 -0.000000 0.892170
vn 0.451700 -0.000000 0.892170
vn 0.451700 -0.000000 0.892170
vn 0.451700 -0.000000 0.892170
vn 0.430508 -0.000000 0.902587
vn 0.451700 -0.000000 0.892170
vn 0.430508 -0.000000 0.902587
vn 0.430508 -0.000000 0.902587
vn 0.430508 -0.000000 0.902587
vn 0.430508 -0.000000 0.902587
vn 0.395589 -0.000000 0.918428
vn 0.430508 -0.000000 0.902587
vn 0.395589 -0.000000 0.918428
vn 0.395589 -0.000000 0.918428
vn 0.395589 -0.000000 0.918428
vn 0.395589 -0.000000 0.918428
vn 0.347340 -0.000000 0.937739
vn 0.395589 -0.000000 0.918428
vn 0.347340 -0.000000 0.937739
vn 0.347340 -0.000000 0.937739
vn 0.347340 -0.000000 0.937739
vn 0.347340 -0.000000 0.937739
vn 0.286451 -0.000000 0.958095
vn 0.347340 -0.000000 0.937739
vn 0.286451 -0.000000 0.958095
vn 0.286451 -0.000000 0.958095
vn 0.286451 -0.000000 0.958095
vn 0.286451 -0.000000 0.958095
vn 0.214399 -0.000000 0.976746
vn 0.286451 -0.000000 0.958095
vn 0.214399 -0.000000 0.976746
vn 0.214399 -0.000000 0.976746
vn 0.214399 -0.000000 0.976746
vn 0.214399 -0.000000 0.976746
vn 0.133611 -0.000000 0.991034
vn 0.214399 -0.000000 0.976746
vn 0.133611 -0.000000 0.991034
vn 0.133611 -0.000000 0.991034
vn 0.133611 -0.000000 0.991034
vn 0.133611 -0.000000 0.991034
vn 0.047500 -0.000000 0.998871
vn 0.133611 -0.000000 0.991034
vn 0.047500 -0.000000 0.998871
vn 0.047500 -0.000000 0.998871
vn 0.047500 -0.000000 0.998871
vn 0.047500 -0.000000 0.998871
vn -0.039940 0.000000 0.999202
vn 0.047500 -0.000000 0.998871
vn -0.039940 0.000000 0.999202
vn -0.039940 0.000000 0.999202
vn -0.039940 0.000000 0.999202
vn -0.039940 0.000000 0.999202
vn -0.124740 0.000000 0.992190
vn -0.039940 0.000000 0.999202
vn -0.124740 0.000000 0.992190
vn -0.124740 0.000000 0.992190
vn -0.124740 0.000000 0.992190
vn -0.124740 0.000000 0.992190
vn -0.203599 0.000000 0.979055
vn -0.124740 0.000000 0.992190
vn -0.203599 0.000000 0.979055
vn -0.203599 0.000000 0.979055
vn -0.203599 0.000000 0.979055
vn -0.203599 0.000000 0.979055
vn -0.274210 0.000000 0.961670
vn -0.203599 0.000000 0.979055
vn -0.274210 0.000000 0.961670
vn -0.274210 0.000000 0.961670
vn -0.274210 0.000000 0.961670
vn -0.274210 0.000000 0.961670
vn -0.335318 0.000000 0.942105
vn -0.274210 0.000000 0.961670
vn -0.335318 0.000000 0.942105
vn -0.335318 0.000000 0.942105
vn -0.335318 0.000000 0.942105
vn -0.335318 0.000000 0.942105
vn -0.386491 0.000000 0.922293
vn -0.335318 0.000000 0.942105
vn -0.386491 0.000000 0.922293
vn -0.386491 0.000000 0.922293
vn -0.386491 0.000000 0.922293
vn -0.386491 0.000000 0.922293
vn -0.427789 0.000000 0.903879
vn -0.386491 0.000000 0.922293
vn -0.427789 0.000000 0.903879
vn -0.427789 0.000000 0.903879
vn -0.427789 0.000000 0.903879
vn -0.427789 0.000000 0.903879
vn -0.481389 0.000000 0.876507
vn -0.427789 0.000000 0.903879
vn -0.481389 0.000000 0.876507
vn -0.481389 0.000000 0.876507
vn -0.481389 0.000000 0.876507
vn -0.481389 0.000000 0.876507
vn -0.494013 0.000000 0.869455
vn -0.481389 0.000000 0.876507
vn -0.494013 0.000000 0.869455
vn -0.494013 0.000000 0.869455
vn -0.494013 0.000000 0.869455
vn -0.494013 0.000000 0.869455
vn -0.480608 0.000000 0.876936
vn -0.494013 0.000000 0.869455
vn -0.480608 0.000000 0.876936
vn -0.480608 0.000000 0.876936
vn -0.480608 0.000000 0.876936
vn -0.480608 0.000000 0.876936
vn -0.447490 0.000000 0.894289
vn -0.480608 0.000000 0.876936
vn -0.447490 0.000000 0.894289
vn -0.447490 0.000000 0.894289
vn -0.447490 0.000000 0.894289
vn -0.447490 0.000000 0.894289
vn -0.383301 0.000000 0.923623
vn -0.447490 0.000000 0.894289
vn -0.383301 0.000000 0.923623
vn -0.383301 0.000000 0.923623
vn -0.383301 0.000000 0.923623
vn -0.383301 0.000000 0.923623
vn -0.264731 0.000000 0.964322
vn -0.383301 0.000000 0.923623
vn -0.264731 0.000000 0.964322
vn -0.264731 0.000000 0.964322
vn -0.264731 0.000000 0.964322
vn -0.264731 0.000000 0.964322
vn -0.171999 0.000000 0.985097
vn -0.264731 0.000000 0.964322
vn -0.171999 0.000000 0.985097
vn -0.171999 0.000000 0.985097
vn -0.171999 0.000000 0.985097
vn -0.171999 0.000000 0.985097
vn -0.046980 0.000000 0.998896
vn -0.171999 0.000000 0.985097
vn -0.046980 0.000000 0.998896
vn -0.046980 0.000000 0.998896
vn -0.046980 0.000000 0.998896
vn -0.046980 0.000000 0.998896
vn 0.116721 -0.000000 0.993165
vn -0.046980 0.000000 0.998896
vn 0.116721 -0.000000 0.993165
vn 0.116721 -0.000000 0.993165
vn 0.116721 -0.000000 0.993165
vn 0.116721 -0.000000 0.993165
vn 0.316231 -0.000000 0.948682
vn 0.116721 -0.000000 0.993165
vn 0.316231 -0.000000 0.948682
vn 0.316231 -0.000000 0.948682
vn 0.000000 1.000000 0.000000
vn 0.000000 1.000000 0.000000
vn 0.000000 1.000000 0.000000
vn 0.000000 1.000000 0.000000
vn 0.000000 1.000000 0.000000
vn 0.000000 1.000000 0.000000
vn 0.000000 1.000000 0.000000
vn 0.000000 1.000000 0.000000
vn 0.000000 1.000000 0.000000
vn 0.000000 1.000000 0.000000
vn 0.000000 1.000000 0.000000
vn 0.000000 1.000000 0.000000
vn 0.000000 1.000000 0.000000
vn 0.000000 1.000000 0.000000
vn 0.000000 1.000000 0.000000
vn 0.000000 1.000000 0.000000
vn 0.000000 1.000000 0.000000
vn 0.000000 1.000000 0.000000
vn 0.000000 1.000000 0.000000
vn 0.000000 1.000000 0.000000
vn 0.000000 1.000000 0.000000
vn 0.000000 1.000000 0.000000
vn 0.000000 1.000000 0.000000
vn 0.000000 1.000000 0.000000
vn 0.000000 1.000000 0.000000
vn 0.000000 1.000000 0.000000
vn 0.000000 1.000000 0.000000
vn 0.000000 1.000000 0.000000
vn 0.000000 1.000000 0.000000
vn 0.000000 1.000000 0.000000
vn 0.000000 1.000000 0.000000
vn 0.000000 1.000000 0.000000
vn 0.000000 1.000000 0.000000
vn 0.000000 1.000000 0.000000
vn 0.000000 1.000000 0.000000
vn 0.000000 1.000000 0.000000
vn 0.000000 1.000000 0.000000
vn 0.000000 1.000000 0.000000
vn 0.000000 1.000000 0.000000
vn 0.000000 1.000000 0.000000
vn 0.000000 1.000000 0.000000
vn 0.000000 1.000000 0.000000
vn 0.000000 1.000000 0.000000
vn 0.000000 1.000000 0.000000
vn 0.000000 1.000000 0.000000
vn 0.000000 1.000000 0.000000
vn 0.000000 1.000000 0.000000
vn 0.000000 1.000000 0.000000
vn 0.000000 1.000000 0.000000
vn 0.000000 1.000000 0.000000
vn 0.000000 1.000000 0.000000
vn 0.000000 1.000000 0.000000
vn 0.000000 1.000000 0.000000
vn 0.000000 1.000000 0.000000
vn 0.000000 1.000000 0.000000
vn 0.000000 1.000000 0.000000
vn 0.000000 1.000000 0.000000
vn 0.000000 1.000000 0.000000
vn 0.000000 1.000000 0.000000
vn 0.000000 1.000000 0.000000
vn 0.000000 1.000000 0.000000
vn 0.000000 1.000000 0.000000
vn 0.000000 1.000000 0.000000
vn 0.000000 1.000000 0.000000
vn 0.000000 1.000000 0.000000
vn 0.000000 1.000000 0.000000
vn 0.000000 1.000000 0.000000
vn 0.000000 1.000000 0.000000
vn 0.000000 1.000000 0.000000
vn 0.000000 1.000000 0.000000
vn 0.000000 1.000000 0.000000
vn 0.000000 1.000000 0.000000
vn 0.000000 1.000000 0.000000
vn 0.000000 1.000000 0.000000
vn 0.000000 1.000000 0.000000
vn 0.000000 1.000000 0.000000
vn 0.000000 1.000000 0.000000
vn 0.000000 1.000000 0.000000
vn 0.000000 1.000000 0.000000
vn 0.000000 1.000000 0.000000
vn 0.000000 1.000000 0.000000
vn 0.000000 1.000000 0.000000
vn 0.000000 1.000000 0.000000
vn 0.000000 1.000000 0.000000
vn 0.000000 1.000000 0.000000
vn 0.000000 1.000000 0.000000
vn 0.000000 1.000000 0.000000
vn 0.000000 1.000000 0.000000
vn 0.000000 1.000000 0.000000
vn 0.000000 1.000000 0.000000
vn 0.000000 1.000000 0.000000
vn 0.000000 1.000000 0.000000
vn 0.000000 1.000000 0.000000
vn 0.000000 1.000000 0.000000
vn 0.000000 1.000000 0.000000
vn 0.000000 1.000000 0.000000
vn 0.000000 1.000000 0.000000
vn 0.000000 1.000000 0.000000
vn 0.000000 1.000000 0.000000
vn 0.000000 1.000000 0.000000
vn 0.000000 1.000000 0.000000
vn 0.000000 1.000000 0.000000
vn 0.000000 1.000000 0.000000
vn 0.000000 1.000000 0.000000
vn 0.000000 1.000000 0.000000
vn 0.000000 1.000000 0.000000
vn 0.000000 1.000000 0.000000
vn 0.000000 1.000000 0.000000
vn 0.000000 1.000000 0.000000
vn 0.000000 1.000000 0.000000
vn 0.000000 1.000000 0.000000
vn 0.000000 1.000000 0.000000
vn 0.000000 1.000000 0.000000
vn 0.000000 1.000000 0.000000
vn 0.000000 1.000000 0.000000
vn 0.000000 1.000000 0.000000
vn 0.000000 1.000000 0.000000
vn 0.000000 1.000000 0.000000
vn 0.000000 1.000000 0.000000
vn 0.000000 1.000000 0.000000
vn 0.000000 1.000000 0.000000
vn 0.000000 1.000000 0.000000
vn 0.000000 1.000000 0.000000
vn 0.000000 1.000000 0.000000
vn 0.000000 1.000000 0.000000
vn 0.000000 1.000000 0.000000
vn 0.000000 1.000000 0.000000
vn 0.000000 1.000000 0.000000
vn 0.000000 1.000000 0.000000
vn 0.000000 1.000000 0.000000
vn 0.000000 1.000000 0.000000
vn 0.000000 1.000000 0.000000
vn 0.000000 1.000000 0.000000
vn 0.000000 1.000000 0.000000
vn 0.000000 1.000000 0.000000
vn 0.000000 1.000000 0.000000
vn 0.000000 1.000000 0.000000
vn 0.000000 1.000000 0.000000
vn 0.000000 1.000000 0.000000
vn 0.000000 1.000000 0.000000
vn 0.000000 1.000000 0.000000
vn 0.000000 1.000000 0.000000
vn 0.000000 1.000000 0.000000
vn 0.000000 1.000000 0.000000
vn 0.000000 1.000000 0.000000
vn 0.000000 1.000000 0.000000
vn 0.000000 1.000000 0.000000
vn 0.000000 1.000000 0.000000
vn 0.000000 1.000000 0.000000
vn 0.000000 1.000000 0.000000
vn 0.000000 1.000000 0.000000
vn 0.000000 1.000000 0.000000
vn 0.000000 1.000000 0.000000
vn 0.000000 1.000000 0.000000
vn 0.000000 1.000000 0.000000
vn 0.000000 1.000000 0.000000
vn 0.000000 1.000000 0.000000
vn 0.000000 1.000000 0.000000
vn 0.000000 1.000000 0.000000
vn 0.000000 1.000000 0.000000
vn 0.000000 1.000000 0.000000
vn 0.000000 1.000000 0.000000
vn 0.000000 1.000000 0.000000
vn 0.000000 1.000000 0.000000
vn 0.000000 1.000000 0.000000
vn 0.000000 1.000000 0.000000
vn 0.000000 1.000000 0.000000
vn 0.000000 1.000000 0.000000
vn 0.000000 1.000000 0.000000
vn 0.000000 1.000000 0.000000
vn 0.000000 1.000000 0.000000
vn 0.000000 1.000000 0.000000
vn 0.000000 1.000000 0.000000
vn 0.000000 1.000000 0.000000
vn 0.000000 1.000000 0.000000
vn 0.000000 1.000000 0.000000
vn 0.000000 1.000000 0.000000
vn 0.000000 1.000000 0.000000
vn 0.000000 1.000000 0.000000
vn 0.000000 1.000000 0.000000
vn 0.000000 1.000000 0.000000
vn 0.000000 1.000000 0.000000
vn 0.000000 1.000000 0.000000
vn -0.000000 -1.000000 0.000000
vn -0.000000 -1.000000 0.000000
vn -0.000000 -1.000000 0.000000
vn -0.000000 -1.000000 0.000000
vn -0.000000 -1.000000 0.000000
vn -0.000000 -1.000000 0.000000
vn -0.000000 -1.000000 0.000000
vn -0.000000 -1.000000 0.000000
vn -0.000000 -1.000000 0.000000
vn -0.000000 -1.000000 0.000000
vn -0.000000 -1.000000 0.000000
vn -0.000000 -1.000000 0.000000
vn -0.000000 -1.000000 0.000000
vn -0.000000 -1.000000 0.000000
vn -0.000000 -1.000000 0.000000
vn -0.000000 -1.000000 0.000000
vn -0.000000 -1.000000 0.000000
vn -0.000000 -1.000000 0.000000
vn -0.000000 -1.000000 0.000000
vn -0.000000 -1.000000 0.000000
vn -0.000000 -1.000000 0.000000
vn -0.000000 -1.000000 0.000000
vn -0.000000 -1.000000 0.000000
vn -0.000000 -1.000000 0.000000
vn -0.000000 -1.000000 0.000000
vn -0.000000 -1.000000 0.000000
vn -0.000000 -1.000000 0.000000
vn -0.000000 -1.000000 0.000000
vn -0.000000 -1.000000 0.000000
vn -0.000000 -1.000000 0.000000
vn -0.000000 -1.000000 0.000000
vn -0.000000 -1.000000 0.000000
vn -0.000000 -1.000000 0.000000
vn -0.000000 -1.000000 0.000000
vn -0.000000 -1.000000 0.000000
vn -0.000000 -1.000000 0.000000
vn -0.000000 -1.000000 0.000000
vn -0.000000 -1.000000 0.000000
vn -0.000000 -1.000000 0.000000
vn -0.000000 -1.000000 0.000000
vn -0.000000 -1.000000 0.000000
vn -0.000000 -1.000000 0.000000
vn -0.000000 -1.000000 0.000000
vn -0.000000 -1.000000 0.000000
vn -0.000000 -1.000000 0.000000
vn -0.000000 -1.000000 0.000000
vn -0.000000 -1.000000 0.000000
vn -0.000000 -1.000000 0.000000
vn -0.000000 -1.000000 0.000000
vn -0.000000 -1.000000 0.000000
vn -0.000000 -1.000000 0.000000
vn -0.000000 -1.000000 0.000000
vn -0.000000 -1.000000 0.000000
vn -0.000000 -1.000000 0.000000
vn -0.000000 -1.000000 0.000000
vn -0.000000 -1.000000 0.000000
vn -0.000000 -1.000000 0.000000
vn -0.000000 -1.000000 0.000000
vn -0.000000 -1.000000 0.000000
vn -0.000000 -1.000000 0.000000
vn -0.000000 -1.000000 0.000000
vn -0.000000 -1.000000 0.000000
vn -0.000000 -1.000000 0.000000
vn -0.000000 -1.000000 0.000000
vn -0.000000 -1.000000 0.000000
vn -0.000000 -1.000000 0.000000
vn -0.000000 -1.000000 0.000000
vn -0.000000 -1.000000 0.000000
vn -0.000000 -1.000000 0.000000
vn -0.000000 -1.000000 0.000000
vn -0.000000 -1.000000 0.000000
vn -0.000000 -1.000000 0.000000
vn -0.000000 -1.000000 0.000000
vn -0.000000 -1.000000 0.000000
vn -0.000000 -1.000000 0.000000
vn -0.000000 -1.000000 0.000000
vn -0.000000 -1.000000 0.000000
vn -0.000000 -1.000000 0.000000
vn -0.000000 -1.000000 0.000000
vn -0.000000 -1.000000 0.000000
vn -0.000000 -1.000000 0.000000
vn -0.000000 -1.000000 0.000000
vn -0.000000 -1.000000 0.000000
vn -0.000000 -1.000000 0.000000
vn -0.000000 -1.000000 0.000000
vn -0.000000 -1.000000 0.000000
vn -0.000000 -1.000000 0.000000
vn -0.000000 -1.000000 0.000000
vn -0.000000 -1.000000 0.000000
vn -0.000000 -1.000000 0.000000
vn -0.000000 -1.000000 0.000000
vn -0.000000 -1.000000 0.000000
vn -0.000000 -1.000000 0.000000
vn -0.000000 -1.000000 0.000000
vn -0.000000 -1.000000 0.000000
vn -0.000000 -1.000000 0.000000
vn -0.000000 -1.000000 0.000000
vn -0.000000 -1.000000 0.000000
vn -0.000000 -1.000000 0.000000
vn -0.000000 -1.000000 0.000000
vn -0.000000 -1.000000 0.000000
vn -0.000000 -1.000000 0.000000
vn -0.000000 -1.000000 0.000000
vn -0.000000 -1.000000 0.000000
vn -0.000000 -1.000000 0.000000
vn -0.000000 -1.000000 0.000000
vn -0.000000 -1.000000 0.000000
vn -0.000000 -1.000000 0.000000
vn -0.000000 -1.000000 0.000000
vn -0.000000 -1.000000 0.000000
vn -0.000000 -1.000000 0.000000
vn -0.000000 -1.000000 0.000000
vn -0.000000 -1.000000 0.000000
vn -0.000000 -1.000000 0.000000
vn -0.000000 -1.000000 0.000000
vn -0.000000 -1.000000 0.000000
vn -0.000000 -1.000000 0.000000
vn -0.000000 -1.000000 0.000000
vn -0.000000 -1.000000 0.000000
vn -0.000000 -1.000000 0.000000
vn -0.000000 -1.000000 0.000000
vn -0.000000 -1.000000 0.000000
vn -0.000000 -1.000000 0.000000
vn -0.000000 -1.000000 0.000000
vn -0.000000 -1.000000 0.000000
vn -0.000000 -1.000000 0.000000
vn -0.000000 -1.000000 0.000000
vn -0.000000 -1.000000 0.000000
vn -0.000000 -1.000000 0.000000
vn -0.000000 -1.000000 0.000000
vn -0.000000 -1.000000 0.000000
vn -0.000000 -1.000000 0.000000
vn -0.000000 -1.000000 0.000000
vn -0.000000 -1.000000 0.000000
vn -0.000000 -1.000000 0.000000
vn -0.000000 -1.000000 0.000000
vn -0.000000 -1.000000 0.000000
vn -0.000000 -1.000000 0.000000
vn -0.000000 -1.000000 0.000000
vn -0.000000 -1.000000 0.000000
vn -0.000000 -1.000000 0.000000
vn -0.000000 -1.000000 0.000000
vn -0.000000 -1.000000 0.000000
vn -0.000000 -1.000000 0.000000
vn -0.000000 -1.000000 0.000000
vn -0.000000 -1.000000 0.000000
vn -0.000000 -1.000000 0.000000
vn -0.000000 -1.000000 0.000000
vn -0.000000 -1.000000 0.000000
vn -0.000000 -1.000000 0.000000
vn -0.000000 -1.000000 0.000000
vn -0.000000 -1.000000 0.000000
vn -0.000000 -1.000000 0.000000
vn -0.000000 -1.000000 0.000000
vn -0.000000 -1.000000 0.000000
vn -0.000000 -1.000000 0.000000
vn -0.000000 -1.000000 0.000000
vn -0.000000 -1.000000 0.000000
vn -0.000000 -1.000000 0.000000
vn -0.000000 -1.000000 0.000000
vn -0.000000 -1.000000 0.000000
vn -0.000000 -1.000000 0.000000
vn -0.000000 -1.000000 0.000000
vn -0.000000 -1.000000 0.000000
vn -0.000000 -1.000000 0.000000
vn -0.000000 -1.000000 0.000000
vn -0.000000 -1.000000 0.000000
vn -0.000000 -1.000000 0.000000
vn -0.000000 -1.000000 0.000000
vn -0.000000 -1.000000 0.000000
vn -0.000000 -1.000000 0.000000
vn -0.000000 -1.000000 0.000000
vn -0.000000 -1.000000 0.000000
vn -0.000000 -1.000000 0.000000
vn -0.000000 -1.000000 0.000000
vn -0.000000 -1.000000 0.000000
vn -0.000000 -1.000000 0.000000
vn -0.000000 -1.000000 0.000000
vn -0.000000 -1.000000 0.000000
vn -0.000000 -1.000000 0.000000
vn -0.000000 -1.000000 0.000000
vn -0.000000 -1.000000 0.000000
vn -0.000000 -1.000000 0.000000
s off
usemtl initialShadingGroup
f 62/1/1 63/2/2 125/3/3
f 125/3/4 63/2/5 126/4/6
f 1/5/7 5/6/8 64/7/9
f 64/7/10 5/6/11 68/8/12
f 68/8/13 5/6/14 7/9/15
f 68/8/16 7/9/17 70/10/18
f 70/10/19 7/9/20 10/11/21
f 70/10/22 10/11/23 73/12/24
f 73/12/25 10/11/26 12/13/27
f 73/12/28 12/13/29 75/14/30
f 75/14/31 12/13/32 14/15/33
f 75/14/34 14/15/35 77/16/36
f 77/16/37 14/15/38 16/17/39
f 77/16/40 16/17/41 79/18/42
f 79/18/43 16/17/44 18/19/45
f 79/18/46 18/19/47 81/20/48
f 81/20/49 18/19/50 19/21/51
f 81/20/52 19/21/53 82/22/54
f 82/22/55 19/21/56 20/23/57
f 82/22/58 20/23/59 83/24/60
f 83/24/61 20/23/62 22/25/63
f 83/24/64 22/25/65 85/26/66
f 85/26/67 22/25/68 24/27/69
f 85/26/70 24/27/71 87/28/72
f 87/28/73 24/27/74 26/29/75
f 87/28/76 26/29/77 89/30/78
f 89/30/79 26/29/80 28/31/81
f 89/30/82 28/31/83 91/32/84
f 91/32/85 28/31/86 29/33/87
f 91/32/88 29/33/89 92/34/90
f 92/34/91 29/33/92 31/35/93
f 92/34/94 31/35/95 94/36/96
f 94/36/97 31/35/98 33/37/99
f 94/36/100 33/37/101 96/38/102
f 96/38/103 33/37/104 35/39/105
f 96/38/106 35/39/107 98/40/108
f 98/40/109 35/39/110 37/41/111
f 98/40/112 37/41/113 100/42/114
f 100/42/115 37/41/116 40/43/117
f 100/42/118 40/43/119 103/44/120
f 103/44/121 40/43/122 43/45/123
f 103/44/124 43/45/125 106/46/126
f 106/46/127 43/45/128 46/47/129
f 106/46/130 46/47/131 109/48/132
f 109/48/133 46/47/134 48/49/135
f 109/48/136 48/49/137 111/50/138
f 111/50/139 48/49/140 49/51/141
f 111/50/142 49/51/143 112/52/144
f 112/52/145 49/51/146 51/53/147
f 112/52/148 51/53/149 114/54/150
f 114/54/151 51/53/152 53/55/153
f 114/54/154 53/55/155 116/56/156
f 116/56/157 53/55/158 55/57/159
f 116/56/160 55/57/161 118/58/162
f 118/58/163 55/57/164 57/59/165
f 118/58/166 57/59/167 120/60/168
f 120/60/169 57/59/170 59/61/171
f 120/60/172 59/61/173 122/62/174
f 122/62/175 59/61/176 62/63/177
f 122/62/178 62/63/179 125/64/180
f 2/65/181 1/66/182 65/67/183
f 65/67/184 1/66/185 64/68/186
f 63/69/187 61/70/188 126/71/189
f 126/71/190 61/70/191 124/72/192
f 124/72/193 61/70/194 60/73/195
f 124/72/196 60/73/197 123/74/198
f 123/74/199 60/73/200 58/75/201
f 123/74/202 58/75/203 121/76/204
f 121/76/205 58/75/206 56/77/207
f 121/76/208 56/77/209 119/78/210
f 119/78/211 56/77/212 54/79/213
f 119/78/214 54/79/215 117/80/216
f 117/80/217 54/79/218 52/81/219
f 117/80/220 52/81/221 115/82/222
f 115/82/223 52/81/224 50/83/225
f 115/82/226 50/83/227 113/84/228
f 113/84/229 50/83/230 47/85/231
f 113/84/232 47/85/233 110/86/234
f 110/86/235 47/85/236 45/87/237
f 110/86/238 45/87/239 108/88/240
f 108/88/241 45/87/242 44/89/243
f 108/88/244 44/89/245 107/90/246
f 107/90/247 44/89/248 42/91/249
f 107/90/250 42/91/251 105/92/252
f 105/92/253 42/91/254 41/93/255
f 105/92/256 41/93/257 104/94/258
f 104/94/259 41/93/260 39/95/261
f 104/94/262 39/95/263 102/96/264
f 102/96/265 39/95/266 38/97/267
f 102/96/268 38/97/269 101/98/270
f 101/98/271 38/97/272 36/99/273
f 101/98/274 36/99/275 99/100/276
f 99/100/277 36/99/278 34/101/279
f 99/100/280 34/101/281 97/102/282
f 97/102/283 34/101/284 32/103/285
f 97/102/286 32/103/287 95/104/288
f 95/104/289 32/103/290 30/105/291
f 95/104/292 30/105/293 93/106/294
f 93/106/295 30/105/296 27/107/297
f 93/106/298 27/107/299 90/108/300
f 90/108/301 27/107/302 25/109/303
f 90/108/304 25/109/305 88/110/306
f 88/110/307 25/109/308 23/111/309
f 88/110/310 23/111/311 86/112/312
f 86/112/313 23/111/314 21/113/315
f 86/112/316 21/113/317 84/114/318
f 84/114/319 21/113/320 17/115/321
f 84/114/322 17/115/323 80/116/324
f 80/116/325 17/115/326 15/117/327
f 80/116/328 15/117/329 78/118/330
f 78/118/331 15/117/332 13/119/333
f 78/118/334 13/119/335 76/120/336
f 76/120/337 13/119/338 11/121/339
f 76/120/340 11/121/341 74/122/342
f 74/122/343 11/121/344 9/123/345
f 74/122/346 9/123/347 72/124/348
f 72/124/349 9/123/350 8/125/351
f 72/124/352 8/125/353 71/126/354
f 71/126/355 8/125/356 6/127/357
f 71/126/358 6/127/359 69/128/360
f 69/128/361 6/127/362 4/129/363
f 69/128/364 4/129/365 67/130/366
f 67/130/367 4/129/368 3/131/369
f 67/130/370 3/131/371 66/132/372
f 66/132/373 3/131/374 2/133/375
f 66/132/376 2/133/377 65/134/378
f 126/135/379 124/136/380 125/137/381
f 125/137/382 124/136/383 123/138/384
f 125/137/385 123/138/386 121/139/387
f 125/137/388 121/139/389 122/140/390
f 122/140/391 121/139/392 119/141/393
f 122/140/394 119/141/395 117/142/396
f 122/140/397 117/142/398 120/143/399
f 120/143/400 117/142/401 115/144/402
f 120/143/403 115/144/404 118/145/405
f 118/145/406 115/144/407 113/146/408
f 118/145/409 113/146/410 116/147/411
f 116/147/412 113/146/413 110/148/414
f 116/147/415 110/148/416 114/149/417
f 114/149/418 110/148/419 108/150/420
f 114/149/421 108/150/422 112/151/423
f 112/151/424 108/150/425 107/152/426
f 112/151/427 107/152/428 111/153/429
f 111/153/430 107/152/431 105/154/432
f 111/153/433 105/154/434 109/155/435
f 109/155/436 105/154/437 104/156/438
f 109/155/439 104/156/440 106/157/441
f 106/157/442 104/156/443 102/158/444
f 106/157/445 102/158/446 101/159/447
f 106/157/448 101/159/449 103/160/450
f 103/160/451 101/159/452 99/161/453
f 103/160/454 99/161/455 100/162/456
f 100/162/457 99/161/458 97/163/459
f 100/162/460 97/163/461 98/164/462
f 98/164/463 97/163/464 95/165/465
f 98/164/466 95/165/467 96/166/468
f 96/166/469 95/165/470 93/167/471
f 96/166/472 93/167/473 94/168/474
f 94/168/475 93/167/476 92/169/477
f 92/169/478 93/167/479 91/170/480
f 91/170/481 93/167/482 89/171/483
f 89/171/484 93/167/485 87/172/486
f 87/172/487 93/167/488 90/173/489
f 87/172/490 90/173/491 85/174/492
f 85/174/493 90/173/494 83/175/495
f 83/175/496 90/173/497 82/176/498
f 82/176/499 90/173/500 81/177/501
f 81/177/502 90/173/503 88/178/504
f 81/177/505 88/178/506 79/179/507
f 79/179/508 88/178/509 77/180/510
f 77/180/511 88/178/512 86/181/513
f 77/180/514 86/181/515 75/182/516
f 75/182/517 86/181/518 84/183/519
f 75/182/520 84/183/521 73/184/522
f 73/184/523 84/183/524 70/185/525
f 70/185/526 84/183/527 80/186/528
f 70/185/529 80/186/530 68/187/531
f 68/187/532 80/186/533 64/188/534
f 64/188/535 80/186/536 78/189/537
f 64/188/538 78/189/539 76/190/540
f 76/190/541 74/191/542 64/188/543
f 64/188/544 74/191/545 72/192/546
f 64/188/547 72/192/548 65/193/549
f 65/193/550 72/192/551 71/194/552
f 65/193/553 71/194/554 69/195/555
f 69/195/556 67/196/557 65/193/558
f 65/193/559 67/196/560 66/197/561
f 3/198/562 4/199/563 2/200/564
f 2/200/565 4/199/566 6/201/567
f 2/200/568 6/201/569 8/202/570
f 8/202/571 9/203/572 2/200/573
f 2/200/574 9/203/575 1/204/576
f 1/204/577 9/203/578 11/205/579
f 1/204/580 11/205/581 13/206/582
f 13/206/583 15/207/584 1/204/585
f 1/204/586 15/207/587 17/208/588
f 1/204/589 17/208/590 5/209/591
f 5/209/592 17/208/593 7/210/594
f 7/210/595 17/208/596 21/211/597
f 7/210/598 21/211/599 10/212/600
f 10/212/601 21/211/602 12/213/603
f 12/213/604 21/211/605 23/214/606
f 12/213/607 23/214/608 14/215/609
f 14/215/610 23/214/611 25/216/612
f 14/215/613 25/216/614 16/217/615
f 16/217/616 25/216/617 18/218/618
f 18/218/619 25/216/620 27/219/621
f 18/218/622 27/219/623 19/220/624
f 19/220/625 27/219/626 20/221/627
f 20/221/628 27/219/629 22/222/630
f 22/222/631 27/219/632 24/223/633
f 24/223/634 27/219/635 30/224/636
f 24/223/637 30/224/638 26/225/639
f 26/225/640 30/224/641 28/226/642
f 28/226/643 30/224/644 29/227/645
f 29/227/646 30/224/647 31/228/648
f 31/228/649 30/224/650 33/229/651
f 33/229/652 30/224/653 32/230/654
f 33/229/655 32/230/656 35/231/657
f 35/231/658 32/230/659 34/232/660
f 35/231/661 34/232/662 37/233/663
f 37/233/664 34/232/665 36/234/666
f 37/233/667 36/234/668 40/235/669
f 40/235/670 36/234/671 38/236/672
f 40/235/673 38/236/674 43/237/675
f 43/237/676 38/236/677 39/238/678
f 43/237/679 39/238/680 41/239/681
f 43/237/682 41/239/683 46/240/684
f 46/240/685 41/239/686 42/241/687
f 46/240/688 42/241/689 48/242/690
f 48/242/691 42/241/692 44/243/693
f 48/242/694 44/243/695 49/244/696
f 49/244/697 44/243/698 45/245/699
f 49/244/700 45/245/701 51/246/702
f 51/246/703 45/245/704 47/247/705
f 51/246/706 47/247/707 53/248/708
f 53/248/709 47/247/710 50/249/711
f 53/248/712 50/249/713 55/250/714
f 55/250/715 50/249/716 52/251/717
f 55/250/718 52/251/719 57/252/720
f 57/252/721 52/251/722 54/253/723
f 57/252/724 54/253/725 59/254/726
f 59/254/727 54/253/728 56/255/729
f 59/254/730 56/255/731 58/256/732
f 59/254/733 58/256/734 62/257/735
f 62/257/736 58/256/737 60/258/738
f 62/257/739 60/258/740 61/259/741
f 61/259/742 63/260/743 62/257/744
