# This file uses centimeters as units for non-parametric coordinates.

mtllib ventanas.mtl
g default
v -3.873398 -0.661447 -0.622755
v -3.787893 -0.661447 -0.622755
v -3.938898 -0.606486 -0.622755
v -3.722392 -0.606486 -0.622755
v -3.953746 -0.522280 -0.622755
v -3.707544 -0.522280 -0.622755
v -3.910993 -0.448230 -0.622755
v -3.750297 -0.448230 -0.622755
v -3.830645 -0.418986 -0.622755
v -3.873398 -0.017603 -0.622755
v -3.787893 -0.017603 -0.622755
v -3.938898 0.037359 -0.622755
v -3.722392 0.037359 -0.622755
v -3.953746 0.121565 -0.622755
v -3.707544 0.121565 -0.622755
v -3.910993 0.195615 -0.622755
v -3.750297 0.195615 -0.622755
v -3.830645 0.224859 -0.622755
v -3.873398 0.661730 -0.622755
v -3.787893 0.661730 -0.622755
v -3.938898 0.716691 -0.622755
v -3.722392 0.716691 -0.622755
v -3.953746 0.800897 -0.622755
v -3.707544 0.800897 -0.622755
v -3.910993 0.874947 -0.622755
v -3.750297 0.874947 -0.622755
v -3.830645 0.904191 -0.622755
v -3.873398 -0.661447 -0.629005
v -3.787893 -0.661447 -0.629005
v -3.938898 -0.606486 -0.629005
v -3.722392 -0.606486 -0.629005
v -3.953746 -0.522280 -0.629005
v -3.707544 -0.522280 -0.629005
v -3.910993 -0.448230 -0.629005
v -3.750297 -0.448230 -0.629005
v -3.830645 -0.418986 -0.629005
v -3.873398 -0.017603 -0.629005
v -3.787893 -0.017603 -0.629005
v -3.938898 0.037359 -0.629005
v -3.722392 0.037359 -0.629005
v -3.953746 0.121565 -0.629005
v -3.707544 0.121565 -0.629005
v -3.910993 0.195615 -0.629005
v -3.750297 0.195615 -0.629005
v -3.830645 0.224859 -0.629005
v -3.873398 0.661730 -0.629005
v -3.787893 0.661730 -0.629005
v -3.938898 0.716691 -0.629005
v -3.722392 0.716691 -0.629005
v -3.953746 0.800897 -0.629005
v -3.707544 0.800897 -0.629005
v -3.910993 0.874947 -0.629005
v -3.750297 0.874947 -0.629005
v -3.830645 0.904191 -0.629005
vt -0.005000 -0.069813
vt -0.000000 0.000000
vt -0.005000 0.000000
vt -0.000000 0.069813
vt -0.005000 0.069813
vt -0.000000 0.139626
vt -0.005000 0.139626
vt -0.000000 0.209440
vt -0.005000 0.209440
vt -0.000000 0.279253
vt -0.000000 0.279253
vt -0.005000 0.279253
vt -0.005000 -0.349066
vt -0.000000 -0.349066
vt -0.000000 -0.279253
vt -0.005000 -0.349066
vt -0.005000 -0.279253
vt -0.000000 -0.209440
vt -0.005000 -0.209440
vt -0.000000 -0.139626
vt -0.005000 -0.139626
vt -0.000000 -0.069813
vt 0.000000 0.100000
vt -0.064279 0.076604
vt 0.064279 0.076604
vt 0.098481 0.017365
vt -0.098481 0.017365
vt 0.086603 -0.050000
vt -0.086603 -0.050000
vt 0.034202 -0.093969
vt -0.034202 -0.093969
vt -0.000000 0.100000
vt -0.064279 0.076604
vt 0.064279 0.076604
vt 0.098481 0.017365
vt -0.098481 0.017365
vt 0.086603 -0.050000
vt -0.086603 -0.050000
vt 0.034202 -0.093969
vt -0.034202 -0.093969
vt -0.005000 -0.069813
vt -0.000000 0.000000
vt -0.005000 0.000000
vt -0.000000 0.069813
vt -0.005000 0.069813
vt -0.000000 0.139626
vt -0.005000 0.139626
vt -0.000000 0.209440
vt -0.005000 0.209440
vt -0.000000 0.279253
vt -0.000000 0.279253
vt -0.005000 0.279253
vt -0.005000 -0.349066
vt -0.000000 -0.349066
vt -0.000000 -0.279253
vt -0.005000 -0.349066
vt -0.005000 -0.279253
vt -0.000000 -0.209440
vt -0.005000 -0.209440
vt -0.000000 -0.139626
vt -0.005000 -0.139626
vt -0.000000 -0.069813
vt 0.000000 0.100000
vt -0.064279 0.076604
vt 0.064279 0.076604
vt 0.098481 0.017365
vt -0.098481 0.017365
vt 0.086603 -0.050000
vt -0.086603 -0.050000
vt 0.034202 -0.093969
vt -0.034202 -0.093969
vt -0.000000 0.100000
vt -0.064279 0.076604
vt 0.064279 0.076604
vt 0.098481 0.017365
vt -0.098481 0.017365
vt 0.086603 -0.050000
vt -0.086603 -0.050000
vt 0.034202 -0.093969
vt -0.034202 -0.093969
vt -0.005000 -0.069813
vt -0.000000 0.000000
vt -0.005000 0.000000
vt -0.000000 0.069813
vt -0.005000 0.069813
vt -0.000000 0.139626
vt -0.005000 0.139626
vt -0.000000 0.209440
vt -0.005000 0.209440
vt -0.000000 0.279253
vt -0.000000 0.279253
vt -0.005000 0.279253
vt -0.005000 -0.349066
vt -0.000000 -0.349066
vt -0.000000 -0.279253
vt -0.005000 -0.349066
vt -0.005000 -0.279253
vt -0.000000 -0.209440
vt -0.005000 -0.209440
vt -0.000000 -0.139626
vt -0.005000 -0.139626
vt -0.000000 -0.069813
vt 0.000000 0.100000
vt -0.064279 0.076604
vt 0.064279 0.076604
vt 0.098481 0.017365
vt -0.098481 0.017365
vt 0.086603 -0.050000
vt -0.086603 -0.050000
vt 0.034202 -0.093969
vt -0.034202 -0.093969
vt -0.000000 0.100000
vt -0.064279 0.076604
vt 0.064279 0.076604
vt 0.098481 0.017365
vt -0.098481 0.017365
vt 0.086603 -0.050000
vt -0.086603 -0.050000
vt 0.034202 -0.093969
vt -0.034202 -0.093969
vn -0.342021 0.939692 0.000000
vn -0.342021 0.939692 0.000000
vn -0.342021 0.939692 0.000000
vn 0.000000 1.000000 0.000000
vn 0.000000 1.000000 0.000000
vn 0.642791 0.766042 0.000000
vn 0.000000 1.000000 0.000000
vn 0.642791 0.766042 0.000000
vn 0.642791 0.766042 0.000000
vn 0.642791 0.766042 0.000000
vn 0.642791 0.766042 0.000000
vn 0.984808 0.173650 0.000000
vn 0.642791 0.766042 0.000000
vn 0.984808 0.173650 0.000000
vn 0.984808 0.173650 0.000000
vn 0.984808 0.173650 0.000000
vn 0.984808 0.173650 0.000000
vn 0.866027 -0.499998 0.000000
vn 0.984808 0.173650 0.000000
vn 0.866027 -0.499998 0.000000
vn 0.866027 -0.499998 0.000000
vn 0.866027 -0.499998 0.000000
vn 0.866027 -0.499998 0.000000
vn 0.342021 -0.939692 0.000000
vn 0.866027 -0.499998 0.000000
vn 0.342021 -0.939692 0.000000
vn 0.342021 -0.939692 0.000000
vn 0.342021 -0.939692 0.000000
vn 0.342021 -0.939692 0.000000
vn -0.342021 -0.939692 0.000000
vn 0.342021 -0.939692 0.000000
vn -0.342021 -0.939692 0.000000
vn -0.342021 -0.939692 0.000000
vn -0.342021 -0.939692 0.000000
vn -0.342021 -0.939692 0.000000
vn -0.866027 -0.499998 0.000000
vn -0.342021 -0.939692 0.000000
vn -0.866027 -0.499998 0.000000
vn -0.866027 -0.499998 0.000000
vn -0.866027 -0.499998 0.000000
vn -0.866027 -0.499998 0.000000
vn -0.984808 0.173650 0.000000
vn -0.866027 -0.499998 0.000000
vn -0.984808 0.173650 0.000000
vn -0.984808 0.173650 0.000000
vn -0.984808 0.173650 0.000000
vn -0.984808 0.173650 0.000000
vn -0.642791 0.766042 0.000000
vn -0.984808 0.173650 0.000000
vn -0.642791 0.766042 0.000000
vn -0.642791 0.766042 0.000000
vn -0.642791 0.766042 0.000000
vn -0.642791 0.766042 0.000000
vn 0.000000 1.000000 0.000000
vn -0.000000 0.000000 -1.000000
vn -0.000000 0.000000 -1.000000
vn -0.000000 0.000000 -1.000000
vn -0.000000 0.000000 -1.000000
vn -0.000000 0.000000 -1.000000
vn -0.000000 0.000000 -1.000000
vn -0.000000 0.000000 -1.000000
vn -0.000000 0.000000 -1.000000
vn -0.000000 0.000000 -1.000000
vn -0.000000 0.000000 -1.000000
vn -0.000000 0.000000 -1.000000
vn -0.000000 0.000000 -1.000000
vn -0.000000 0.000000 -1.000000
vn -0.000000 0.000000 -1.000000
vn -0.000000 0.000000 -1.000000
vn -0.000000 0.000000 -1.000000
vn -0.000000 0.000000 -1.000000
vn -0.000000 0.000000 -1.000000
vn -0.000000 0.000000 -1.000000
vn -0.000000 0.000000 -1.000000
vn -0.000000 0.000000 -1.000000
vn 0.000000 0.000000 1.000000
vn 0.000000 0.000000 1.000000
vn 0.000000 0.000000 1.000000
vn 0.000000 0.000000 1.000000
vn 0.000000 0.000000 1.000000
vn 0.000000 0.000000 1.000000
vn 0.000000 0.000000 1.000000
vn 0.000000 0.000000 1.000000
vn 0.000000 0.000000 1.000000
vn 0.000000 0.000000 1.000000
vn 0.000000 0.000000 1.000000
vn 0.000000 0.000000 1.000000
vn 0.000000 0.000000 1.000000
vn 0.000000 0.000000 1.000000
vn 0.000000 0.000000 1.000000
vn 0.000000 0.000000 1.000000
vn 0.000000 0.000000 1.000000
vn 0.000000 0.000000 1.000000
vn 0.000000 0.000000 1.000000
vn 0.000000 0.000000 1.000000
vn 0.000000 0.000000 1.000000
vn -0.642791 0.766042 0.000000
vn 0.000000 1.000000 0.000000
vn 0.000000 1.000000 0.000000
vn 0.000000 1.000000 0.000000
vn 0.000000 1.000000 0.000000
vn 0.642791 0.766042 0.000000
vn 0.000000 1.000000 0.000000
vn 0.642791 0.766042 0.000000
vn 0.642791 0.766042 0.000000
vn 0.642791 0.766042 0.000000
vn 0.642791 0.766042 0.000000
vn 0.984808 0.173650 0.000000
vn 0.642791 0.766042 0.000000
vn 0.984808 0.173650 0.000000
vn 0.984808 0.173650 0.000000
vn 0.984808 0.173650 0.000000
vn 0.984808 0.173650 0.000000
vn 0.866027 -0.499998 0.000000
vn 0.984808 0.173650 0.000000
vn 0.866027 -0.499998 0.000000
vn 0.866027 -0.499998 0.000000
vn 0.866027 -0.499998 0.000000
vn 0.866027 -0.499998 0.000000
vn 0.342021 -0.939692 0.000000
vn 0.866027 -0.499998 0.000000
vn 0.342021 -0.939692 0.000000
vn 0.342021 -0.939692 0.000000
vn 0.342021 -0.939692 0.000000
vn 0.342021 -0.939692 0.000000
vn -0.342021 -0.939692 0.000000
vn 0.342021 -0.939692 0.000000
vn -0.342021 -0.939692 0.000000
vn -0.342021 -0.939692 0.000000
vn -0.342021 -0.939692 0.000000
vn -0.342021 -0.939692 0.000000
vn -0.866027 -0.499998 0.000000
vn -0.342021 -0.939692 0.000000
vn -0.866027 -0.499998 0.000000
vn -0.866027 -0.499998 0.000000
vn -0.866027 -0.499998 0.000000
vn -0.866027 -0.499998 0.000000
vn -0.984808 0.173650 0.000000
vn -0.866027 -0.499998 0.000000
vn -0.984808 0.173650 0.000000
vn -0.984808 0.173650 0.000000
vn -0.984808 0.173650 0.000000
vn -0.984808 0.173650 0.000000
vn -0.642791 0.766042 0.000000
vn -0.984808 0.173650 0.000000
vn -0.642791 0.766042 0.000000
vn -0.642791 0.766042 0.000000
vn -0.642791 0.766042 0.000000
vn -0.642791 0.766042 0.000000
vn 0.000000 1.000000 0.000000
vn -0.000000 0.000000 -1.000000
vn -0.000000 0.000000 -1.000000
vn -0.000000 0.000000 -1.000000
vn -0.000000 0.000000 -1.000000
vn -0.000000 0.000000 -1.000000
vn -0.000000 0.000000 -1.000000
vn -0.000000 0.000000 -1.000000
vn -0.000000 0.000000 -1.000000
vn -0.000000 0.000000 -1.000000
vn -0.000000 0.000000 -1.000000
vn -0.000000 0.000000 -1.000000
vn -0.000000 0.000000 -1.000000
vn -0.000000 0.000000 -1.000000
vn -0.000000 0.000000 -1.000000
vn -0.000000 0.000000 -1.000000
vn -0.000000 0.000000 -1.000000
vn -0.000000 0.000000 -1.000000
vn -0.000000 0.000000 -1.000000
vn -0.000000 0.000000 -1.000000
vn -0.000000 0.000000 -1.000000
vn -0.000000 0.000000 -1.000000
vn 0.000000 0.000000 1.000000
vn 0.000000 0.000000 1.000000
vn 0.000000 0.000000 1.000000
vn 0.000000 0.000000 1.000000
vn 0.000000 0.000000 1.000000
vn 0.000000 0.000000 1.000000
vn 0.000000 0.000000 1.000000
vn 0.000000 0.000000 1.000000
vn 0.000000 0.000000 1.000000
vn 0.000000 0.000000 1.000000
vn 0.000000 0.000000 1.000000
vn 0.000000 0.000000 1.000000
vn 0.000000 0.000000 1.000000
vn 0.000000 0.000000 1.000000
vn 0.000000 0.000000 1.000000
vn 0.000000 0.000000 1.000000
vn 0.000000 0.000000 1.000000
vn 0.000000 0.000000 1.000000
vn 0.000000 0.000000 1.000000
vn 0.000000 0.000000 1.000000
vn 0.000000 0.000000 1.000000
vn -0.642791 0.766042 0.000000
vn 0.000000 1.000000 0.000000
vn 0.000000 1.000000 0.000000
vn 0.000000 1.000000 0.000000
vn 0.000000 1.000000 0.000000
vn 0.642791 0.766042 0.000000
vn 0.000000 1.000000 0.000000
vn 0.642791 0.766042 0.000000
vn 0.642791 0.766042 0.000000
vn 0.642791 0.766042 0.000000
vn 0.642791 0.766042 0.000000
vn 0.984808 0.173650 0.000000
vn 0.642791 0.766042 0.000000
vn 0.984808 0.173650 0.000000
vn 0.984808 0.173650 0.000000
vn 0.984808 0.173650 0.000000
vn 0.984808 0.173650 0.000000
vn 0.866027 -0.499998 0.000000
vn 0.984808 0.173650 0.000000
vn 0.866027 -0.499998 0.000000
vn 0.866027 -0.499998 0.000000
vn 0.866027 -0.499998 0.000000
vn 0.866027 -0.499998 0.000000
vn 0.342021 -0.939692 0.000000
vn 0.866027 -0.499998 0.000000
vn 0.342021 -0.939692 0.000000
vn 0.342021 -0.939692 0.000000
vn 0.342021 -0.939692 0.000000
vn 0.342021 -0.939692 0.000000
vn -0.342021 -0.939692 0.000000
vn 0.342021 -0.939692 0.000000
vn -0.342021 -0.939692 0.000000
vn -0.342021 -0.939692 0.000000
vn -0.342021 -0.939692 0.000000
vn -0.342021 -0.939692 0.000000
vn -0.866027 -0.499998 0.000000
vn -0.342021 -0.939692 0.000000
vn -0.866027 -0.499998 0.000000
vn -0.866027 -0.499998 0.000000
vn -0.866027 -0.499998 0.000000
vn -0.866027 -0.499998 0.000000
vn -0.984808 0.173650 0.000000
vn -0.866027 -0.499998 0.000000
vn -0.984808 0.173650 0.000000
vn -0.984808 0.173650 0.000000
vn -0.984808 0.173650 0.000000
vn -0.984808 0.173650 0.000000
vn -0.642791 0.766042 0.000000
vn -0.984808 0.173650 0.000000
vn -0.642791 0.766042 0.000000
vn -0.642791 0.766042 0.000000
vn -0.642791 0.766042 0.000000
vn -0.642791 0.766042 0.000000
vn 0.000000 1.000000 0.000000
vn -0.000000 0.000000 -1.000000
vn -0.000000 0.000000 -1.000000
vn -0.000000 0.000000 -1.000000
vn -0.000000 0.000000 -1.000000
vn -0.000000 0.000000 -1.000000
vn -0.000000 0.000000 -1.000000
vn -0.000000 0.000000 -1.000000
vn -0.000000 0.000000 -1.000000
vn -0.000000 0.000000 -1.000000
vn -0.000000 0.000000 -1.000000
vn -0.000000 0.000000 -1.000000
vn -0.000000 0.000000 -1.000000
vn -0.000000 0.000000 -1.000000
vn -0.000000 0.000000 -1.000000
vn -0.000000 0.000000 -1.000000
vn -0.000000 0.000000 -1.000000
vn -0.000000 0.000000 -1.000000
vn -0.000000 0.000000 -1.000000
vn -0.000000 0.000000 -1.000000
vn -0.000000 0.000000 -1.000000
vn -0.000000 0.000000 -1.000000
vn 0.000000 0.000000 1.000000
vn 0.000000 0.000000 1.000000
vn 0.000000 0.000000 1.000000
vn 0.000000 0.000000 1.000000
vn 0.000000 0.000000 1.000000
vn 0.000000 0.000000 1.000000
vn 0.000000 0.000000 1.000000
vn 0.000000 0.000000 1.000000
vn 0.000000 0.000000 1.000000
vn 0.000000 0.000000 1.000000
vn 0.000000 0.000000 1.000000
vn 0.000000 0.000000 1.000000
vn 0.000000 0.000000 1.000000
vn 0.000000 0.000000 1.000000
vn 0.000000 0.000000 1.000000
vn 0.000000 0.000000 1.000000
vn 0.000000 0.000000 1.000000
vn 0.000000 0.000000 1.000000
vn 0.000000 0.000000 1.000000
vn 0.000000 0.000000 1.000000
vn 0.000000 0.000000 1.000000
s off
usemtl initialShadingGroup
f 34/1/1 9/2/2 36/3/3
f 36/3/4 9/2/5 8/4/6
f 36/3/7 8/4/8 35/5/9
f 35/5/10 8/4/11 6/6/12
f 35/5/13 6/6/14 33/7/15
f 33/7/16 6/6/17 4/8/18
f 33/7/19 4/8/20 31/9/21
f 31/9/22 4/8/23 2/10/24
f 31/9/25 2/11/26 29/12/27
f 29/13/28 2/14/29 1/15/30
f 29/16/31 1/15/32 28/17/33
f 28/17/34 1/15/35 3/18/36
f 28/17/37 3/18/38 30/19/39
f 30/19/40 3/18/41 5/20/42
f 30/19/43 5/20/44 32/21/45
f 32/21/46 5/20/47 7/22/48
f 32/21/49 7/22/50 34/1/51
f 34/1/52 7/22/53 9/2/54
f 36/23/55 35/24/56 34/25/57
f 34/25/58 35/24/59 32/26/60
f 32/26/61 35/24/62 33/27/63
f 32/26/64 33/27/65 30/28/66
f 30/28/67 33/27/68 31/29/69
f 30/28/70 31/29/71 28/30/72
f 28/30/73 31/29/74 29/31/75
f 9/32/76 7/33/77 8/34/78
f 8/34/79 7/33/80 6/35/81
f 6/35/82 7/33/83 5/36/84
f 6/35/85 5/36/86 4/37/87
f 4/37/88 5/36/89 3/38/90
f 4/37/91 3/38/92 2/39/93
f 2/39/94 3/38/95 1/40/96
f 43/41/97 18/42/98 45/43/99
f 45/43/100 18/42/101 17/44/102
f 45/43/103 17/44/104 44/45/105
f 44/45/106 17/44/107 15/46/108
f 44/45/109 15/46/110 42/47/111
f 42/47/112 15/46/113 13/48/114
f 42/47/115 13/48/116 40/49/117
f 40/49/118 13/48/119 11/50/120
f 40/49/121 11/51/122 38/52/123
f 38/53/124 11/54/125 10/55/126
f 38/56/127 10/55/128 37/57/129
f 37/57/130 10/55/131 12/58/132
f 37/57/133 12/58/134 39/59/135
f 39/59/136 12/58/137 14/60/138
f 39/59/139 14/60/140 41/61/141
f 41/61/142 14/60/143 16/62/144
f 41/61/145 16/62/146 43/41/147
f 43/41/148 16/62/149 18/42/150
f 45/63/151 44/64/152 43/65/153
f 43/65/154 44/64/155 41/66/156
f 41/66/157 44/64/158 42/67/159
f 41/66/160 42/67/161 39/68/162
f 39/68/163 42/67/164 40/69/165
f 39/68/166 40/69/167 37/70/168
f 37/70/169 40/69/170 38/71/171
f 18/72/172 16/73/173 17/74/174
f 17/74/175 16/73/176 15/75/177
f 15/75/178 16/73/179 14/76/180
f 15/75/181 14/76/182 13/77/183
f 13/77/184 14/76/185 12/78/186
f 13/77/187 12/78/188 11/79/189
f 11/79/190 12/78/191 10/80/192
f 52/81/193 27/82/194 54/83/195
f 54/83/196 27/82/197 26/84/198
f 54/83/199 26/84/200 53/85/201
f 53/85/202 26/84/203 24/86/204
f 53/85/205 24/86/206 51/87/207
f 51/87/208 24/86/209 22/88/210
f 51/87/211 22/88/212 49/89/213
f 49/89/214 22/88/215 20/90/216
f 49/89/217 20/91/218 47/92/219
f 47/93/220 20/94/221 19/95/222
f 47/96/223 19/95/224 46/97/225
f 46/97/226 19/95/227 21/98/228
f 46/97/229 21/98/230 48/99/231
f 48/99/232 21/98/233 23/100/234
f 48/99/235 23/100/236 50/101/237
f 50/101/238 23/100/239 25/102/240
f 50/101/241 25/102/242 52/81/243
f 52/81/244 25/102/245 27/82/246
f 54/103/247 53/104/248 52/105/249
f 52/105/250 53/104/251 50/106/252
f 50/106/253 53/104/254 51/107/255
f 50/106/256 51/107/257 48/108/258
f 48/108/259 51/107/260 49/109/261
f 48/108/262 49/109/263 46/110/264
f 46/110/265 49/109/266 47/111/267
f 27/112/268 25/113/269 26/114/270
f 26/114/271 25/113/272 24/115/273
f 24/115/274 25/113/275 23/116/276
f 24/115/277 23/116/278 22/117/279
f 22/117/280 23/116/281 21/118/282
f 22/117/283 21/118/284 20/119/285
f 20/119/286 21/118/287 19/120/288
