# This file uses centimeters as units for non-parametric coordinates.

mtllib antenaExtremos.mtl
g default
v 0.118882 -0.091576 -0.038627
v 0.101127 -0.091576 -0.073473
v 0.073473 -0.091576 -0.101127
v 0.038627 -0.091576 -0.118882
v 0.000000 -0.091576 -0.125000
v -0.038627 -0.091576 -0.118882
v -0.073473 -0.091576 -0.101127
v -0.101127 -0.091576 -0.073473
v -0.118882 -0.091576 -0.038627
v -0.125000 -0.091576 0.000000
v -0.118882 -0.091576 0.038627
v -0.101127 -0.091576 0.073473
v -0.073473 -0.091576 0.101127
v -0.038627 -0.091576 0.118882
v -0.000000 -0.091576 0.125000
v 0.038627 -0.091576 0.118882
v 0.073473 -0.091576 0.101127
v 0.101127 -0.091576 0.073473
v 0.118882 -0.091576 0.038627
v 0.125000 -0.091576 0.000000
v 0.118882 0.908424 -0.038627
v 0.101127 0.908424 -0.073473
v 0.073473 0.908424 -0.101127
v 0.038627 0.908424 -0.118882
v 0.000000 0.908424 -0.125000
v -0.038627 0.908424 -0.118882
v -0.073473 0.908424 -0.101127
v -0.101127 0.908424 -0.073473
v -0.118882 0.908424 -0.038627
v -0.125000 0.908424 0.000000
v -0.118882 0.908424 0.038627
v -0.101127 0.908424 0.073473
v -0.073473 0.908424 0.101127
v -0.038627 0.908424 0.118882
v -0.000000 0.908424 0.125000
v 0.038627 0.908424 0.118882
v 0.073473 0.908424 0.101127
v 0.101127 0.908424 0.073473
v 0.118882 0.908424 0.038627
v 0.125000 0.908424 0.000000
v 0.000000 -0.091576 0.000000
v 0.000000 0.908424 0.000000
vt 0.648603 0.107966
vt 0.626409 0.064408
vt 0.591842 0.029841
vt 0.548284 0.007647
vt 0.500000 -0.000000
vt 0.451716 0.007647
vt 0.408159 0.029841
vt 0.373591 0.064409
vt 0.351397 0.107966
vt 0.343750 0.156250
vt 0.351397 0.204534
vt 0.373591 0.248091
vt 0.408159 0.282659
vt 0.451716 0.304853
vt 0.500000 0.312500
vt 0.548284 0.304853
vt 0.591841 0.282659
vt 0.626409 0.248091
vt 0.648603 0.204534
vt 0.656250 0.156250
vt 0.375000 0.312500
vt 0.387500 0.312500
vt 0.400000 0.312500
vt 0.412500 0.312500
vt 0.425000 0.312500
vt 0.437500 0.312500
vt 0.450000 0.312500
vt 0.462500 0.312500
vt 0.475000 0.312500
vt 0.487500 0.312500
vt 0.500000 0.312500
vt 0.512500 0.312500
vt 0.525000 0.312500
vt 0.537500 0.312500
vt 0.550000 0.312500
vt 0.562500 0.312500
vt 0.575000 0.312500
vt 0.587500 0.312500
vt 0.600000 0.312500
vt 0.612500 0.312500
vt 0.625000 0.312500
vt 0.375000 0.688440
vt 0.387500 0.688440
vt 0.400000 0.688440
vt 0.412500 0.688440
vt 0.425000 0.688440
vt 0.437500 0.688440
vt 0.450000 0.688440
vt 0.462500 0.688440
vt 0.475000 0.688440
vt 0.487500 0.688440
vt 0.500000 0.688440
vt 0.512500 0.688440
vt 0.525000 0.688440
vt 0.537500 0.688440
vt 0.550000 0.688440
vt 0.562500 0.688440
vt 0.575000 0.688440
vt 0.587500 0.688440
vt 0.600000 0.688440
vt 0.612500 0.688440
vt 0.625000 0.688440
vt 0.648603 0.795466
vt 0.626409 0.751908
vt 0.591842 0.717341
vt 0.548284 0.695147
vt 0.500000 0.687500
vt 0.451716 0.695147
vt 0.408159 0.717341
vt 0.373591 0.751909
vt 0.351397 0.795466
vt 0.343750 0.843750
vt 0.351397 0.892034
vt 0.373591 0.935591
vt 0.408159 0.970159
vt 0.451716 0.992353
vt 0.500000 1.000000
vt 0.548284 0.992353
vt 0.591841 0.970159
vt 0.626409 0.935591
vt 0.648603 0.892034
vt 0.656250 0.843750
vt 0.500000 0.150000
vt 0.500000 0.837500
vn 0.951057 0.000000 -0.309016
vn 0.809017 0.000000 -0.587785
vn 0.951057 0.000000 -0.309016
vn 0.809017 0.000000 -0.587785
vn 0.587785 0.000000 -0.809017
vn 0.587785 0.000000 -0.809017
vn 0.309017 0.000000 -0.951057
vn 0.309017 0.000000 -0.951057
vn -0.000000 0.000000 -1.000000
vn 0.000000 0.000000 -1.000000
vn -0.309017 0.000000 -0.951057
vn -0.309017 0.000000 -0.951057
vn -0.587785 0.000000 -0.809017
vn -0.587785 0.000000 -0.809017
vn -0.809017 0.000000 -0.587785
vn -0.809017 0.000000 -0.587785
vn -0.951057 0.000000 -0.309017
vn -0.951057 0.000000 -0.309017
vn -1.000000 0.000000 -0.000000
vn -1.000000 0.000000 0.000000
vn -0.951057 0.000000 0.309017
vn -0.951057 0.000000 0.309017
vn -0.809017 0.000000 0.587785
vn -0.809017 0.000000 0.587785
vn -0.587785 0.000000 0.809017
vn -0.587785 0.000000 0.809017
vn -0.309017 0.000000 0.951057
vn -0.309017 0.000000 0.951057
vn 0.000000 0.000000 1.000000
vn 0.000000 0.000000 1.000000
vn 0.309017 0.000000 0.951057
vn 0.309017 0.000000 0.951057
vn 0.587785 0.000000 0.809017
vn 0.587785 0.000000 0.809017
vn 0.809017 0.000000 0.587785
vn 0.809017 0.000000 0.587785
vn 0.951057 0.000000 0.309017
vn 0.951057 0.000000 0.309017
vn 1.000000 0.000000 0.000001
vn 1.000000 0.000000 0.000001
vn 0.000000 -1.000000 0.000000
vn 0.000000 -1.000000 0.000000
vn 0.000000 -1.000000 0.000000
vn 0.000000 -1.000000 0.000000
vn 0.000000 -1.000000 0.000000
vn 0.000000 -1.000000 0.000000
vn 0.000000 -1.000000 0.000000
vn 0.000000 -1.000000 0.000000
vn 0.000000 -1.000000 0.000000
vn 0.000000 -1.000000 0.000000
vn 0.000000 -1.000000 0.000000
vn 0.000000 -1.000000 0.000000
vn 0.000000 -1.000000 0.000000
vn 0.000000 -1.000000 0.000000
vn 0.000000 -1.000000 0.000000
vn 0.000000 -1.000000 0.000000
vn 0.000000 -1.000000 0.000000
vn 0.000000 -1.000000 0.000000
vn 0.000000 -1.000000 0.000000
vn 0.000000 -1.000000 0.000000
vn 0.000000 -1.000000 0.000000
vn 0.000000 1.000000 0.000000
vn 0.000000 1.000000 0.000000
vn 0.000000 1.000000 0.000000
vn 0.000000 1.000000 0.000000
vn 0.000000 1.000000 0.000000
vn 0.000000 1.000000 0.000000
vn 0.000000 1.000000 0.000000
vn 0.000000 1.000000 0.000000
vn 0.000000 1.000000 0.000000
vn 0.000000 1.000000 0.000000
vn 0.000000 1.000000 0.000000
vn 0.000000 1.000000 0.000000
vn 0.000000 1.000000 0.000000
vn 0.000000 1.000000 0.000000
vn 0.000000 1.000000 0.000000
vn 0.000000 1.000000 0.000000
vn 0.000000 1.000000 0.000000
vn 0.000000 1.000000 0.000000
vn 0.000000 1.000000 0.000000
vn 0.000000 1.000000 0.000000
vn 0.000000 1.000000 0.000000
s 1
g pCylinder1
usemtl initialShadingGroup
f 1/21/1 2/22/2 21/42/3
f 21/42/3 2/22/2 22/43/4
f 2/22/2 3/23/5 22/43/4
f 22/43/4 3/23/5 23/44/6
f 3/23/5 4/24/7 23/44/6
f 23/44/6 4/24/7 24/45/8
f 4/24/7 5/25/9 24/45/8
f 24/45/8 5/25/9 25/46/10
f 5/25/9 6/26/11 25/46/10
f 25/46/10 6/26/11 26/47/12
f 6/26/11 7/27/13 26/47/12
f 26/47/12 7/27/13 27/48/14
f 7/27/13 8/28/15 27/48/14
f 27/48/14 8/28/15 28/49/16
f 8/28/15 9/29/17 28/49/16
f 28/49/16 9/29/17 29/50/18
f 9/29/17 10/30/19 29/50/18
f 29/50/18 10/30/19 30/51/20
f 10/30/19 11/31/21 30/51/20
f 30/51/20 11/31/21 31/52/22
f 11/31/21 12/32/23 31/52/22
f 31/52/22 12/32/23 32/53/24
f 12/32/23 13/33/25 32/53/24
f 32/53/24 13/33/25 33/54/26
f 13/33/25 14/34/27 33/54/26
f 33/54/26 14/34/27 34/55/28
f 14/34/27 15/35/29 34/55/28
f 34/55/28 15/35/29 35/56/30
f 15/35/29 16/36/31 35/56/30
f 35/56/30 16/36/31 36/57/32
f 16/36/31 17/37/33 36/57/32
f 36/57/32 17/37/33 37/58/34
f 17/37/33 18/38/35 37/58/34
f 37/58/34 18/38/35 38/59/36
f 18/38/35 19/39/37 38/59/36
f 38/59/36 19/39/37 39/60/38
f 19/39/37 20/40/39 39/60/38
f 39/60/38 20/40/39 40/61/40
f 20/40/39 1/41/1 40/61/40
f 40/61/40 1/41/1 21/62/3
s 2
f 2/2/41 1/1/42 41/83/43
f 3/3/44 2/2/41 41/83/43
f 4/4/45 3/3/44 41/83/43
f 5/5/46 4/4/45 41/83/43
f 6/6/47 5/5/46 41/83/43
f 7/7/48 6/6/47 41/83/43
f 8/8/49 7/7/48 41/83/43
f 9/9/50 8/8/49 41/83/43
f 10/10/51 9/9/50 41/83/43
f 11/11/52 10/10/51 41/83/43
f 12/12/53 11/11/52 41/83/43
f 13/13/54 12/12/53 41/83/43
f 14/14/55 13/13/54 41/83/43
f 15/15/56 14/14/55 41/83/43
f 16/16/57 15/15/56 41/83/43
f 17/17/58 16/16/57 41/83/43
f 18/18/59 17/17/58 41/83/43
f 19/19/60 18/18/59 41/83/43
f 20/20/61 19/19/60 41/83/43
f 1/1/42 20/20/61 41/83/43
s 3
f 21/81/62 22/80/63 42/84/64
f 22/80/63 23/79/65 42/84/64
f 23/79/65 24/78/66 42/84/64
f 24/78/66 25/77/67 42/84/64
f 25/77/67 26/76/68 42/84/64
f 26/76/68 27/75/69 42/84/64
f 27/75/69 28/74/70 42/84/64
f 28/74/70 29/73/71 42/84/64
f 29/73/71 30/72/72 42/84/64
f 30/72/72 31/71/73 42/84/64
f 31/71/73 32/70/74 42/84/64
f 32/70/74 33/69/75 42/84/64
f 33/69/75 34/68/76 42/84/64
f 34/68/76 35/67/77 42/84/64
f 35/67/77 36/66/78 42/84/64
f 36/66/78 37/65/79 42/84/64
f 37/65/79 38/64/80 42/84/64
f 38/64/80 39/63/81 42/84/64
f 39/63/81 40/82/82 42/84/64
f 40/82/82 21/81/62 42/84/64
g default
v 0.760675 -0.658398 -0.038627
v 0.748121 -0.670952 -0.073473
v 0.728567 -0.690507 -0.101127
v 0.703927 -0.715147 -0.118882
v 0.676613 -0.742460 -0.125000
v 0.649300 -0.769774 -0.118882
v 0.624660 -0.794414 -0.101127
v 0.605105 -0.813968 -0.073473
v 0.592551 -0.826523 -0.038627
v 0.588225 -0.830849 0.000000
v 0.592551 -0.826523 0.038627
v 0.605105 -0.813968 0.073473
v 0.624660 -0.794414 0.101127
v 0.649300 -0.769774 0.118882
v 0.676613 -0.742460 0.125000
v 0.703927 -0.715147 0.118882
v 0.728566 -0.690507 0.101127
v 0.748121 -0.670953 0.073473
v 0.760675 -0.658398 0.038627
v 0.765001 -0.654072 0.000000
v 0.053569 0.048709 -0.038627
v 0.041014 0.036154 -0.073473
v 0.021460 0.016600 -0.101127
v -0.003180 -0.008040 -0.118882
v -0.030494 -0.035353 -0.125000
v -0.057807 -0.062667 -0.118882
v -0.082447 -0.087307 -0.101127
v -0.102001 -0.106861 -0.073473
v -0.114556 -0.119416 -0.038627
v -0.118882 -0.123742 0.000000
v -0.114556 -0.119416 0.038627
v -0.102001 -0.106861 0.073473
v -0.082447 -0.087307 0.101127
v -0.057807 -0.062667 0.118882
v -0.030494 -0.035353 0.125000
v -0.003180 -0.008040 0.118882
v 0.021460 0.016600 0.101127
v 0.041014 0.036154 0.073473
v 0.053569 0.048709 0.038627
v 0.057895 0.053035 0.000000
v 0.676613 -0.742460 0.000000
v -0.030494 -0.035353 0.000000
vt 0.648603 0.107966
vt 0.626409 0.064408
vt 0.591842 0.029841
vt 0.548284 0.007647
vt 0.500000 -0.000000
vt 0.451716 0.007647
vt 0.408159 0.029841
vt 0.373591 0.064409
vt 0.351397 0.107966
vt 0.343750 0.156250
vt 0.351397 0.204534
vt 0.373591 0.248091
vt 0.408159 0.282659
vt 0.451716 0.304853
vt 0.500000 0.312500
vt 0.548284 0.304853
vt 0.591841 0.282659
vt 0.626409 0.248091
vt 0.648603 0.204534
vt 0.656250 0.156250
vt 0.375000 0.312500
vt 0.387500 0.312500
vt 0.400000 0.312500
vt 0.412500 0.312500
vt 0.425000 0.312500
vt 0.437500 0.312500
vt 0.450000 0.312500
vt 0.462500 0.312500
vt 0.475000 0.312500
vt 0.487500 0.312500
vt 0.500000 0.312500
vt 0.512500 0.312500
vt 0.525000 0.312500
vt 0.537500 0.312500
vt 0.550000 0.312500
vt 0.562500 0.312500
vt 0.575000 0.312500
vt 0.587500 0.312500
vt 0.600000 0.312500
vt 0.612500 0.312500
vt 0.625000 0.312500
vt 0.375000 0.688440
vt 0.387500 0.688440
vt 0.400000 0.688440
vt 0.412500 0.688440
vt 0.425000 0.688440
vt 0.437500 0.688440
vt 0.450000 0.688440
vt 0.462500 0.688440
vt 0.475000 0.688440
vt 0.487500 0.688440
vt 0.500000 0.688440
vt 0.512500 0.688440
vt 0.525000 0.688440
vt 0.537500 0.688440
vt 0.550000 0.688440
vt 0.562500 0.688440
vt 0.575000 0.688440
vt 0.587500 0.688440
vt 0.600000 0.688440
vt 0.612500 0.688440
vt 0.625000 0.688440
vt 0.648603 0.795466
vt 0.626409 0.751908
vt 0.591842 0.717341
vt 0.548284 0.695147
vt 0.500000 0.687500
vt 0.451716 0.695147
vt 0.408159 0.717341
vt 0.373591 0.751909
vt 0.351397 0.795466
vt 0.343750 0.843750
vt 0.351397 0.892034
vt 0.373591 0.935591
vt 0.408159 0.970159
vt 0.451716 0.992353
vt 0.500000 1.000000
vt 0.548284 0.992353
vt 0.591841 0.970159
vt 0.626409 0.935591
vt 0.648603 0.892034
vt 0.656250 0.843750
vt 0.500000 0.150000
vt 0.500000 0.837500
vn 0.672499 0.672499 -0.309016
vn 0.572061 0.572061 -0.587785
vn 0.672499 0.672499 -0.309016
vn 0.572061 0.572061 -0.587785
vn 0.415627 0.415627 -0.809017
vn 0.415627 0.415627 -0.809017
vn 0.218508 0.218508 -0.951057
vn 0.218508 0.218508 -0.951057
vn -0.000000 -0.000000 -1.000000
vn 0.000000 0.000000 -1.000000
vn -0.218508 -0.218508 -0.951057
vn -0.218508 -0.218508 -0.951057
vn -0.415627 -0.415627 -0.809017
vn -0.415627 -0.415627 -0.809017
vn -0.572062 -0.572062 -0.587785
vn -0.572061 -0.572061 -0.587785
vn -0.672499 -0.672499 -0.309017
vn -0.672499 -0.672499 -0.309017
vn -0.707107 -0.707107 -0.000000
vn -0.707107 -0.707107 0.000000
vn -0.672499 -0.672499 0.309017
vn -0.672499 -0.672499 0.309017
vn -0.572061 -0.572061 0.587785
vn -0.572061 -0.572061 0.587785
vn -0.415627 -0.415627 0.809017
vn -0.415627 -0.415627 0.809017
vn -0.218508 -0.218508 0.951057
vn -0.218508 -0.218508 0.951057
vn 0.000000 0.000000 1.000000
vn 0.000000 0.000000 1.000000
vn 0.218508 0.218508 0.951057
vn 0.218508 0.218508 0.951057
vn 0.415627 0.415627 0.809017
vn 0.415627 0.415627 0.809017
vn 0.572061 0.572061 0.587785
vn 0.572061 0.572061 0.587785
vn 0.672499 0.672499 0.309017
vn 0.672499 0.672499 0.309017
vn 0.707107 0.707107 0.000001
vn 0.707107 0.707107 0.000001
vn 0.707107 -0.707107 0.000000
vn 0.707107 -0.707107 0.000000
vn 0.707107 -0.707107 0.000000
vn 0.707107 -0.707107 0.000000
vn 0.707107 -0.707107 0.000000
vn 0.707107 -0.707107 0.000000
vn 0.707107 -0.707107 0.000000
vn 0.707107 -0.707107 0.000000
vn 0.707107 -0.707107 0.000000
vn 0.707107 -0.707107 0.000000
vn 0.707107 -0.707107 0.000000
vn 0.707107 -0.707107 0.000000
vn 0.707107 -0.707107 0.000000
vn 0.707107 -0.707107 0.000000
vn 0.707107 -0.707107 0.000000
vn 0.707107 -0.707107 0.000000
vn 0.707107 -0.707107 0.000000
vn 0.707107 -0.707107 0.000000
vn 0.707107 -0.707107 0.000000
vn 0.707107 -0.707107 0.000000
vn 0.707107 -0.707107 0.000000
vn -0.707107 0.707107 0.000000
vn -0.707107 0.707107 0.000000
vn -0.707107 0.707107 0.000000
vn -0.707107 0.707107 0.000000
vn -0.707107 0.707107 0.000000
vn -0.707107 0.707107 0.000000
vn -0.707107 0.707107 0.000000
vn -0.707107 0.707107 0.000000
vn -0.707107 0.707107 0.000000
vn -0.707107 0.707107 0.000000
vn -0.707107 0.707107 0.000000
vn -0.707107 0.707107 0.000000
vn -0.707107 0.707107 0.000000
vn -0.707107 0.707107 0.000000
vn -0.707107 0.707107 0.000000
vn -0.707107 0.707107 0.000000
vn -0.707107 0.707107 0.000000
vn -0.707107 0.707107 0.000000
vn -0.707107 0.707107 0.000000
vn -0.707107 0.707107 0.000000
vn -0.707107 0.707107 0.000000
s 1
g pCylinder2
usemtl initialShadingGroup
f 43/105/83 44/106/84 63/126/85
f 63/126/85 44/106/84 64/127/86
f 44/106/84 45/107/87 64/127/86
f 64/127/86 45/107/87 65/128/88
f 45/107/87 46/108/89 65/128/88
f 65/128/88 46/108/89 66/129/90
f 46/108/89 47/109/91 66/129/90
f 66/129/90 47/109/91 67/130/92
f 47/109/91 48/110/93 67/130/92
f 67/130/92 48/110/93 68/131/94
f 48/110/93 49/111/95 68/131/94
f 68/131/94 49/111/95 69/132/96
f 49/111/95 50/112/97 69/132/96
f 69/132/96 50/112/97 70/133/98
f 50/112/97 51/113/99 70/133/98
f 70/133/98 51/113/99 71/134/100
f 51/113/99 52/114/101 71/134/100
f 71/134/100 52/114/101 72/135/102
f 52/114/101 53/115/103 72/135/102
f 72/135/102 53/115/103 73/136/104
f 53/115/103 54/116/105 73/136/104
f 73/136/104 54/116/105 74/137/106
f 54/116/105 55/117/107 74/137/106
f 74/137/106 55/117/107 75/138/108
f 55/117/107 56/118/109 75/138/108
f 75/138/108 56/118/109 76/139/110
f 56/118/109 57/119/111 76/139/110
f 76/139/110 57/119/111 77/140/112
f 57/119/111 58/120/113 77/140/112
f 77/140/112 58/120/113 78/141/114
f 58/120/113 59/121/115 78/141/114
f 78/141/114 59/121/115 79/142/116
f 59/121/115 60/122/117 79/142/116
f 79/142/116 60/122/117 80/143/118
f 60/122/117 61/123/119 80/143/118
f 80/143/118 61/123/119 81/144/120
f 61/123/119 62/124/121 81/144/120
f 81/144/120 62/124/121 82/145/122
f 62/124/121 43/125/83 82/145/122
f 82/145/122 43/125/83 63/146/85
s 2
f 44/86/123 43/85/124 83/167/125
f 45/87/126 44/86/123 83/167/125
f 46/88/127 45/87/126 83/167/125
f 47/89/128 46/88/127 83/167/125
f 48/90/129 47/89/128 83/167/125
f 49/91/130 48/90/129 83/167/125
f 50/92/131 49/91/130 83/167/125
f 51/93/132 50/92/131 83/167/125
f 52/94/133 51/93/132 83/167/125
f 53/95/134 52/94/133 83/167/125
f 54/96/135 53/95/134 83/167/125
f 55/97/136 54/96/135 83/167/125
f 56/98/137 55/97/136 83/167/125
f 57/99/138 56/98/137 83/167/125
f 58/100/139 57/99/138 83/167/125
f 59/101/140 58/100/139 83/167/125
f 60/102/141 59/101/140 83/167/125
f 61/103/142 60/102/141 83/167/125
f 62/104/143 61/103/142 83/167/125
f 43/85/124 62/104/143 83/167/125
s 3
f 63/165/144 64/164/145 84/168/146
f 64/164/145 65/163/147 84/168/146
f 65/163/147 66/162/148 84/168/146
f 66/162/148 67/161/149 84/168/146
f 67/161/149 68/160/150 84/168/146
f 68/160/150 69/159/151 84/168/146
f 69/159/151 70/158/152 84/168/146
f 70/158/152 71/157/153 84/168/146
f 71/157/153 72/156/154 84/168/146
f 72/156/154 73/155/155 84/168/146
f 73/155/155 74/154/156 84/168/146
f 74/154/156 75/153/157 84/168/146
f 75/153/157 76/152/158 84/168/146
f 76/152/158 77/151/159 84/168/146
f 77/151/159 78/150/160 84/168/146
f 78/150/160 79/149/161 84/168/146
f 79/149/161 80/148/162 84/168/146
f 80/148/162 81/147/163 84/168/146
f 81/147/163 82/166/164 84/168/146
f 82/166/164 63/165/144 84/168/146
g default
v 0.078938 1.100000 -0.025648
v 0.067148 1.100000 -0.048786
v 0.048786 1.100000 -0.067148
v 0.025648 1.100000 -0.078938
v 0.000000 1.100000 -0.083000
v -0.025648 1.100000 -0.078938
v -0.048786 1.100000 -0.067148
v -0.067148 1.100000 -0.048786
v -0.078938 1.100000 -0.025648
v -0.083000 1.100000 0.000000
v -0.078938 1.100000 0.025648
v -0.067148 1.100000 0.048786
v -0.048786 1.100000 0.067148
v -0.025648 1.100000 0.078938
v -0.000000 1.100000 0.083000
v 0.025648 1.100000 0.078938
v 0.048786 1.100000 0.067148
v 0.067148 1.100000 0.048786
v 0.078938 1.100000 0.025648
v 0.083000 1.100000 0.000000
v 0.078938 1.700000 -0.025648
v 0.067148 1.700000 -0.048786
v 0.048786 1.700000 -0.067148
v 0.025648 1.700000 -0.078938
v 0.000000 1.700000 -0.083000
v -0.025648 1.700000 -0.078938
v -0.048786 1.700000 -0.067148
v -0.067148 1.700000 -0.048786
v -0.078938 1.700000 -0.025648
v -0.083000 1.700000 0.000000
v -0.078938 1.700000 0.025648
v -0.067148 1.700000 0.048786
v -0.048786 1.700000 0.067148
v -0.025648 1.700000 0.078938
v -0.000000 1.700000 0.083000
v 0.025648 1.700000 0.078938
v 0.048786 1.700000 0.067148
v 0.067148 1.700000 0.048786
v 0.078938 1.700000 0.025648
v 0.083000 1.700000 0.000000
v 0.000000 1.100000 0.000000
v 0.000000 1.700000 0.000000
vt 0.648603 0.107966
vt 0.626409 0.064408
vt 0.591842 0.029841
vt 0.548284 0.007647
vt 0.500000 -0.000000
vt 0.451716 0.007647
vt 0.408159 0.029841
vt 0.373591 0.064409
vt 0.351397 0.107966
vt 0.343750 0.156250
vt 0.351397 0.204534
vt 0.373591 0.248091
vt 0.408159 0.282659
vt 0.451716 0.304853
vt 0.500000 0.312500
vt 0.548284 0.304853
vt 0.591841 0.282659
vt 0.626409 0.248091
vt 0.648603 0.204534
vt 0.656250 0.156250
vt 0.375000 0.312500
vt 0.387500 0.312500
vt 0.400000 0.312500
vt 0.412500 0.312500
vt 0.425000 0.312500
vt 0.437500 0.312500
vt 0.450000 0.312500
vt 0.462500 0.312500
vt 0.475000 0.312500
vt 0.487500 0.312500
vt 0.500000 0.312500
vt 0.512500 0.312500
vt 0.525000 0.312500
vt 0.537500 0.312500
vt 0.550000 0.312500
vt 0.562500 0.312500
vt 0.575000 0.312500
vt 0.587500 0.312500
vt 0.600000 0.312500
vt 0.612500 0.312500
vt 0.625000 0.312500
vt 0.375000 0.688440
vt 0.387500 0.688440
vt 0.400000 0.688440
vt 0.412500 0.688440
vt 0.425000 0.688440
vt 0.437500 0.688440
vt 0.450000 0.688440
vt 0.462500 0.688440
vt 0.475000 0.688440
vt 0.487500 0.688440
vt 0.500000 0.688440
vt 0.512500 0.688440
vt 0.525000 0.688440
vt 0.537500 0.688440
vt 0.550000 0.688440
vt 0.562500 0.688440
vt 0.575000 0.688440
vt 0.587500 0.688440
vt 0.600000 0.688440
vt 0.612500 0.688440
vt 0.625000 0.688440
vt 0.648603 0.795466
vt 0.626409 0.751908
vt 0.591842 0.717341
vt 0.548284 0.695147
vt 0.500000 0.687500
vt 0.451716 0.695147
vt 0.408159 0.717341
vt 0.373591 0.751909
vt 0.351397 0.795466
vt 0.343750 0.843750
vt 0.351397 0.892034
vt 0.373591 0.935591
vt 0.408159 0.970159
vt 0.451716 0.992353
vt 0.500000 1.000000
vt 0.548284 0.992353
vt 0.591841 0.970159
vt 0.626409 0.935591
vt 0.648603 0.892034
vt 0.656250 0.843750
vt 0.500000 0.150000
vt 0.500000 0.837500
vn 0.951057 0.000000 -0.309016
vn 0.809017 0.000000 -0.587785
vn 0.951057 0.000000 -0.309016
vn 0.809017 0.000000 -0.587785
vn 0.587785 0.000000 -0.809017
vn 0.587785 0.000000 -0.809017
vn 0.309017 0.000000 -0.951057
vn 0.309017 0.000000 -0.951057
vn -0.000000 0.000000 -1.000000
vn 0.000000 0.000000 -1.000000
vn -0.309017 0.000000 -0.951056
vn -0.309017 0.000000 -0.951056
vn -0.587785 0.000000 -0.809017
vn -0.587785 0.000000 -0.809017
vn -0.809017 0.000000 -0.587785
vn -0.809017 0.000000 -0.587785
vn -0.951056 0.000000 -0.309017
vn -0.951056 0.000000 -0.309017
vn -1.000000 0.000000 -0.000000
vn -1.000000 0.000000 0.000000
vn -0.951056 0.000000 0.309017
vn -0.951056 0.000000 0.309017
vn -0.809017 0.000000 0.587785
vn -0.809017 0.000000 0.587785
vn -0.587785 0.000000 0.809017
vn -0.587785 0.000000 0.809017
vn -0.309017 0.000000 0.951056
vn -0.309017 0.000000 0.951056
vn 0.000000 0.000000 1.000000
vn 0.000000 0.000000 1.000000
vn 0.309017 0.000000 0.951056
vn 0.309017 0.000000 0.951056
vn 0.587785 0.000000 0.809017
vn 0.587785 0.000000 0.809017
vn 0.809017 0.000000 0.587785
vn 0.809017 0.000000 0.587785
vn 0.951056 0.000000 0.309017
vn 0.951056 0.000000 0.309017
vn 1.000000 0.000000 0.000001
vn 1.000000 0.000000 0.000001
vn 0.000000 -1.000000 0.000000
vn 0.000000 -1.000000 0.000000
vn 0.000000 -1.000000 0.000000
vn 0.000000 -1.000000 0.000000
vn 0.000000 -1.000000 0.000000
vn 0.000000 -1.000000 0.000000
vn 0.000000 -1.000000 0.000000
vn 0.000000 -1.000000 0.000000
vn 0.000000 -1.000000 0.000000
vn 0.000000 -1.000000 0.000000
vn 0.000000 -1.000000 0.000000
vn 0.000000 -1.000000 0.000000
vn 0.000000 -1.000000 0.000000
vn 0.000000 -1.000000 0.000000
vn 0.000000 -1.000000 0.000000
vn 0.000000 -1.000000 0.000000
vn 0.000000 -1.000000 0.000000
vn 0.000000 -1.000000 0.000000
vn 0.000000 -1.000000 0.000000
vn 0.000000 -1.000000 0.000000
vn 0.000000 -1.000000 0.000000
vn 0.000000 1.000000 0.000000
vn 0.000000 1.000000 0.000000
vn 0.000000 1.000000 0.000000
vn 0.000000 1.000000 0.000000
vn 0.000000 1.000000 0.000000
vn 0.000000 1.000000 0.000000
vn 0.000000 1.000000 0.000000
vn 0.000000 1.000000 0.000000
vn 0.000000 1.000000 0.000000
vn 0.000000 1.000000 0.000000
vn 0.000000 1.000000 0.000000
vn 0.000000 1.000000 0.000000
vn 0.000000 1.000000 0.000000
vn 0.000000 1.000000 0.000000
vn 0.000000 1.000000 0.000000
vn 0.000000 1.000000 0.000000
vn 0.000000 1.000000 0.000000
vn 0.000000 1.000000 0.000000
vn 0.000000 1.000000 0.000000
vn 0.000000 1.000000 0.000000
vn 0.000000 1.000000 0.000000
s 1
g pCylinder3
usemtl initialShadingGroup
f 85/189/165 86/190/166 105/210/167
f 105/210/167 86/190/166 106/211/168
f 86/190/166 87/191/169 106/211/168
f 106/211/168 87/191/169 107/212/170
f 87/191/169 88/192/171 107/212/170
f 107/212/170 88/192/171 108/213/172
f 88/192/171 89/193/173 108/213/172
f 108/213/172 89/193/173 109/214/174
f 89/193/173 90/194/175 109/214/174
f 109/214/174 90/194/175 110/215/176
f 90/194/175 91/195/177 110/215/176
f 110/215/176 91/195/177 111/216/178
f 91/195/177 92/196/179 111/216/178
f 111/216/178 92/196/179 112/217/180
f 92/196/179 93/197/181 112/217/180
f 112/217/180 93/197/181 113/218/182
f 93/197/181 94/198/183 113/218/182
f 113/218/182 94/198/183 114/219/184
f 94/198/183 95/199/185 114/219/184
f 114/219/184 95/199/185 115/220/186
f 95/199/185 96/200/187 115/220/186
f 115/220/186 96/200/187 116/221/188
f 96/200/187 97/201/189 116/221/188
f 116/221/188 97/201/189 117/222/190
f 97/201/189 98/202/191 117/222/190
f 117/222/190 98/202/191 118/223/192
f 98/202/191 99/203/193 118/223/192
f 118/223/192 99/203/193 119/224/194
f 99/203/193 100/204/195 119/224/194
f 119/224/194 100/204/195 120/225/196
f 100/204/195 101/205/197 120/225/196
f 120/225/196 101/205/197 121/226/198
f 101/205/197 102/206/199 121/226/198
f 121/226/198 102/206/199 122/227/200
f 102/206/199 103/207/201 122/227/200
f 122/227/200 103/207/201 123/228/202
f 103/207/201 104/208/203 123/228/202
f 123/228/202 104/208/203 124/229/204
f 104/208/203 85/209/165 124/229/204
f 124/229/204 85/209/165 105/230/167
s 2
f 86/170/205 85/169/206 125/251/207
f 87/171/208 86/170/205 125/251/207
f 88/172/209 87/171/208 125/251/207
f 89/173/210 88/172/209 125/251/207
f 90/174/211 89/173/210 125/251/207
f 91/175/212 90/174/211 125/251/207
f 92/176/213 91/175/212 125/251/207
f 93/177/214 92/176/213 125/251/207
f 94/178/215 93/177/214 125/251/207
f 95/179/216 94/178/215 125/251/207
f 96/180/217 95/179/216 125/251/207
f 97/181/218 96/180/217 125/251/207
f 98/182/219 97/181/218 125/251/207
f 99/183/220 98/182/219 125/251/207
f 100/184/221 99/183/220 125/251/207
f 101/185/222 100/184/221 125/251/207
f 102/186/223 101/185/222 125/251/207
f 103/187/224 102/186/223 125/251/207
f 104/188/225 103/187/224 125/251/207
f 85/169/206 104/188/225 125/251/207
s 3
f 105/249/226 106/248/227 126/252/228
f 106/248/227 107/247/229 126/252/228
f 107/247/229 108/246/230 126/252/228
f 108/246/230 109/245/231 126/252/228
f 109/245/231 110/244/232 126/252/228
f 110/244/232 111/243/233 126/252/228
f 111/243/233 112/242/234 126/252/228
f 112/242/234 113/241/235 126/252/228
f 113/241/235 114/240/236 126/252/228
f 114/240/236 115/239/237 126/252/228
f 115/239/237 116/238/238 126/252/228
f 116/238/238 117/237/239 126/252/228
f 117/237/239 118/236/240 126/252/228
f 118/236/240 119/235/241 126/252/228
f 119/235/241 120/234/242 126/252/228
f 120/234/242 121/233/243 126/252/228
f 121/233/243 122/232/244 126/252/228
f 122/232/244 123/231/245 126/252/228
f 123/231/245 124/250/246 126/252/228
f 124/250/246 105/249/226 126/252/228
g default
v 0.026780 1.632216 -0.006043
v 0.022780 1.632216 -0.011494
v 0.016551 1.632216 -0.015820
v 0.008701 1.632216 -0.018597
v 0.000000 1.632216 -0.019554
v -0.008701 1.632216 -0.018597
v -0.016551 1.632216 -0.015820
v -0.022780 1.632216 -0.011494
v -0.026780 1.632216 -0.006043
v -0.028158 1.632216 0.000000
v -0.026780 1.632216 0.006043
v -0.022780 1.632216 0.011494
v -0.016551 1.632216 0.015820
v -0.008701 1.632216 0.018597
v -0.000000 1.632216 0.019554
v 0.008701 1.632216 0.018597
v 0.016551 1.632216 0.015820
v 0.022780 1.632216 0.011494
v 0.026780 1.632216 0.006043
v 0.028158 1.632216 0.000000
v 0.052901 1.638810 -0.011936
v 0.045000 1.638810 -0.022704
v 0.032694 1.638810 -0.031250
v 0.017188 1.638810 -0.036737
v 0.000000 1.638810 -0.038627
v -0.017188 1.638810 -0.036737
v -0.032694 1.638810 -0.031250
v -0.045000 1.638810 -0.022704
v -0.052901 1.638810 -0.011936
v -0.055623 1.638810 0.000000
v -0.052901 1.638810 0.011936
v -0.045000 1.638810 0.022704
v -0.032694 1.638810 0.031250
v -0.017188 1.638810 0.036737
v -0.000000 1.638810 0.038627
v 0.017188 1.638810 0.036737
v 0.032694 1.638810 0.031250
v 0.045000 1.638810 0.022704
v 0.052901 1.638810 0.011936
v 0.055623 1.638810 0.000000
v 0.077719 1.649619 -0.017536
v 0.066112 1.649619 -0.033356
v 0.048033 1.649619 -0.045911
v 0.025252 1.649619 -0.053971
v 0.000000 1.649619 -0.056749
v -0.025252 1.649619 -0.053971
v -0.048033 1.649619 -0.045911
v -0.066112 1.649619 -0.033356
v -0.077719 1.649619 -0.017536
v -0.081718 1.649619 0.000000
v -0.077719 1.649619 0.017536
v -0.066112 1.649619 0.033356
v -0.048033 1.649619 0.045911
v -0.025252 1.649619 0.053971
v -0.000000 1.649619 0.056749
v 0.025252 1.649619 0.053971
v 0.048033 1.649619 0.045911
v 0.066111 1.649619 0.033356
v 0.077719 1.649619 0.017536
v 0.081718 1.649619 0.000000
v 0.100623 1.664377 -0.022704
v 0.085595 1.664377 -0.043186
v 0.062189 1.664377 -0.059441
v 0.032694 1.664377 -0.069877
v 0.000000 1.664377 -0.073473
v -0.032694 1.664377 -0.069877
v -0.062188 1.664377 -0.059441
v -0.085595 1.664377 -0.043186
v -0.100623 1.664377 -0.022704
v -0.105801 1.664377 0.000000
v -0.100623 1.664377 0.022704
v -0.085595 1.664377 0.043186
v -0.062188 1.664377 0.059441
v -0.032694 1.664377 0.069877
v -0.000000 1.664377 0.073473
v 0.032694 1.664377 0.069877
v 0.062188 1.664377 0.059441
v 0.085595 1.664377 0.043186
v 0.100623 1.664377 0.022704
v 0.105801 1.664377 0.000000
v 0.121050 1.682721 -0.027314
v 0.102971 1.682721 -0.051953
v 0.074813 1.682721 -0.071508
v 0.039331 1.682721 -0.084062
v 0.000000 1.682721 -0.088388
v -0.039331 1.682721 -0.084062
v -0.074813 1.682721 -0.071508
v -0.102971 1.682721 -0.051953
v -0.121050 1.682721 -0.027314
v -0.127279 1.682721 0.000000
v -0.121050 1.682721 0.027314
v -0.102971 1.682721 0.051953
v -0.074813 1.682721 0.071508
v -0.039331 1.682721 0.084062
v -0.000000 1.682721 0.088388
v 0.039331 1.682721 0.084062
v 0.074813 1.682721 0.071508
v 0.102971 1.682721 0.051953
v 0.121050 1.682721 0.027314
v 0.127279 1.682721 0.000000
v 0.138496 1.704199 -0.031250
v 0.117812 1.704199 -0.059441
v 0.085595 1.704199 -0.081814
v 0.045000 1.704199 -0.096178
v 0.000000 1.704199 -0.101127
v -0.045000 1.704199 -0.096178
v -0.085595 1.704199 -0.081814
v -0.117812 1.704199 -0.059441
v -0.138496 1.704199 -0.031250
v -0.145623 1.704199 0.000000
v -0.138496 1.704199 0.031250
v -0.117812 1.704199 0.059441
v -0.085595 1.704199 0.081814
v -0.045000 1.704199 0.096178
v -0.000000 1.704199 0.101127
v 0.045000 1.704199 0.096178
v 0.085595 1.704199 0.081814
v 0.117812 1.704199 0.059441
v 0.138496 1.704199 0.031250
v 0.145623 1.704199 0.000000
v 0.152532 1.728282 -0.034417
v 0.129751 1.728282 -0.065465
v 0.094270 1.728282 -0.090105
v 0.049561 1.728282 -0.105925
v 0.000000 1.728282 -0.111376
v -0.049561 1.728282 -0.105925
v -0.094270 1.728282 -0.090105
v -0.129751 1.728282 -0.065465
v -0.152532 1.728282 -0.034417
v -0.160381 1.728282 0.000000
v -0.152532 1.728282 0.034417
v -0.129751 1.728282 0.065465
v -0.094270 1.728282 0.090105
v -0.049561 1.728282 0.105925
v -0.000000 1.728282 0.111376
v 0.049561 1.728282 0.105925
v 0.094270 1.728282 0.090105
v 0.129751 1.728282 0.065465
v 0.152532 1.728282 0.034417
v 0.160381 1.728282 0.000000
v 0.162812 1.754377 -0.036737
v 0.138496 1.754377 -0.069877
v 0.100623 1.754377 -0.096178
v 0.052901 1.754377 -0.113064
v 0.000000 1.754377 -0.118882
v -0.052901 1.754377 -0.113064
v -0.100623 1.754377 -0.096178
v -0.138496 1.754377 -0.069877
v -0.162812 1.754377 -0.036737
v -0.171190 1.754377 0.000000
v -0.162812 1.754377 0.036737
v -0.138496 1.754377 0.069877
v -0.100623 1.754377 0.096178
v -0.052901 1.754377 0.113064
v -0.000000 1.754377 0.118882
v 0.052901 1.754377 0.113064
v 0.100623 1.754377 0.096178
v 0.138496 1.754377 0.069877
v 0.162812 1.754377 0.036737
v 0.171190 1.754377 0.000000
v 0.169083 1.781842 -0.038152
v 0.143830 1.781842 -0.072569
v 0.104499 1.781842 -0.099882
v 0.054938 1.781842 -0.117418
v 0.000000 1.781842 -0.123461
v -0.054938 1.781842 -0.117418
v -0.104499 1.781842 -0.099882
v -0.143830 1.781842 -0.072569
v -0.169083 1.781842 -0.038152
v -0.177784 1.781842 0.000000
v -0.169083 1.781842 0.038152
v -0.143830 1.781842 0.072569
v -0.104499 1.781842 0.099882
v -0.054938 1.781842 0.117418
v -0.000000 1.781842 0.123461
v 0.054938 1.781842 0.117418
v 0.104499 1.781842 0.099882
v 0.143830 1.781842 0.072569
v 0.169083 1.781842 0.038152
v 0.177784 1.781842 0.000000
v 0.171190 1.810000 -0.038627
v 0.145623 1.810000 -0.073473
v 0.105801 1.810000 -0.101127
v 0.055623 1.810000 -0.118882
v 0.000000 1.810000 -0.125000
v -0.055623 1.810000 -0.118882
v -0.105801 1.810000 -0.101127
v -0.145623 1.810000 -0.073473
v -0.171190 1.810000 -0.038627
v -0.180000 1.810000 0.000000
v -0.171190 1.810000 0.038627
v -0.145623 1.810000 0.073473
v -0.105801 1.810000 0.101127
v -0.055623 1.810000 0.118882
v -0.000000 1.810000 0.125000
v 0.055623 1.810000 0.118882
v 0.105801 1.810000 0.101127
v 0.145623 1.810000 0.073473
v 0.171190 1.810000 0.038627
v 0.180000 1.810000 0.000000
v 0.169083 1.838158 -0.038152
v 0.143830 1.838158 -0.072569
v 0.104499 1.838158 -0.099882
v 0.054938 1.838158 -0.117418
v 0.000000 1.838158 -0.123461
v -0.054938 1.838158 -0.117418
v -0.104499 1.838158 -0.099882
v -0.143830 1.838158 -0.072569
v -0.169083 1.838158 -0.038152
v -0.177784 1.838158 0.000000
v -0.169083 1.838158 0.038152
v -0.143830 1.838158 0.072569
v -0.104499 1.838158 0.099882
v -0.054938 1.838158 0.117418
v -0.000000 1.838158 0.123461
v 0.054938 1.838158 0.117418
v 0.104499 1.838158 0.099882
v 0.143830 1.838158 0.072569
v 0.169083 1.838158 0.038152
v 0.177784 1.838158 0.000000
v 0.162812 1.865623 -0.036737
v 0.138496 1.865623 -0.069877
v 0.100623 1.865623 -0.096178
v 0.052901 1.865623 -0.113064
v 0.000000 1.865623 -0.118882
v -0.052901 1.865623 -0.113064
v -0.100623 1.865623 -0.096178
v -0.138496 1.865623 -0.069877
v -0.162812 1.865623 -0.036737
v -0.171190 1.865623 0.000000
v -0.162812 1.865623 0.036737
v -0.138496 1.865623 0.069877
v -0.100623 1.865623 0.096178
v -0.052901 1.865623 0.113064
v -0.000000 1.865623 0.118882
v 0.052901 1.865623 0.113064
v 0.100623 1.865623 0.096178
v 0.138496 1.865623 0.069877
v 0.162812 1.865623 0.036737
v 0.171190 1.865623 0.000000
v 0.152532 1.891718 -0.034417
v 0.129751 1.891718 -0.065465
v 0.094270 1.891718 -0.090105
v 0.049561 1.891718 -0.105925
v 0.000000 1.891718 -0.111376
v -0.049561 1.891718 -0.105925
v -0.094270 1.891718 -0.090105
v -0.129751 1.891718 -0.065465
v -0.152532 1.891718 -0.034417
v -0.160381 1.891718 0.000000
v -0.152532 1.891718 0.034417
v -0.129751 1.891718 0.065465
v -0.094270 1.891718 0.090105
v -0.049561 1.891718 0.105925
v -0.000000 1.891718 0.111376
v 0.049561 1.891718 0.105925
v 0.094270 1.891718 0.090105
v 0.129751 1.891718 0.065465
v 0.152532 1.891718 0.034417
v 0.160381 1.891718 0.000000
v 0.138496 1.915801 -0.031250
v 0.117812 1.915801 -0.059441
v 0.085595 1.915801 -0.081814
v 0.045000 1.915801 -0.096178
v 0.000000 1.915801 -0.101127
v -0.045000 1.915801 -0.096178
v -0.085595 1.915801 -0.081814
v -0.117812 1.915801 -0.059441
v -0.138496 1.915801 -0.031250
v -0.145623 1.915801 0.000000
v -0.138496 1.915801 0.031250
v -0.117812 1.915801 0.059441
v -0.085595 1.915801 0.081814
v -0.045000 1.915801 0.096178
v -0.000000 1.915801 0.101127
v 0.045000 1.915801 0.096178
v 0.085595 1.915801 0.081814
v 0.117812 1.915801 0.059441
v 0.138496 1.915801 0.031250
v 0.145623 1.915801 0.000000
v 0.121050 1.937279 -0.027314
v 0.102971 1.937279 -0.051953
v 0.074813 1.937279 -0.071508
v 0.039331 1.937279 -0.084062
v 0.000000 1.937279 -0.088388
v -0.039331 1.937279 -0.084062
v -0.074813 1.937279 -0.071508
v -0.102971 1.937279 -0.051953
v -0.121050 1.937279 -0.027314
v -0.127279 1.937279 0.000000
v -0.121050 1.937279 0.027314
v -0.102971 1.937279 0.051953
v -0.074813 1.937279 0.071508
v -0.039331 1.937279 0.084062
v -0.000000 1.937279 0.088388
v 0.039331 1.937279 0.084062
v 0.074813 1.937279 0.071508
v 0.102971 1.937279 0.051953
v 0.121050 1.937279 0.027314
v 0.127279 1.937279 0.000000
v 0.100623 1.955623 -0.022704
v 0.085595 1.955623 -0.043186
v 0.062189 1.955623 -0.059441
v 0.032694 1.955623 -0.069877
v 0.000000 1.955623 -0.073473
v -0.032694 1.955623 -0.069877
v -0.062188 1.955623 -0.059441
v -0.085595 1.955623 -0.043186
v -0.100623 1.955623 -0.022704
v -0.105801 1.955623 0.000000
v -0.100623 1.955623 0.022704
v -0.085595 1.955623 0.043186
v -0.062188 1.955623 0.059441
v -0.032694 1.955623 0.069877
v -0.000000 1.955623 0.073473
v 0.032694 1.955623 0.069877
v 0.062188 1.955623 0.059441
v 0.085595 1.955623 0.043186
v 0.100623 1.955623 0.022704
v 0.105801 1.955623 0.000000
v 0.077719 1.970381 -0.017536
v 0.066112 1.970381 -0.033356
v 0.048033 1.970381 -0.045911
v 0.025252 1.970381 -0.053971
v 0.000000 1.970381 -0.056749
v -0.025252 1.970381 -0.053971
v -0.048033 1.970381 -0.045911
v -0.066112 1.970381 -0.033356
v -0.077719 1.970381 -0.017536
v -0.081718 1.970381 0.000000
v -0.077719 1.970381 0.017536
v -0.066112 1.970381 0.033356
v -0.048033 1.970381 0.045911
v -0.025252 1.970381 0.053971
v -0.000000 1.970381 0.056749
v 0.025252 1.970381 0.053971
v 0.048033 1.970381 0.045911
v 0.066111 1.970381 0.033356
v 0.077719 1.970381 0.017536
v 0.081718 1.970381 0.000000
v 0.052901 1.981190 -0.011936
v 0.045000 1.981190 -0.022704
v 0.032694 1.981190 -0.031250
v 0.017188 1.981190 -0.036737
v 0.000000 1.981190 -0.038627
v -0.017188 1.981190 -0.036737
v -0.032694 1.981190 -0.031250
v -0.045000 1.981190 -0.022704
v -0.052901 1.981190 -0.011936
v -0.055623 1.981190 0.000000
v -0.052901 1.981190 0.011936
v -0.045000 1.981190 0.022704
v -0.032694 1.981190 0.031250
v -0.017188 1.981190 0.036737
v -0.000000 1.981190 0.038627
v 0.017188 1.981190 0.036737
v 0.032694 1.981190 0.031250
v 0.045000 1.981190 0.022704
v 0.052901 1.981190 0.011936
v 0.055623 1.981190 0.000000
v 0.026780 1.987784 -0.006043
v 0.022780 1.987784 -0.011494
v 0.016551 1.987784 -0.015820
v 0.008701 1.987784 -0.018597
v 0.000000 1.987784 -0.019554
v -0.008701 1.987784 -0.018597
v -0.016551 1.987784 -0.015820
v -0.022780 1.987784 -0.011494
v -0.026780 1.987784 -0.006043
v -0.028158 1.987784 0.000000
v -0.026780 1.987784 0.006043
v -0.022780 1.987784 0.011494
v -0.016551 1.987784 0.015820
v -0.008701 1.987784 0.018597
v -0.000000 1.987784 0.019554
v 0.008701 1.987784 0.018597
v 0.016551 1.987784 0.015820
v 0.022780 1.987784 0.011494
v 0.026780 1.987784 0.006043
v 0.028158 1.987784 0.000000
v 0.000000 1.630000 0.000000
v 0.000000 1.990000 0.000000
vt 0.000000 0.050000
vt 0.050000 0.050000
vt 0.100000 0.050000
vt 0.150000 0.050000
vt 0.200000 0.050000
vt 0.250000 0.050000
vt 0.300000 0.050000
vt 0.350000 0.050000
vt 0.400000 0.050000
vt 0.450000 0.050000
vt 0.500000 0.050000
vt 0.550000 0.050000
vt 0.600000 0.050000
vt 0.650000 0.050000
vt 0.700000 0.050000
vt 0.750000 0.050000
vt 0.800000 0.050000
vt 0.850000 0.050000
vt 0.900000 0.050000
vt 0.950000 0.050000
vt 1.000000 0.050000
vt 0.000000 0.100000
vt 0.050000 0.100000
vt 0.100000 0.100000
vt 0.150000 0.100000
vt 0.200000 0.100000
vt 0.250000 0.100000
vt 0.300000 0.100000
vt 0.350000 0.100000
vt 0.400000 0.100000
vt 0.450000 0.100000
vt 0.500000 0.100000
vt 0.550000 0.100000
vt 0.600000 0.100000
vt 0.650000 0.100000
vt 0.700000 0.100000
vt 0.750000 0.100000
vt 0.800000 0.100000
vt 0.850000 0.100000
vt 0.900000 0.100000
vt 0.950000 0.100000
vt 1.000000 0.100000
vt 0.000000 0.150000
vt 0.050000 0.150000
vt 0.100000 0.150000
vt 0.150000 0.150000
vt 0.200000 0.150000
vt 0.250000 0.150000
vt 0.300000 0.150000
vt 0.350000 0.150000
vt 0.400000 0.150000
vt 0.450000 0.150000
vt 0.500000 0.150000
vt 0.550000 0.150000
vt 0.600000 0.150000
vt 0.650000 0.150000
vt 0.700000 0.150000
vt 0.750000 0.150000
vt 0.800000 0.150000
vt 0.850000 0.150000
vt 0.900000 0.150000
vt 0.950000 0.150000
vt 1.000000 0.150000
vt 0.000000 0.200000
vt 0.050000 0.200000
vt 0.100000 0.200000
vt 0.150000 0.200000
vt 0.200000 0.200000
vt 0.250000 0.200000
vt 0.300000 0.200000
vt 0.350000 0.200000
vt 0.400000 0.200000
vt 0.450000 0.200000
vt 0.500000 0.200000
vt 0.550000 0.200000
vt 0.600000 0.200000
vt 0.650000 0.200000
vt 0.700000 0.200000
vt 0.750000 0.200000
vt 0.800000 0.200000
vt 0.850000 0.200000
vt 0.900000 0.200000
vt 0.950000 0.200000
vt 1.000000 0.200000
vt 0.000000 0.250000
vt 0.050000 0.250000
vt 0.100000 0.250000
vt 0.150000 0.250000
vt 0.200000 0.250000
vt 0.250000 0.250000
vt 0.300000 0.250000
vt 0.350000 0.250000
vt 0.400000 0.250000
vt 0.450000 0.250000
vt 0.500000 0.250000
vt 0.550000 0.250000
vt 0.600000 0.250000
vt 0.650000 0.250000
vt 0.700000 0.250000
vt 0.750000 0.250000
vt 0.800000 0.250000
vt 0.850000 0.250000
vt 0.900000 0.250000
vt 0.950000 0.250000
vt 1.000000 0.250000
vt 0.000000 0.300000
vt 0.050000 0.300000
vt 0.100000 0.300000
vt 0.150000 0.300000
vt 0.200000 0.300000
vt 0.250000 0.300000
vt 0.300000 0.300000
vt 0.350000 0.300000
vt 0.400000 0.300000
vt 0.450000 0.300000
vt 0.500000 0.300000
vt 0.550000 0.300000
vt 0.600000 0.300000
vt 0.650000 0.300000
vt 0.700000 0.300000
vt 0.750000 0.300000
vt 0.800000 0.300000
vt 0.850000 0.300000
vt 0.900000 0.300000
vt 0.950000 0.300000
vt 1.000000 0.300000
vt 0.000000 0.350000
vt 0.050000 0.350000
vt 0.100000 0.350000
vt 0.150000 0.350000
vt 0.200000 0.350000
vt 0.250000 0.350000
vt 0.300000 0.350000
vt 0.350000 0.350000
vt 0.400000 0.350000
vt 0.450000 0.350000
vt 0.500000 0.350000
vt 0.550000 0.350000
vt 0.600000 0.350000
vt 0.650000 0.350000
vt 0.700000 0.350000
vt 0.750000 0.350000
vt 0.800000 0.350000
vt 0.850000 0.350000
vt 0.900000 0.350000
vt 0.950000 0.350000
vt 1.000000 0.350000
vt 0.000000 0.400000
vt 0.050000 0.400000
vt 0.100000 0.400000
vt 0.150000 0.400000
vt 0.200000 0.400000
vt 0.250000 0.400000
vt 0.300000 0.400000
vt 0.350000 0.400000
vt 0.400000 0.400000
vt 0.450000 0.400000
vt 0.500000 0.400000
vt 0.550000 0.400000
vt 0.600000 0.400000
vt 0.650000 0.400000
vt 0.700000 0.400000
vt 0.750000 0.400000
vt 0.800000 0.400000
vt 0.850000 0.400000
vt 0.900000 0.400000
vt 0.950000 0.400000
vt 1.000000 0.400000
vt 0.000000 0.450000
vt 0.050000 0.450000
vt 0.100000 0.450000
vt 0.150000 0.450000
vt 0.200000 0.450000
vt 0.250000 0.450000
vt 0.300000 0.450000
vt 0.350000 0.450000
vt 0.400000 0.450000
vt 0.450000 0.450000
vt 0.500000 0.450000
vt 0.550000 0.450000
vt 0.600000 0.450000
vt 0.650000 0.450000
vt 0.700000 0.450000
vt 0.750000 0.450000
vt 0.800000 0.450000
vt 0.850000 0.450000
vt 0.900000 0.450000
vt 0.950000 0.450000
vt 1.000000 0.450000
vt 0.000000 0.500000
vt 0.050000 0.500000
vt 0.100000 0.500000
vt 0.150000 0.500000
vt 0.200000 0.500000
vt 0.250000 0.500000
vt 0.300000 0.500000
vt 0.350000 0.500000
vt 0.400000 0.500000
vt 0.450000 0.500000
vt 0.500000 0.500000
vt 0.550000 0.500000
vt 0.600000 0.500000
vt 0.650000 0.500000
vt 0.700000 0.500000
vt 0.750000 0.500000
vt 0.800000 0.500000
vt 0.850000 0.500000
vt 0.900000 0.500000
vt 0.950000 0.500000
vt 1.000000 0.500000
vt 0.000000 0.550000
vt 0.050000 0.550000
vt 0.100000 0.550000
vt 0.150000 0.550000
vt 0.200000 0.550000
vt 0.250000 0.550000
vt 0.300000 0.550000
vt 0.350000 0.550000
vt 0.400000 0.550000
vt 0.450000 0.550000
vt 0.500000 0.550000
vt 0.550000 0.550000
vt 0.600000 0.550000
vt 0.650000 0.550000
vt 0.700000 0.550000
vt 0.750000 0.550000
vt 0.800000 0.550000
vt 0.850000 0.550000
vt 0.900000 0.550000
vt 0.950000 0.550000
vt 1.000000 0.550000
vt 0.000000 0.600000
vt 0.050000 0.600000
vt 0.100000 0.600000
vt 0.150000 0.600000
vt 0.200000 0.600000
vt 0.250000 0.600000
vt 0.300000 0.600000
vt 0.350000 0.600000
vt 0.400000 0.600000
vt 0.450000 0.600000
vt 0.500000 0.600000
vt 0.550000 0.600000
vt 0.600000 0.600000
vt 0.650000 0.600000
vt 0.700000 0.600000
vt 0.750000 0.600000
vt 0.800000 0.600000
vt 0.850000 0.600000
vt 0.900000 0.600000
vt 0.950000 0.600000
vt 1.000000 0.600000
vt 0.000000 0.650000
vt 0.050000 0.650000
vt 0.100000 0.650000
vt 0.150000 0.650000
vt 0.200000 0.650000
vt 0.250000 0.650000
vt 0.300000 0.650000
vt 0.350000 0.650000
vt 0.400000 0.650000
vt 0.450000 0.650000
vt 0.500000 0.650000
vt 0.550000 0.650000
vt 0.600000 0.650000
vt 0.650000 0.650000
vt 0.700000 0.650000
vt 0.750000 0.650000
vt 0.800000 0.650000
vt 0.850000 0.650000
vt 0.900000 0.650000
vt 0.950000 0.650000
vt 1.000000 0.650000
vt 0.000000 0.700000
vt 0.050000 0.700000
vt 0.100000 0.700000
vt 0.150000 0.700000
vt 0.200000 0.700000
vt 0.250000 0.700000
vt 0.300000 0.700000
vt 0.350000 0.700000
vt 0.400000 0.700000
vt 0.450000 0.700000
vt 0.500000 0.700000
vt 0.550000 0.700000
vt 0.600000 0.700000
vt 0.650000 0.700000
vt 0.700000 0.700000
vt 0.750000 0.700000
vt 0.800000 0.700000
vt 0.850000 0.700000
vt 0.900000 0.700000
vt 0.950000 0.700000
vt 1.000000 0.700000
vt 0.000000 0.750000
vt 0.050000 0.750000
vt 0.100000 0.750000
vt 0.150000 0.750000
vt 0.200000 0.750000
vt 0.250000 0.750000
vt 0.300000 0.750000
vt 0.350000 0.750000
vt 0.400000 0.750000
vt 0.450000 0.750000
vt 0.500000 0.750000
vt 0.550000 0.750000
vt 0.600000 0.750000
vt 0.650000 0.750000
vt 0.700000 0.750000
vt 0.750000 0.750000
vt 0.800000 0.750000
vt 0.850000 0.750000
vt 0.900000 0.750000
vt 0.950000 0.750000
vt 1.000000 0.750000
vt 0.000000 0.800000
vt 0.050000 0.800000
vt 0.100000 0.800000
vt 0.150000 0.800000
vt 0.200000 0.800000
vt 0.250000 0.800000
vt 0.300000 0.800000
vt 0.350000 0.800000
vt 0.400000 0.800000
vt 0.450000 0.800000
vt 0.500000 0.800000
vt 0.550000 0.800000
vt 0.600000 0.800000
vt 0.650000 0.800000
vt 0.700000 0.800000
vt 0.750000 0.800000
vt 0.800000 0.800000
vt 0.850000 0.800000
vt 0.900000 0.800000
vt 0.950000 0.800000
vt 1.000000 0.800000
vt 0.000000 0.850000
vt 0.050000 0.850000
vt 0.100000 0.850000
vt 0.150000 0.850000
vt 0.200000 0.850000
vt 0.250000 0.850000
vt 0.300000 0.850000
vt 0.350000 0.850000
vt 0.400000 0.850000
vt 0.450000 0.850000
vt 0.500000 0.850000
vt 0.550000 0.850000
vt 0.600000 0.850000
vt 0.650000 0.850000
vt 0.700000 0.850000
vt 0.750000 0.850000
vt 0.800000 0.850000
vt 0.850000 0.850000
vt 0.900000 0.850000
vt 0.950000 0.850000
vt 1.000000 0.850000
vt 0.000000 0.900000
vt 0.050000 0.900000
vt 0.100000 0.900000
vt 0.150000 0.900000
vt 0.200000 0.900000
vt 0.250000 0.900000
vt 0.300000 0.900000
vt 0.350000 0.900000
vt 0.400000 0.900000
vt 0.450000 0.900000
vt 0.500000 0.900000
vt 0.550000 0.900000
vt 0.600000 0.900000
vt 0.650000 0.900000
vt 0.700000 0.900000
vt 0.750000 0.900000
vt 0.800000 0.900000
vt 0.850000 0.900000
vt 0.900000 0.900000
vt 0.950000 0.900000
vt 1.000000 0.900000
vt 0.000000 0.950000
vt 0.050000 0.950000
vt 0.100000 0.950000
vt 0.150000 0.950000
vt 0.200000 0.950000
vt 0.250000 0.950000
vt 0.300000 0.950000
vt 0.350000 0.950000
vt 0.400000 0.950000
vt 0.450000 0.950000
vt 0.500000 0.950000
vt 0.550000 0.950000
vt 0.600000 0.950000
vt 0.650000 0.950000
vt 0.700000 0.950000
vt 0.750000 0.950000
vt 0.800000 0.950000
vt 0.850000 0.950000
vt 0.900000 0.950000
vt 0.950000 0.950000
vt 1.000000 0.950000
vt 0.025000 0.000000
vt 0.075000 0.000000
vt 0.125000 0.000000
vt 0.175000 0.000000
vt 0.225000 0.000000
vt 0.275000 0.000000
vt 0.325000 0.000000
vt 0.375000 0.000000
vt 0.425000 0.000000
vt 0.475000 0.000000
vt 0.525000 0.000000
vt 0.575000 0.000000
vt 0.625000 0.000000
vt 0.675000 0.000000
vt 0.725000 0.000000
vt 0.775000 0.000000
vt 0.825000 0.000000
vt 0.875000 0.000000
vt 0.925000 0.000000
vt 0.975000 0.000000
vt 0.025000 1.000000
vt 0.075000 1.000000
vt 0.125000 1.000000
vt 0.175000 1.000000
vt 0.225000 1.000000
vt 0.275000 1.000000
vt 0.325000 1.000000
vt 0.375000 1.000000
vt 0.425000 1.000000
vt 0.475000 1.000000
vt 0.525000 1.000000
vt 0.575000 1.000000
vt 0.625000 1.000000
vt 0.675000 1.000000
vt 0.725000 1.000000
vt 0.775000 1.000000
vt 0.825000 1.000000
vt 0.875000 1.000000
vt 0.925000 1.000000
vt 0.975000 1.000000
vn 0.162413 -0.984146 -0.071267
vn 0.138649 -0.980464 -0.139527
vn 0.305885 -0.942216 -0.136613
vn 0.258138 -0.929756 -0.262524
vn 0.101441 -0.975846 -0.193477
vn 0.186110 -0.914730 -0.358652
vn 0.054743 -0.972060 -0.228260
vn 0.098740 -0.902871 -0.418418
vn 0.003076 -0.970505 -0.241062
vn 0.004095 -0.898191 -0.439586
vn -0.048868 -0.971743 -0.230926
vn -0.090837 -0.902152 -0.421746
vn -0.096386 -0.975328 -0.198608
vn -0.179125 -0.913522 -0.365228
vn -0.134924 -0.979938 -0.146688
vn -0.252809 -0.928487 -0.272029
vn -0.160431 -0.983817 -0.079784
vn -0.302967 -0.941399 -0.148253
vn -0.169980 -0.985437 -0.004497
vn -0.321786 -0.946792 -0.006217
vn -0.162412 -0.984146 0.071267
vn -0.305885 -0.942216 0.136614
vn -0.138649 -0.980464 0.139525
vn -0.258138 -0.929756 0.262524
vn -0.101441 -0.975846 0.193477
vn -0.186111 -0.914730 0.358652
vn -0.054743 -0.972060 0.228260
vn -0.098740 -0.902871 0.418419
vn -0.003076 -0.970505 0.241062
vn -0.004095 -0.898191 0.439586
vn 0.048868 -0.971743 0.230927
vn 0.090837 -0.902152 0.421746
vn 0.096386 -0.975328 0.198610
vn 0.179125 -0.913522 0.365229
vn 0.134924 -0.979938 0.146688
vn 0.252809 -0.928487 0.272029
vn 0.160431 -0.983817 0.079784
vn 0.302967 -0.941399 0.148252
vn 0.169980 -0.985437 0.004497
vn 0.321786 -0.946792 0.006217
vn 0.439256 -0.876322 -0.197772
vn 0.365244 -0.852803 -0.373261
vn 0.258797 -0.825775 -0.501118
vn 0.135170 -0.805382 -0.577138
vn 0.004658 -0.797607 -0.603160
vn -0.126066 -0.804373 -0.580596
vn -0.250460 -0.824018 -0.508198
vn -0.358573 -0.850868 -0.383992
vn -0.435447 -0.875022 -0.211476
vn -0.464923 -0.885320 -0.007445
vn -0.439256 -0.876322 0.197773
vn -0.365244 -0.852803 0.373261
vn -0.258797 -0.825775 0.501118
vn -0.135170 -0.805382 0.577139
vn -0.004658 -0.797606 0.603160
vn 0.126065 -0.804373 0.580596
vn 0.250459 -0.824018 0.508198
vn 0.358573 -0.850868 0.383992
vn 0.435447 -0.875022 0.211476
vn 0.464923 -0.885320 0.007446
vn 0.559450 -0.789103 -0.253637
vn 0.457266 -0.755446 -0.469264
vn 0.317970 -0.718794 -0.618247
vn 0.163508 -0.692425 -0.702718
vn 0.004639 -0.682704 -0.730680
vn -0.154322 -0.691369 -0.705829
vn -0.309244 -0.716887 -0.624853
vn -0.449909 -0.753233 -0.479815
vn -0.555035 -0.787542 -0.267795
vn -0.596507 -0.802570 -0.007854
vn -0.559449 -0.789103 0.253638
vn -0.457266 -0.755446 0.469264
vn -0.317971 -0.718794 0.618247
vn -0.163508 -0.692424 0.702719
vn -0.004640 -0.682704 0.730680
vn 0.154322 -0.691369 0.705829
vn 0.309244 -0.716886 0.624854
vn 0.449909 -0.753233 0.479815
vn 0.555035 -0.787542 0.267796
vn 0.596507 -0.802570 0.007855
vn 0.663916 -0.683718 -0.302896
vn 0.533132 -0.643535 -0.549211
vn 0.364096 -0.602055 -0.710608
vn 0.184596 -0.573514 -0.798126
vn 0.004211 -0.563308 -0.826236
vn -0.176163 -0.572610 -0.800677
vn -0.355812 -0.600366 -0.716211
vn -0.525786 -0.641473 -0.558624
vn -0.659278 -0.682187 -0.316187
vn -0.713565 -0.700548 -0.007541
vn -0.663916 -0.683717 0.302897
vn -0.533132 -0.643535 0.549211
vn -0.364096 -0.602055 0.710608
vn -0.184596 -0.573514 0.798126
vn -0.004211 -0.563308 0.826236
vn 0.176163 -0.572610 0.800677
vn 0.355812 -0.600366 0.716211
vn 0.525787 -0.641473 0.558625
vn 0.659278 -0.682187 0.316187
vn 0.713565 -0.700548 0.007542
vn 0.750806 -0.563566 -0.344505
vn 0.592999 -0.522072 -0.613020
vn 0.398624 -0.481265 -0.780694
vn 0.199699 -0.454238 -0.868210
vn 0.003537 -0.444819 -0.895614
vn -0.192551 -0.453582 -0.870165
vn -0.391405 -0.480004 -0.785110
vn -0.586308 -0.520464 -0.620774
vn -0.746375 -0.562314 -0.355987
vn -0.813365 -0.581715 -0.006660
vn -0.750806 -0.563566 0.344506
vn -0.592999 -0.522072 0.613020
vn -0.398624 -0.481264 0.780694
vn -0.199699 -0.454238 0.868210
vn -0.003537 -0.444819 0.895614
vn 0.192551 -0.453582 0.870165
vn 0.391405 -0.480004 0.785111
vn 0.586308 -0.520464 0.620774
vn 0.746375 -0.562314 0.355987
vn 0.813365 -0.581715 0.006661
vn 0.818933 -0.432035 -0.377750
vn 0.637716 -0.394842 -0.661376
vn 0.423235 -0.359707 -0.831555
vn 0.210010 -0.337132 -0.917735
vn 0.002726 -0.329424 -0.944178
vn -0.204462 -0.336734 -0.919133
vn -0.417511 -0.358926 -0.834779
vn -0.632219 -0.393811 -0.667242
vn -0.815142 -0.431199 -0.386796
vn -0.893549 -0.448934 -0.005351
vn -0.818932 -0.432035 0.377751
vn -0.637716 -0.394842 0.661376
vn -0.423235 -0.359707 0.831555
vn -0.210010 -0.337132 0.917735
vn -0.002726 -0.329424 0.944178
vn 0.204462 -0.336734 0.919133
vn 0.417510 -0.358926 0.834780
vn 0.632219 -0.393811 0.667242
vn 0.815142 -0.431199 0.386796
vn 0.893549 -0.448934 0.005352
vn 0.867632 -0.292329 -0.402193
vn 0.668355 -0.264435 -0.695252
vn 0.439412 -0.238867 -0.865944
vn 0.216464 -0.222796 -0.950529
vn 0.001845 -0.217396 -0.976082
vn -0.212691 -0.222612 -0.951423
vn -0.435461 -0.238500 -0.868039
vn -0.664462 -0.263936 -0.699162
vn -0.864864 -0.291913 -0.408408
vn -0.952218 -0.305396 -0.003733
vn -0.867631 -0.292329 0.402194
vn -0.668355 -0.264435 0.695252
vn -0.439412 -0.238867 0.865944
vn -0.216464 -0.222796 0.950529
vn -0.001845 -0.217396 0.976082
vn 0.212691 -0.222612 0.951423
vn 0.435461 -0.238500 0.868039
vn 0.664462 -0.263936 0.699162
vn 0.864864 -0.291913 0.408408
vn 0.952218 -0.305396 0.003734
vn 0.896602 -0.147406 -0.417584
vn 0.685880 -0.132488 -0.715553
vn 0.448260 -0.119074 -0.885937
vn 0.219705 -0.110757 -0.969259
vn 0.000929 -0.107994 -0.994151
vn -0.217799 -0.110710 -0.969694
vn -0.446247 -0.118980 -0.886965
vn -0.683866 -0.132358 -0.717502
vn -0.895142 -0.147295 -0.420743
vn -0.987984 -0.154547 -0.001915
vn -0.896602 -0.147406 0.417585
vn -0.685880 -0.132488 0.715553
vn -0.448260 -0.119074 0.885937
vn -0.219705 -0.110757 0.969259
vn -0.000929 -0.107994 0.994151
vn 0.217799 -0.110710 0.969694
vn 0.446247 -0.118980 0.886965
vn 0.683865 -0.132358 0.717502
vn 0.895142 -0.147295 0.420743
vn 0.987984 -0.154547 0.001917
vn 0.905761 -0.000000 -0.423790
vn 0.690958 0.000000 -0.722895
vn 0.450456 0.000000 -0.892799
vn 0.220105 -0.000000 -0.975476
vn -0.000000 0.000000 -1.000000
vn -0.220105 0.000000 -0.975476
vn -0.450456 -0.000000 -0.892799
vn -0.690958 -0.000000 -0.722895
vn -0.905760 0.000000 -0.423791
vn -1.000000 0.000000 0.000000
vn -0.905760 0.000000 0.423791
vn -0.690958 0.000000 0.722895
vn -0.450456 0.000000 0.892799
vn -0.220105 0.000000 0.975476
vn 0.000000 0.000000 1.000000
vn 0.220105 0.000000 0.975476
vn 0.450456 -0.000000 0.892799
vn 0.690958 0.000000 0.722895
vn 0.905760 -0.000000 0.423791
vn 1.000000 0.000000 0.000001
vn 0.895143 0.147295 -0.420741
vn 0.683865 0.132358 -0.717502
vn 0.446247 0.118980 -0.886965
vn 0.217798 0.110710 -0.969694
vn -0.000930 0.107994 -0.994151
vn -0.219705 0.110757 -0.969259
vn -0.448260 0.119074 -0.885937
vn -0.685880 0.132488 -0.715552
vn -0.896602 0.147406 -0.417585
vn -0.987984 0.154547 0.001915
vn -0.895142 0.147294 0.420743
vn -0.683865 0.132358 0.717502
vn -0.446247 0.118980 0.886966
vn -0.217799 0.110710 0.969694
vn 0.000930 0.107994 0.994151
vn 0.219705 0.110757 0.969259
vn 0.448260 0.119074 0.885937
vn 0.685880 0.132488 0.715553
vn 0.896601 0.147406 0.417585
vn 0.987984 0.154547 -0.001914
vn 0.864865 0.291913 -0.408407
vn 0.664462 0.263937 -0.699162
vn 0.435461 0.238500 -0.868039
vn 0.212691 0.222612 -0.951423
vn -0.001845 0.217396 -0.976082
vn -0.216465 0.222796 -0.950529
vn -0.439412 0.238867 -0.865944
vn -0.668355 0.264435 -0.695252
vn -0.867631 0.292329 -0.402194
vn -0.952218 0.305396 0.003733
vn -0.864864 0.291912 0.408408
vn -0.664462 0.263936 0.699162
vn -0.435461 0.238499 0.868039
vn -0.212691 0.222612 0.951423
vn 0.001845 0.217396 0.976082
vn 0.216464 0.222796 0.950529
vn 0.439412 0.238867 0.865944
vn 0.668355 0.264435 0.695252
vn 0.867631 0.292329 0.402194
vn 0.952218 0.305396 -0.003731
vn 0.815142 0.431199 -0.386795
vn 0.632219 0.393811 -0.667242
vn 0.417511 0.358926 -0.834780
vn 0.204461 0.336734 -0.919133
vn -0.002726 0.329424 -0.944178
vn -0.210010 0.337132 -0.917735
vn -0.423236 0.359707 -0.831554
vn -0.637716 0.394842 -0.661375
vn -0.818932 0.432035 -0.377751
vn -0.893549 0.448934 0.005350
vn -0.815142 0.431199 0.386796
vn -0.632219 0.393811 0.667242
vn -0.417511 0.358926 0.834780
vn -0.204461 0.336734 0.919133
vn 0.002726 0.329424 0.944178
vn 0.210011 0.337132 0.917735
vn 0.423235 0.359706 0.831555
vn 0.637716 0.394842 0.661376
vn 0.818932 0.432035 0.377751
vn 0.893549 0.448934 -0.005349
vn 0.746376 0.562314 -0.355986
vn 0.586308 0.520464 -0.620774
vn 0.391405 0.480004 -0.785110
vn 0.192551 0.453582 -0.870165
vn -0.003537 0.444819 -0.895614
vn -0.199699 0.454238 -0.868210
vn -0.398624 0.481264 -0.780694
vn -0.592999 0.522072 -0.613020
vn -0.750806 0.563566 -0.344506
vn -0.813365 0.581715 0.006660
vn -0.746375 0.562314 0.355987
vn -0.586308 0.520464 0.620774
vn -0.391405 0.480004 0.785111
vn -0.192551 0.453582 0.870165
vn 0.003537 0.444819 0.895614
vn 0.199699 0.454238 0.868210
vn 0.398624 0.481264 0.780694
vn 0.592999 0.522072 0.613020
vn 0.750806 0.563566 0.344506
vn 0.813365 0.581715 -0.006659
vn 0.659278 0.682187 -0.316186
vn 0.525786 0.641473 -0.558624
vn 0.355812 0.600366 -0.716211
vn 0.176163 0.572610 -0.800678
vn -0.004211 0.563308 -0.826236
vn -0.184596 0.573514 -0.798126
vn -0.364096 0.602055 -0.710608
vn -0.533132 0.643535 -0.549211
vn -0.663916 0.683717 -0.302897
vn -0.713565 0.700548 0.007541
vn -0.659278 0.682187 0.316187
vn -0.525787 0.641472 0.558625
vn -0.355812 0.600366 0.716211
vn -0.176163 0.572610 0.800678
vn 0.004211 0.563308 0.826236
vn 0.184596 0.573514 0.798126
vn 0.364096 0.602055 0.710608
vn 0.533132 0.643535 0.549211
vn 0.663916 0.683717 0.302897
vn 0.713565 0.700548 -0.007540
vn 0.555035 0.787542 -0.267795
vn 0.449909 0.753233 -0.479815
vn 0.309244 0.716886 -0.624854
vn 0.154322 0.691369 -0.705829
vn -0.004640 0.682704 -0.730680
vn -0.163508 0.692425 -0.702719
vn -0.317971 0.718794 -0.618247
vn -0.457266 0.755446 -0.469264
vn -0.559450 0.789103 -0.253638
vn -0.596507 0.802570 0.007854
vn -0.555035 0.787542 0.267796
vn -0.449909 0.753233 0.479815
vn -0.309244 0.716886 0.624854
vn -0.154322 0.691369 0.705829
vn 0.004640 0.682704 0.730680
vn 0.163508 0.692424 0.702719
vn 0.317971 0.718794 0.618248
vn 0.457266 0.755446 0.469264
vn 0.559450 0.789103 0.253638
vn 0.596506 0.802570 -0.007853
vn 0.435447 0.875023 -0.211475
vn 0.358573 0.850868 -0.383992
vn 0.250459 0.824018 -0.508198
vn 0.126065 0.804373 -0.580596
vn -0.004658 0.797607 -0.603160
vn -0.135171 0.805382 -0.577138
vn -0.258797 0.825775 -0.501118
vn -0.365244 0.852803 -0.373260
vn -0.439256 0.876322 -0.197773
vn -0.464923 0.885320 0.007445
vn -0.435447 0.875023 0.211476
vn -0.358573 0.850868 0.383992
vn -0.250460 0.824018 0.508198
vn -0.126065 0.804373 0.580596
vn 0.004658 0.797606 0.603160
vn 0.135170 0.805382 0.577139
vn 0.258797 0.825775 0.501118
vn 0.365244 0.852803 0.373261
vn 0.439256 0.876322 0.197772
vn 0.464923 0.885320 -0.007445
vn 0.302967 0.941399 -0.148253
vn 0.252809 0.928487 -0.272030
vn 0.179125 0.913522 -0.365229
vn 0.090837 0.902153 -0.421746
vn -0.004095 0.898191 -0.439586
vn -0.098740 0.902871 -0.418418
vn -0.186111 0.914730 -0.358652
vn -0.258138 0.929756 -0.262524
vn -0.305885 0.942216 -0.136615
vn -0.321786 0.946792 0.006217
vn -0.302967 0.941399 0.148253
vn -0.252809 0.928487 0.272030
vn -0.179125 0.913522 0.365229
vn -0.090837 0.902152 0.421746
vn 0.004095 0.898191 0.439586
vn 0.098740 0.902871 0.418419
vn 0.186111 0.914730 0.358652
vn 0.258138 0.929756 0.262524
vn 0.305885 0.942216 0.136615
vn 0.321786 0.946792 -0.006216
vn 0.160431 0.983817 -0.079784
vn 0.134924 0.979938 -0.146686
vn 0.096386 0.975328 -0.198608
vn 0.048868 0.971743 -0.230927
vn -0.003076 0.970505 -0.241062
vn -0.054744 0.972060 -0.228260
vn -0.101441 0.975846 -0.193477
vn -0.138649 0.980464 -0.139525
vn -0.162412 0.984146 -0.071268
vn -0.169980 0.985437 0.004497
vn -0.160431 0.983817 0.079784
vn -0.134924 0.979938 0.146688
vn -0.096386 0.975328 0.198609
vn -0.048868 0.971743 0.230927
vn 0.003076 0.970505 0.241062
vn 0.054744 0.972060 0.228260
vn 0.101441 0.975846 0.193477
vn 0.138649 0.980464 0.139525
vn 0.162412 0.984146 0.071268
vn 0.169980 0.985437 -0.004497
vn -0.000000 -1.000000 -0.000000
vn -0.000000 1.000000 0.000000
s 1
g pSphere2
usemtl initialShadingGroup
f 127/253/247 128/254/248 147/274/249
f 147/274/249 128/254/248 148/275/250
f 128/254/248 129/255/251 148/275/250
f 148/275/250 129/255/251 149/276/252
f 129/255/251 130/256/253 149/276/252
f 149/276/252 130/256/253 150/277/254
f 130/256/253 131/257/255 150/277/254
f 150/277/254 131/257/255 151/278/256
f 131/257/255 132/258/257 151/278/256
f 151/278/256 132/258/257 152/279/258
f 132/258/257 133/259/259 152/279/258
f 152/279/258 133/259/259 153/280/260
f 133/259/259 134/260/261 153/280/260
f 153/280/260 134/260/261 154/281/262
f 134/260/261 135/261/263 154/281/262
f 154/281/262 135/261/263 155/282/264
f 135/261/263 136/262/265 155/282/264
f 155/282/264 136/262/265 156/283/266
f 136/262/265 137/263/267 156/283/266
f 156/283/266 137/263/267 157/284/268
f 137/263/267 138/264/269 157/284/268
f 157/284/268 138/264/269 158/285/270
f 138/264/269 139/265/271 158/285/270
f 158/285/270 139/265/271 159/286/272
f 139/265/271 140/266/273 159/286/272
f 159/286/272 140/266/273 160/287/274
f 140/266/273 141/267/275 160/287/274
f 160/287/274 141/267/275 161/288/276
f 141/267/275 142/268/277 161/288/276
f 161/288/276 142/268/277 162/289/278
f 142/268/277 143/269/279 162/289/278
f 162/289/278 143/269/279 163/290/280
f 143/269/279 144/270/281 163/290/280
f 163/290/280 144/270/281 164/291/282
f 144/270/281 145/271/283 164/291/282
f 164/291/282 145/271/283 165/292/284
f 145/271/283 146/272/285 165/292/284
f 165/292/284 146/272/285 166/293/286
f 146/272/285 127/273/247 166/293/286
f 166/293/286 127/273/247 147/294/249
f 147/274/249 148/275/250 167/295/287
f 167/295/287 148/275/250 168/296/288
f 148/275/250 149/276/252 168/296/288
f 168/296/288 149/276/252 169/297/289
f 149/276/252 150/277/254 169/297/289
f 169/297/289 150/277/254 170/298/290
f 150/277/254 151/278/256 170/298/290
f 170/298/290 151/278/256 171/299/291
f 151/278/256 152/279/258 171/299/291
f 171/299/291 152/279/258 172/300/292
f 152/279/258 153/280/260 172/300/292
f 172/300/292 153/280/260 173/301/293
f 153/280/260 154/281/262 173/301/293
f 173/301/293 154/281/262 174/302/294
f 154/281/262 155/282/264 174/302/294
f 174/302/294 155/282/264 175/303/295
f 155/282/264 156/283/266 175/303/295
f 175/303/295 156/283/266 176/304/296
f 156/283/266 157/284/268 176/304/296
f 176/304/296 157/284/268 177/305/297
f 157/284/268 158/285/270 177/305/297
f 177/305/297 158/285/270 178/306/298
f 158/285/270 159/286/272 178/306/298
f 178/306/298 159/286/272 179/307/299
f 159/286/272 160/287/274 179/307/299
f 179/307/299 160/287/274 180/308/300
f 160/287/274 161/288/276 180/308/300
f 180/308/300 161/288/276 181/309/301
f 161/288/276 162/289/278 181/309/301
f 181/309/301 162/289/278 182/310/302
f 162/289/278 163/290/280 182/310/302
f 182/310/302 163/290/280 183/311/303
f 163/290/280 164/291/282 183/311/303
f 183/311/303 164/291/282 184/312/304
f 164/291/282 165/292/284 184/312/304
f 184/312/304 165/292/284 185/313/305
f 165/292/284 166/293/286 185/313/305
f 185/313/305 166/293/286 186/314/306
f 166/293/286 147/294/249 186/314/306
f 186/314/306 147/294/249 167/315/287
f 167/295/287 168/296/288 187/316/307
f 187/316/307 168/296/288 188/317/308
f 168/296/288 169/297/289 188/317/308
f 188/317/308 169/297/289 189/318/309
f 169/297/289 170/298/290 189/318/309
f 189/318/309 170/298/290 190/319/310
f 170/298/290 171/299/291 190/319/310
f 190/319/310 171/299/291 191/320/311
f 171/299/291 172/300/292 191/320/311
f 191/320/311 172/300/292 192/321/312
f 172/300/292 173/301/293 192/321/312
f 192/321/312 173/301/293 193/322/313
f 173/301/293 174/302/294 193/322/313
f 193/322/313 174/302/294 194/323/314
f 174/302/294 175/303/295 194/323/314
f 194/323/314 175/303/295 195/324/315
f 175/303/295 176/304/296 195/324/315
f 195/324/315 176/304/296 196/325/316
f 176/304/296 177/305/297 196/325/316
f 196/325/316 177/305/297 197/326/317
f 177/305/297 178/306/298 197/326/317
f 197/326/317 178/306/298 198/327/318
f 178/306/298 179/307/299 198/327/318
f 198/327/318 179/307/299 199/328/319
f 179/307/299 180/308/300 199/328/319
f 199/328/319 180/308/300 200/329/320
f 180/308/300 181/309/301 200/329/320
f 200/329/320 181/309/301 201/330/321
f 181/309/301 182/310/302 201/330/321
f 201/330/321 182/310/302 202/331/322
f 182/310/302 183/311/303 202/331/322
f 202/331/322 183/311/303 203/332/323
f 183/311/303 184/312/304 203/332/323
f 203/332/323 184/312/304 204/333/324
f 184/312/304 185/313/305 204/333/324
f 204/333/324 185/313/305 205/334/325
f 185/313/305 186/314/306 205/334/325
f 205/334/325 186/314/306 206/335/326
f 186/314/306 167/315/287 206/335/326
f 206/335/326 167/315/287 187/336/307
f 187/316/307 188/317/308 207/337/327
f 207/337/327 188/317/308 208/338/328
f 188/317/308 189/318/309 208/338/328
f 208/338/328 189/318/309 209/339/329
f 189/318/309 190/319/310 209/339/329
f 209/339/329 190/319/310 210/340/330
f 190/319/310 191/320/311 210/340/330
f 210/340/330 191/320/311 211/341/331
f 191/320/311 192/321/312 211/341/331
f 211/341/331 192/321/312 212/342/332
f 192/321/312 193/322/313 212/342/332
f 212/342/332 193/322/313 213/343/333
f 193/322/313 194/323/314 213/343/333
f 213/343/333 194/323/314 214/344/334
f 194/323/314 195/324/315 214/344/334
f 214/344/334 195/324/315 215/345/335
f 195/324/315 196/325/316 215/345/335
f 215/345/335 196/325/316 216/346/336
f 196/325/316 197/326/317 216/346/336
f 216/346/336 197/326/317 217/347/337
f 197/326/317 198/327/318 217/347/337
f 217/347/337 198/327/318 218/348/338
f 198/327/318 199/328/319 218/348/338
f 218/348/338 199/328/319 219/349/339
f 199/328/319 200/329/320 219/349/339
f 219/349/339 200/329/320 220/350/340
f 200/329/320 201/330/321 220/350/340
f 220/350/340 201/330/321 221/351/341
f 201/330/321 202/331/322 221/351/341
f 221/351/341 202/331/322 222/352/342
f 202/331/322 203/332/323 222/352/342
f 222/352/342 203/332/323 223/353/343
f 203/332/323 204/333/324 223/353/343
f 223/353/343 204/333/324 224/354/344
f 204/333/324 205/334/325 224/354/344
f 224/354/344 205/334/325 225/355/345
f 205/334/325 206/335/326 225/355/345
f 225/355/345 206/335/326 226/356/346
f 206/335/326 187/336/307 226/356/346
f 226/356/346 187/336/307 207/357/327
f 207/337/327 208/338/328 227/358/347
f 227/358/347 208/338/328 228/359/348
f 208/338/328 209/339/329 228/359/348
f 228/359/348 209/339/329 229/360/349
f 209/339/329 210/340/330 229/360/349
f 229/360/349 210/340/330 230/361/350
f 210/340/330 211/341/331 230/361/350
f 230/361/350 211/341/331 231/362/351
f 211/341/331 212/342/332 231/362/351
f 231/362/351 212/342/332 232/363/352
f 212/342/332 213/343/333 232/363/352
f 232/363/352 213/343/333 233/364/353
f 213/343/333 214/344/334 233/364/353
f 233/364/353 214/344/334 234/365/354
f 214/344/334 215/345/335 234/365/354
f 234/365/354 215/345/335 235/366/355
f 215/345/335 216/346/336 235/366/355
f 235/366/355 216/346/336 236/367/356
f 216/346/336 217/347/337 236/367/356
f 236/367/356 217/347/337 237/368/357
f 217/347/337 218/348/338 237/368/357
f 237/368/357 218/348/338 238/369/358
f 218/348/338 219/349/339 238/369/358
f 238/369/358 219/349/339 239/370/359
f 219/349/339 220/350/340 239/370/359
f 239/370/359 220/350/340 240/371/360
f 220/350/340 221/351/341 240/371/360
f 240/371/360 221/351/341 241/372/361
f 221/351/341 222/352/342 241/372/361
f 241/372/361 222/352/342 242/373/362
f 222/352/342 223/353/343 242/373/362
f 242/373/362 223/353/343 243/374/363
f 223/353/343 224/354/344 243/374/363
f 243/374/363 224/354/344 244/375/364
f 224/354/344 225/355/345 244/375/364
f 244/375/364 225/355/345 245/376/365
f 225/355/345 226/356/346 245/376/365
f 245/376/365 226/356/346 246/377/366
f 226/356/346 207/357/327 246/377/366
f 246/377/366 207/357/327 227/378/347
f 227/358/347 228/359/348 247/379/367
f 247/379/367 228/359/348 248/380/368
f 228/359/348 229/360/349 248/380/368
f 248/380/368 229/360/349 249/381/369
f 229/360/349 230/361/350 249/381/369
f 249/381/369 230/361/350 250/382/370
f 230/361/350 231/362/351 250/382/370
f 250/382/370 231/362/351 251/383/371
f 231/362/351 232/363/352 251/383/371
f 251/383/371 232/363/352 252/384/372
f 232/363/352 233/364/353 252/384/372
f 252/384/372 233/364/353 253/385/373
f 233/364/353 234/365/354 253/385/373
f 253/385/373 234/365/354 254/386/374
f 234/365/354 235/366/355 254/386/374
f 254/386/374 235/366/355 255/387/375
f 235/366/355 236/367/356 255/387/375
f 255/387/375 236/367/356 256/388/376
f 236/367/356 237/368/357 256/388/376
f 256/388/376 237/368/357 257/389/377
f 237/368/357 238/369/358 257/389/377
f 257/389/377 238/369/358 258/390/378
f 238/369/358 239/370/359 258/390/378
f 258/390/378 239/370/359 259/391/379
f 239/370/359 240/371/360 259/391/379
f 259/391/379 240/371/360 260/392/380
f 240/371/360 241/372/361 260/392/380
f 260/392/380 241/372/361 261/393/381
f 241/372/361 242/373/362 261/393/381
f 261/393/381 242/373/362 262/394/382
f 242/373/362 243/374/363 262/394/382
f 262/394/382 243/374/363 263/395/383
f 243/374/363 244/375/364 263/395/383
f 263/395/383 244/375/364 264/396/384
f 244/375/364 245/376/365 264/396/384
f 264/396/384 245/376/365 265/397/385
f 245/376/365 246/377/366 265/397/385
f 265/397/385 246/377/366 266/398/386
f 246/377/366 227/378/347 266/398/386
f 266/398/386 227/378/347 247/399/367
f 247/379/367 248/380/368 267/400/387
f 267/400/387 248/380/368 268/401/388
f 248/380/368 249/381/369 268/401/388
f 268/401/388 249/381/369 269/402/389
f 249/381/369 250/382/370 269/402/389
f 269/402/389 250/382/370 270/403/390
f 250/382/370 251/383/371 270/403/390
f 270/403/390 251/383/371 271/404/391
f 251/383/371 252/384/372 271/404/391
f 271/404/391 252/384/372 272/405/392
f 252/384/372 253/385/373 272/405/392
f 272/405/392 253/385/373 273/406/393
f 253/385/373 254/386/374 273/406/393
f 273/406/393 254/386/374 274/407/394
f 254/386/374 255/387/375 274/407/394
f 274/407/394 255/387/375 275/408/395
f 255/387/375 256/388/376 275/408/395
f 275/408/395 256/388/376 276/409/396
f 256/388/376 257/389/377 276/409/396
f 276/409/396 257/389/377 277/410/397
f 257/389/377 258/390/378 277/410/397
f 277/410/397 258/390/378 278/411/398
f 258/390/378 259/391/379 278/411/398
f 278/411/398 259/391/379 279/412/399
f 259/391/379 260/392/380 279/412/399
f 279/412/399 260/392/380 280/413/400
f 260/392/380 261/393/381 280/413/400
f 280/413/400 261/393/381 281/414/401
f 261/393/381 262/394/382 281/414/401
f 281/414/401 262/394/382 282/415/402
f 262/394/382 263/395/383 282/415/402
f 282/415/402 263/395/383 283/416/403
f 263/395/383 264/396/384 283/416/403
f 283/416/403 264/396/384 284/417/404
f 264/396/384 265/397/385 284/417/404
f 284/417/404 265/397/385 285/418/405
f 265/397/385 266/398/386 285/418/405
f 285/418/405 266/398/386 286/419/406
f 266/398/386 247/399/367 286/419/406
f 286/419/406 247/399/367 267/420/387
f 267/400/387 268/401/388 287/421/407
f 287/421/407 268/401/388 288/422/408
f 268/401/388 269/402/389 288/422/408
f 288/422/408 269/402/389 289/423/409
f 269/402/389 270/403/390 289/423/409
f 289/423/409 270/403/390 290/424/410
f 270/403/390 271/404/391 290/424/410
f 290/424/410 271/404/391 291/425/411
f 271/404/391 272/405/392 291/425/411
f 291/425/411 272/405/392 292/426/412
f 272/405/392 273/406/393 292/426/412
f 292/426/412 273/406/393 293/427/413
f 273/406/393 274/407/394 293/427/413
f 293/427/413 274/407/394 294/428/414
f 274/407/394 275/408/395 294/428/414
f 294/428/414 275/408/395 295/429/415
f 275/408/395 276/409/396 295/429/415
f 295/429/415 276/409/396 296/430/416
f 276/409/396 277/410/397 296/430/416
f 296/430/416 277/410/397 297/431/417
f 277/410/397 278/411/398 297/431/417
f 297/431/417 278/411/398 298/432/418
f 278/411/398 279/412/399 298/432/418
f 298/432/418 279/412/399 299/433/419
f 279/412/399 280/413/400 299/433/419
f 299/433/419 280/413/400 300/434/420
f 280/413/400 281/414/401 300/434/420
f 300/434/420 281/414/401 301/435/421
f 281/414/401 282/415/402 301/435/421
f 301/435/421 282/415/402 302/436/422
f 282/415/402 283/416/403 302/436/422
f 302/436/422 283/416/403 303/437/423
f 283/416/403 284/417/404 303/437/423
f 303/437/423 284/417/404 304/438/424
f 284/417/404 285/418/405 304/438/424
f 304/438/424 285/418/405 305/439/425
f 285/418/405 286/419/406 305/439/425
f 305/439/425 286/419/406 306/440/426
f 286/419/406 267/420/387 306/440/426
f 306/440/426 267/420/387 287/441/407
f 287/421/407 288/422/408 307/442/427
f 307/442/427 288/422/408 308/443/428
f 288/422/408 289/423/409 308/443/428
f 308/443/428 289/423/409 309/444/429
f 289/423/409 290/424/410 309/444/429
f 309/444/429 290/424/410 310/445/430
f 290/424/410 291/425/411 310/445/430
f 310/445/430 291/425/411 311/446/431
f 291/425/411 292/426/412 311/446/431
f 311/446/431 292/426/412 312/447/432
f 292/426/412 293/427/413 312/447/432
f 312/447/432 293/427/413 313/448/433
f 293/427/413 294/428/414 313/448/433
f 313/448/433 294/428/414 314/449/434
f 294/428/414 295/429/415 314/449/434
f 314/449/434 295/429/415 315/450/435
f 295/429/415 296/430/416 315/450/435
f 315/450/435 296/430/416 316/451/436
f 296/430/416 297/431/417 316/451/436
f 316/451/436 297/431/417 317/452/437
f 297/431/417 298/432/418 317/452/437
f 317/452/437 298/432/418 318/453/438
f 298/432/418 299/433/419 318/453/438
f 318/453/438 299/433/419 319/454/439
f 299/433/419 300/434/420 319/454/439
f 319/454/439 300/434/420 320/455/440
f 300/434/420 301/435/421 320/455/440
f 320/455/440 301/435/421 321/456/441
f 301/435/421 302/436/422 321/456/441
f 321/456/441 302/436/422 322/457/442
f 302/436/422 303/437/423 322/457/442
f 322/457/442 303/437/423 323/458/443
f 303/437/423 304/438/424 323/458/443
f 323/458/443 304/438/424 324/459/444
f 304/438/424 305/439/425 324/459/444
f 324/459/444 305/439/425 325/460/445
f 305/439/425 306/440/426 325/460/445
f 325/460/445 306/440/426 326/461/446
f 306/440/426 287/441/407 326/461/446
f 326/461/446 287/441/407 307/462/427
f 307/442/427 308/443/428 327/463/447
f 327/463/447 308/443/428 328/464/448
f 308/443/428 309/444/429 328/464/448
f 328/464/448 309/444/429 329/465/449
f 309/444/429 310/445/430 329/465/449
f 329/465/449 310/445/430 330/466/450
f 310/445/430 311/446/431 330/466/450
f 330/466/450 311/446/431 331/467/451
f 311/446/431 312/447/432 331/467/451
f 331/467/451 312/447/432 332/468/452
f 312/447/432 313/448/433 332/468/452
f 332/468/452 313/448/433 333/469/453
f 313/448/433 314/449/434 333/469/453
f 333/469/453 314/449/434 334/470/454
f 314/449/434 315/450/435 334/470/454
f 334/470/454 315/450/435 335/471/455
f 315/450/435 316/451/436 335/471/455
f 335/471/455 316/451/436 336/472/456
f 316/451/436 317/452/437 336/472/456
f 336/472/456 317/452/437 337/473/457
f 317/452/437 318/453/438 337/473/457
f 337/473/457 318/453/438 338/474/458
f 318/453/438 319/454/439 338/474/458
f 338/474/458 319/454/439 339/475/459
f 319/454/439 320/455/440 339/475/459
f 339/475/459 320/455/440 340/476/460
f 320/455/440 321/456/441 340/476/460
f 340/476/460 321/456/441 341/477/461
f 321/456/441 322/457/442 341/477/461
f 341/477/461 322/457/442 342/478/462
f 322/457/442 323/458/443 342/478/462
f 342/478/462 323/458/443 343/479/463
f 323/458/443 324/459/444 343/479/463
f 343/479/463 324/459/444 344/480/464
f 324/459/444 325/460/445 344/480/464
f 344/480/464 325/460/445 345/481/465
f 325/460/445 326/461/446 345/481/465
f 345/481/465 326/461/446 346/482/466
f 326/461/446 307/462/427 346/482/466
f 346/482/466 307/462/427 327/483/447
f 327/463/447 328/464/448 347/484/467
f 347/484/467 328/464/448 348/485/468
f 328/464/448 329/465/449 348/485/468
f 348/485/468 329/465/449 349/486/469
f 329/465/449 330/466/450 349/486/469
f 349/486/469 330/466/450 350/487/470
f 330/466/450 331/467/451 350/487/470
f 350/487/470 331/467/451 351/488/471
f 331/467/451 332/468/452 351/488/471
f 351/488/471 332/468/452 352/489/472
f 332/468/452 333/469/453 352/489/472
f 352/489/472 333/469/453 353/490/473
f 333/469/453 334/470/454 353/490/473
f 353/490/473 334/470/454 354/491/474
f 334/470/454 335/471/455 354/491/474
f 354/491/474 335/471/455 355/492/475
f 335/471/455 336/472/456 355/492/475
f 355/492/475 336/472/456 356/493/476
f 336/472/456 337/473/457 356/493/476
f 356/493/476 337/473/457 357/494/477
f 337/473/457 338/474/458 357/494/477
f 357/494/477 338/474/458 358/495/478
f 338/474/458 339/475/459 358/495/478
f 358/495/478 339/475/459 359/496/479
f 339/475/459 340/476/460 359/496/479
f 359/496/479 340/476/460 360/497/480
f 340/476/460 341/477/461 360/497/480
f 360/497/480 341/477/461 361/498/481
f 341/477/461 342/478/462 361/498/481
f 361/498/481 342/478/462 362/499/482
f 342/478/462 343/479/463 362/499/482
f 362/499/482 343/479/463 363/500/483
f 343/479/463 344/480/464 363/500/483
f 363/500/483 344/480/464 364/501/484
f 344/480/464 345/481/465 364/501/484
f 364/501/484 345/481/465 365/502/485
f 345/481/465 346/482/466 365/502/485
f 365/502/485 346/482/466 366/503/486
f 346/482/466 327/483/447 366/503/486
f 366/503/486 327/483/447 347/504/467
f 347/484/467 348/485/468 367/505/487
f 367/505/487 348/485/468 368/506/488
f 348/485/468 349/486/469 368/506/488
f 368/506/488 349/486/469 369/507/489
f 349/486/469 350/487/470 369/507/489
f 369/507/489 350/487/470 370/508/490
f 350/487/470 351/488/471 370/508/490
f 370/508/490 351/488/471 371/509/491
f 351/488/471 352/489/472 371/509/491
f 371/509/491 352/489/472 372/510/492
f 352/489/472 353/490/473 372/510/492
f 372/510/492 353/490/473 373/511/493
f 353/490/473 354/491/474 373/511/493
f 373/511/493 354/491/474 374/512/494
f 354/491/474 355/492/475 374/512/494
f 374/512/494 355/492/475 375/513/495
f 355/492/475 356/493/476 375/513/495
f 375/513/495 356/493/476 376/514/496
f 356/493/476 357/494/477 376/514/496
f 376/514/496 357/494/477 377/515/497
f 357/494/477 358/495/478 377/515/497
f 377/515/497 358/495/478 378/516/498
f 358/495/478 359/496/479 378/516/498
f 378/516/498 359/496/479 379/517/499
f 359/496/479 360/497/480 379/517/499
f 379/517/499 360/497/480 380/518/500
f 360/497/480 361/498/481 380/518/500
f 380/518/500 361/498/481 381/519/501
f 361/498/481 362/499/482 381/519/501
f 381/519/501 362/499/482 382/520/502
f 362/499/482 363/500/483 382/520/502
f 382/520/502 363/500/483 383/521/503
f 363/500/483 364/501/484 383/521/503
f 383/521/503 364/501/484 384/522/504
f 364/501/484 365/502/485 384/522/504
f 384/522/504 365/502/485 385/523/505
f 365/502/485 366/503/486 385/523/505
f 385/523/505 366/503/486 386/524/506
f 366/503/486 347/504/467 386/524/506
f 386/524/506 347/504/467 367/525/487
f 367/505/487 368/506/488 387/526/507
f 387/526/507 368/506/488 388/527/508
f 368/506/488 369/507/489 388/527/508
f 388/527/508 369/507/489 389/528/509
f 369/507/489 370/508/490 389/528/509
f 389/528/509 370/508/490 390/529/510
f 370/508/490 371/509/491 390/529/510
f 390/529/510 371/509/491 391/530/511
f 371/509/491 372/510/492 391/530/511
f 391/530/511 372/510/492 392/531/512
f 372/510/492 373/511/493 392/531/512
f 392/531/512 373/511/493 393/532/513
f 373/511/493 374/512/494 393/532/513
f 393/532/513 374/512/494 394/533/514
f 374/512/494 375/513/495 394/533/514
f 394/533/514 375/513/495 395/534/515
f 375/513/495 376/514/496 395/534/515
f 395/534/515 376/514/496 396/535/516
f 376/514/496 377/515/497 396/535/516
f 396/535/516 377/515/497 397/536/517
f 377/515/497 378/516/498 397/536/517
f 397/536/517 378/516/498 398/537/518
f 378/516/498 379/517/499 398/537/518
f 398/537/518 379/517/499 399/538/519
f 379/517/499 380/518/500 399/538/519
f 399/538/519 380/518/500 400/539/520
f 380/518/500 381/519/501 400/539/520
f 400/539/520 381/519/501 401/540/521
f 381/519/501 382/520/502 401/540/521
f 401/540/521 382/520/502 402/541/522
f 382/520/502 383/521/503 402/541/522
f 402/541/522 383/521/503 403/542/523
f 383/521/503 384/522/504 403/542/523
f 403/542/523 384/522/504 404/543/524
f 384/522/504 385/523/505 404/543/524
f 404/543/524 385/523/505 405/544/525
f 385/523/505 386/524/506 405/544/525
f 405/544/525 386/524/506 406/545/526
f 386/524/506 367/525/487 406/545/526
f 406/545/526 367/525/487 387/546/507
f 387/526/507 388/527/508 407/547/527
f 407/547/527 388/527/508 408/548/528
f 388/527/508 389/528/509 408/548/528
f 408/548/528 389/528/509 409/549/529
f 389/528/509 390/529/510 409/549/529
f 409/549/529 390/529/510 410/550/530
f 390/529/510 391/530/511 410/550/530
f 410/550/530 391/530/511 411/551/531
f 391/530/511 392/531/512 411/551/531
f 411/551/531 392/531/512 412/552/532
f 392/531/512 393/532/513 412/552/532
f 412/552/532 393/532/513 413/553/533
f 393/532/513 394/533/514 413/553/533
f 413/553/533 394/533/514 414/554/534
f 394/533/514 395/534/515 414/554/534
f 414/554/534 395/534/515 415/555/535
f 395/534/515 396/535/516 415/555/535
f 415/555/535 396/535/516 416/556/536
f 396/535/516 397/536/517 416/556/536
f 416/556/536 397/536/517 417/557/537
f 397/536/517 398/537/518 417/557/537
f 417/557/537 398/537/518 418/558/538
f 398/537/518 399/538/519 418/558/538
f 418/558/538 399/538/519 419/559/539
f 399/538/519 400/539/520 419/559/539
f 419/559/539 400/539/520 420/560/540
f 400/539/520 401/540/521 420/560/540
f 420/560/540 401/540/521 421/561/541
f 401/540/521 402/541/522 421/561/541
f 421/561/541 402/541/522 422/562/542
f 402/541/522 403/542/523 422/562/542
f 422/562/542 403/542/523 423/563/543
f 403/542/523 404/543/524 423/563/543
f 423/563/543 404/543/524 424/564/544
f 404/543/524 405/544/525 424/564/544
f 424/564/544 405/544/525 425/565/545
f 405/544/525 406/545/526 425/565/545
f 425/565/545 406/545/526 426/566/546
f 406/545/526 387/546/507 426/566/546
f 426/566/546 387/546/507 407/567/527
f 407/547/527 408/548/528 427/568/547
f 427/568/547 408/548/528 428/569/548
f 408/548/528 409/549/529 428/569/548
f 428/569/548 409/549/529 429/570/549
f 409/549/529 410/550/530 429/570/549
f 429/570/549 410/550/530 430/571/550
f 410/550/530 411/551/531 430/571/550
f 430/571/550 411/551/531 431/572/551
f 411/551/531 412/552/532 431/572/551
f 431/572/551 412/552/532 432/573/552
f 412/552/532 413/553/533 432/573/552
f 432/573/552 413/553/533 433/574/553
f 413/553/533 414/554/534 433/574/553
f 433/574/553 414/554/534 434/575/554
f 414/554/534 415/555/535 434/575/554
f 434/575/554 415/555/535 435/576/555
f 415/555/535 416/556/536 435/576/555
f 435/576/555 416/556/536 436/577/556
f 416/556/536 417/557/537 436/577/556
f 436/577/556 417/557/537 437/578/557
f 417/557/537 418/558/538 437/578/557
f 437/578/557 418/558/538 438/579/558
f 418/558/538 419/559/539 438/579/558
f 438/579/558 419/559/539 439/580/559
f 419/559/539 420/560/540 439/580/559
f 439/580/559 420/560/540 440/581/560
f 420/560/540 421/561/541 440/581/560
f 440/581/560 421/561/541 441/582/561
f 421/561/541 422/562/542 441/582/561
f 441/582/561 422/562/542 442/583/562
f 422/562/542 423/563/543 442/583/562
f 442/583/562 423/563/543 443/584/563
f 423/563/543 424/564/544 443/584/563
f 443/584/563 424/564/544 444/585/564
f 424/564/544 425/565/545 444/585/564
f 444/585/564 425/565/545 445/586/565
f 425/565/545 426/566/546 445/586/565
f 445/586/565 426/566/546 446/587/566
f 426/566/546 407/567/527 446/587/566
f 446/587/566 407/567/527 427/588/547
f 427/568/547 428/569/548 447/589/567
f 447/589/567 428/569/548 448/590/568
f 428/569/548 429/570/549 448/590/568
f 448/590/568 429/570/549 449/591/569
f 429/570/549 430/571/550 449/591/569
f 449/591/569 430/571/550 450/592/570
f 430/571/550 431/572/551 450/592/570
f 450/592/570 431/572/551 451/593/571
f 431/572/551 432/573/552 451/593/571
f 451/593/571 432/573/552 452/594/572
f 432/573/552 433/574/553 452/594/572
f 452/594/572 433/574/553 453/595/573
f 433/574/553 434/575/554 453/595/573
f 453/595/573 434/575/554 454/596/574
f 434/575/554 435/576/555 454/596/574
f 454/596/574 435/576/555 455/597/575
f 435/576/555 436/577/556 455/597/575
f 455/597/575 436/577/556 456/598/576
f 436/577/556 437/578/557 456/598/576
f 456/598/576 437/578/557 457/599/577
f 437/578/557 438/579/558 457/599/577
f 457/599/577 438/579/558 458/600/578
f 438/579/558 439/580/559 458/600/578
f 458/600/578 439/580/559 459/601/579
f 439/580/559 440/581/560 459/601/579
f 459/601/579 440/581/560 460/602/580
f 440/581/560 441/582/561 460/602/580
f 460/602/580 441/582/561 461/603/581
f 441/582/561 442/583/562 461/603/581
f 461/603/581 442/583/562 462/604/582
f 442/583/562 443/584/563 462/604/582
f 462/604/582 443/584/563 463/605/583
f 443/584/563 444/585/564 463/605/583
f 463/605/583 444/585/564 464/606/584
f 444/585/564 445/586/565 464/606/584
f 464/606/584 445/586/565 465/607/585
f 445/586/565 446/587/566 465/607/585
f 465/607/585 446/587/566 466/608/586
f 446/587/566 427/588/547 466/608/586
f 466/608/586 427/588/547 447/609/567
f 447/589/567 448/590/568 467/610/587
f 467/610/587 448/590/568 468/611/588
f 448/590/568 449/591/569 468/611/588
f 468/611/588 449/591/569 469/612/589
f 449/591/569 450/592/570 469/612/589
f 469/612/589 450/592/570 470/613/590
f 450/592/570 451/593/571 470/613/590
f 470/613/590 451/593/571 471/614/591
f 451/593/571 452/594/572 471/614/591
f 471/614/591 452/594/572 472/615/592
f 452/594/572 453/595/573 472/615/592
f 472/615/592 453/595/573 473/616/593
f 453/595/573 454/596/574 473/616/593
f 473/616/593 454/596/574 474/617/594
f 454/596/574 455/597/575 474/617/594
f 474/617/594 455/597/575 475/618/595
f 455/597/575 456/598/576 475/618/595
f 475/618/595 456/598/576 476/619/596
f 456/598/576 457/599/577 476/619/596
f 476/619/596 457/599/577 477/620/597
f 457/599/577 458/600/578 477/620/597
f 477/620/597 458/600/578 478/621/598
f 458/600/578 459/601/579 478/621/598
f 478/621/598 459/601/579 479/622/599
f 459/601/579 460/602/580 479/622/599
f 479/622/599 460/602/580 480/623/600
f 460/602/580 461/603/581 480/623/600
f 480/623/600 461/603/581 481/624/601
f 461/603/581 462/604/582 481/624/601
f 481/624/601 462/604/582 482/625/602
f 462/604/582 463/605/583 482/625/602
f 482/625/602 463/605/583 483/626/603
f 463/605/583 464/606/584 483/626/603
f 483/626/603 464/606/584 484/627/604
f 464/606/584 465/607/585 484/627/604
f 484/627/604 465/607/585 485/628/605
f 465/607/585 466/608/586 485/628/605
f 485/628/605 466/608/586 486/629/606
f 466/608/586 447/609/567 486/629/606
f 486/629/606 447/609/567 467/630/587
f 467/610/587 468/611/588 487/631/607
f 487/631/607 468/611/588 488/632/608
f 468/611/588 469/612/589 488/632/608
f 488/632/608 469/612/589 489/633/609
f 469/612/589 470/613/590 489/633/609
f 489/633/609 470/613/590 490/634/610
f 470/613/590 471/614/591 490/634/610
f 490/634/610 471/614/591 491/635/611
f 471/614/591 472/615/592 491/635/611
f 491/635/611 472/615/592 492/636/612
f 472/615/592 473/616/593 492/636/612
f 492/636/612 473/616/593 493/637/613
f 473/616/593 474/617/594 493/637/613
f 493/637/613 474/617/594 494/638/614
f 474/617/594 475/618/595 494/638/614
f 494/638/614 475/618/595 495/639/615
f 475/618/595 476/619/596 495/639/615
f 495/639/615 476/619/596 496/640/616
f 476/619/596 477/620/597 496/640/616
f 496/640/616 477/620/597 497/641/617
f 477/620/597 478/621/598 497/641/617
f 497/641/617 478/621/598 498/642/618
f 478/621/598 479/622/599 498/642/618
f 498/642/618 479/622/599 499/643/619
f 479/622/599 480/623/600 499/643/619
f 499/643/619 480/623/600 500/644/620
f 480/623/600 481/624/601 500/644/620
f 500/644/620 481/624/601 501/645/621
f 481/624/601 482/625/602 501/645/621
f 501/645/621 482/625/602 502/646/622
f 482/625/602 483/626/603 502/646/622
f 502/646/622 483/626/603 503/647/623
f 483/626/603 484/627/604 503/647/623
f 503/647/623 484/627/604 504/648/624
f 484/627/604 485/628/605 504/648/624
f 504/648/624 485/628/605 505/649/625
f 485/628/605 486/629/606 505/649/625
f 505/649/625 486/629/606 506/650/626
f 486/629/606 467/630/587 506/650/626
f 506/650/626 467/630/587 487/651/607
f 128/254/248 127/253/247 507/652/627
f 129/255/251 128/254/248 507/653/627
f 130/256/253 129/255/251 507/654/627
f 131/257/255 130/256/253 507/655/627
f 132/258/257 131/257/255 507/656/627
f 133/259/259 132/258/257 507/657/627
f 134/260/261 133/259/259 507/658/627
f 135/261/263 134/260/261 507/659/627
f 136/262/265 135/261/263 507/660/627
f 137/263/267 136/262/265 507/661/627
f 138/264/269 137/263/267 507/662/627
f 139/265/271 138/264/269 507/663/627
f 140/266/273 139/265/271 507/664/627
f 141/267/275 140/266/273 507/665/627
f 142/268/277 141/267/275 507/666/627
f 143/269/279 142/268/277 507/667/627
f 144/270/281 143/269/279 507/668/627
f 145/271/283 144/270/281 507/669/627
f 146/272/285 145/271/283 507/670/627
f 127/273/247 146/272/285 507/671/627
f 487/631/607 488/632/608 508/672/628
f 488/632/608 489/633/609 508/673/628
f 489/633/609 490/634/610 508/674/628
f 490/634/610 491/635/611 508/675/628
f 491/635/611 492/636/612 508/676/628
f 492/636/612 493/637/613 508/677/628
f 493/637/613 494/638/614 508/678/628
f 494/638/614 495/639/615 508/679/628
f 495/639/615 496/640/616 508/680/628
f 496/640/616 497/641/617 508/681/628
f 497/641/617 498/642/618 508/682/628
f 498/642/618 499/643/619 508/683/628
f 499/643/619 500/644/620 508/684/628
f 500/644/620 501/645/621 508/685/628
f 501/645/621 502/646/622 508/686/628
f 502/646/622 503/647/623 508/687/628
f 503/647/623 504/648/624 508/688/628
f 504/648/624 505/649/625 508/689/628
f 505/649/625 506/650/626 508/690/628
f 506/650/626 487/651/607 508/691/628
