newmtl cosmo:cosmo_arm
illum 4
Kd 0.00 0.00 0.00
Ka 0.20 0.20 0.20
Tf 1.00 1.00 1.00
map_Kd Image_2D_0109_0067.png
Ni 1.00
Ks 0.00 0.00 0.00
Ns 0.00
newmtl cosmo:cosmo_black
illum 4
Kd 0.00 0.00 0.00
Ka 0.20 0.20 0.20
Tf 1.00 1.00 1.00
map_Kd Image_2D_0115_0073.png
Ni 1.00
Ks 0.00 0.00 0.00
Ns 0.00
newmtl cosmo:cosmo_brow
illum 4
Kd 0.00 0.00 0.00
Ka 0.20 0.20 0.20
Tf 1.00 1.00 1.00
map_Kd Image_2D_0111_0069.png
Ni 1.00
Ks 0.00 0.00 0.00
Ns 0.00
newmtl cosmo:cosmo_crown
illum 4
Kd 0.00 0.00 0.00
Ka 0.20 0.20 0.20
Tf 1.00 1.00 1.00
map_Kd Image_2D_0108_0066.png
Ni 1.00
Ks 0.00 0.00 0.00
Ns 0.00
newmtl cosmo:cosmo_crowninside
illum 4
Kd 0.00 0.00 0.00
Ka 0.20 0.20 0.20
Tf 1.00 1.00 1.00
map_Kd Image_2D_0107_0065.png
Ni 1.00
Ks 0.00 0.00 0.00
Ns 0.00
newmtl cosmo:cosmo_face
illum 4
Kd 0.00 0.00 0.00
Ka 0.20 0.20 0.20
Tf 1.00 1.00 1.00
map_Kd Image_2D_0112_0070.png
Ni 1.00
Ks 0.00 0.00 0.00
Ns 0.00
newmtl cosmo:cosmo_hair
illum 4
Kd 0.00 0.00 0.00
Ka 0.20 0.20 0.20
Tf 1.00 1.00 1.00
map_Kd Image_2D_0114_0072.png
Ni 1.00
Ks 0.00 0.00 0.00
Ns 0.00
newmtl cosmo:cosmo_skin
illum 4
Kd 0.00 0.00 0.00
Ka 0.20 0.20 0.20
Tf 1.00 1.00 1.00
map_Kd Image_2D_0113_0071.png
Ni 1.00
Ks 0.00 0.00 0.00
Ns 0.00
newmtl cosmo:cosmo_tie
illum 4
Kd 0.00 0.00 0.00
Ka 0.20 0.20 0.20
Tf 1.00 1.00 1.00
map_Kd Image_2D_0116_0074.png
Ni 1.00
Ks 0.00 0.00 0.00
Ns 0.00
newmtl cosmo:cosmo_wrinkle
illum 4
Kd 0.00 0.00 0.00
Ka 0.20 0.20 0.20
Tf 1.00 1.00 1.00
map_Kd Image_2D_0110_0068.png
Ni 1.00
Ks 0.00 0.00 0.00
Ns 0.00
